date,price,gradient_price
2020-07-01-00-00,8123.77,-43.93000000000029
2020-07-06-00-00,8079.84,55.55499999999938
2020-07-11-00-00,8234.88,-14.139999999999873
2020-07-16-00-00,8051.56,-109.71499999999969
2020-07-21-00-00,8015.45,141.10500000000002
2020-07-26-00-00,8333.77,692.8399999999997
2020-07-31-00-00,9401.13,589.1199999999999
2020-08-05-00-00,9512.01,269.4300000000003
2020-08-10-00-00,9939.99,232.26500000000033
2020-08-15-00-00,9976.54,3.2100000000000364
2020-08-20-00-00,9946.41,10.484999999999673
2020-08-25-00-00,9997.51,-137.98499999999967
2020-08-30-00-00,9670.44,-684.4300000000003
2020-09-04-00-00,8628.65,-545.3699999999999
2020-09-09-00-00,8579.7,52.13500000000022
2020-09-14-00-00,8732.92,338.2649999999994
2020-09-19-00-00,9256.23,21.93000000000029
2020-09-24-00-00,8776.78,-49.154999999999745
2020-09-29-00-00,9157.92,116.40499999999975
2020-10-04-00-00,9009.59,66.15499999999975
2020-10-09-00-00,9290.23,364.1300000000001
2020-10-14-00-00,9737.85,274.28499999999985
2020-10-19-00-00,9838.8,575.4949999999999
2020-10-24-00-00,10888.84,736.04
2020-10-29-00-00,11310.88,371.3599999999997
2020-11-03-00-00,11631.56,523.3500000000004
2020-11-08-00-00,12357.58,1099.4300000000003
2020-11-13-00-00,13830.42,1271.21
2020-11-18-00-00,14900.0,856.0600000000004
2020-11-23-00-00,15542.54,-302.90999999999985
2020-11-28-00-00,14294.18,182.69999999999982
2020-12-03-00-00,15907.94,768.3850000000002
2020-12-08-00-00,15830.95,-161.44999999999982
2020-12-13-00-00,15585.04,1337.7649999999994
2020-12-18-00-00,18506.48,1950.1299999999992
2020-12-23-00-00,19485.3,1418.0249999999996
2020-12-28-00-00,21342.53,2257.3500000000004
2021-01-02-00-00,24000.0,4221.685000000001
2021-01-07-00-00,29785.9,2374.7299999999996
2021-01-12-00-00,28749.46,-89.58500000000095
2021-01-17-00-00,29606.73,-1868.6099999999988
2021-01-22-00-00,25012.24,-1504.42
2021-01-27-00-00,26597.89,1066.5849999999991
2021-02-01-00-00,27145.41,2678.5550000000003
2021-02-06-00-00,31955.0,4870.004999999999
2021-02-11-00-00,36885.42,3773.8650000000016
2021-02-16-00-00,39502.73,4634.255000000001
2021-02-21-00-00,46153.93,-403.2950000000019
2021-02-26-00-00,38696.14,-3074.1450000000004
2021-03-03-00-00,40005.64,2125.244999999999
2021-03-08-00-00,42946.63,2940.989999999998
