,id,submission_id,score,body
0,9t3ssc,9t3ssc,1,New platform Kambo offers loans with Bitcoin as a collateral. 
0,9t3o07,9t3o07,3,"What is the lightest sync mode for bcoin with transaction history support?. I'm trying to run a Bitcoin JSON-RPC server but syncing is stuck ""Rolling forward"" and that seems a recurrent issue. I'd like to be able to retrieve transaction history from those wallets managed by the node but also don't want the full blockchain occupying too much space on disk. Does bcoin support light or fast sync mode that's still able to do that."
0,e8tzgwl,9t3jf3,8,Wait another 1.5 months and it'll be the day BTC was 3x a year earlier. 
1,e8tvi8u,9t3jf3,2,I'm interested to see history btc price in Halloween days
2,e8v9vb3,9t3jf3,1,"From another perspective, BTC spent most of 2017 below 3K.  And it's spent all of 2018 so far above 5.5K. (+83.3%)

Alternatively, the average price in 2017 was roughly 4K and the average price in 2018 has been 8K. (+100%)

Either way you look at it, if you smooth out the effect of the outlier months the price is reflecting a significant increase in people's confidence in BTC from 2017 to 2018.

It's hard not to focus on the couple months of extreme hype, but I'm quite encouraged when I step back and consider the price in the right context.

I remember how excited I was when BTC hit 3K in August of last year.  Sometime around then I predicted it would hit 20K by the end of 2020.  Back then I would have been pumped if I'd known BTC would be at 6300 now.  

I'm keeping my focus on the long game."
3,e8turnv,9t3jf3,2,Chart?
4,e8u9zuo,9t3jf3,2,Can you elaborate a little for us please?
5,e8uv34w,9t3jf3,1,deltas?
6,e8u1rar,9t3jf3,12,Press X to doubt
7,e8u1vzf,9t3jf3,2,Please explain. 
8,e8tviqc,9t3jf3,3,"The Bolsanaro chart suggests the Fibonacci peaks are due for a correction to the up or downside.  This is not financial advice.  Normally I would follow that by telling you what to buy but I don’t have time to do that now.

Some say you can make a chart fit what you want it to depending on how you look at the data.   I hope most people in Bitcoin are in it for the medium and long term."
9,e8vsyk4,9t3jf3,1,Close to the bottom he speculates 
10,e8uhtv6,9t3jf3,1,F
11,e8u3x9j,9t3jf3,3,hes referencing the USD ATH. Currently about 70% down from that.
12,e8vt15q,9t3jf3,1,"Sorry, i meant in relation to the halving and deltas."
13,e8u3yzw,9t3jf3,0,Is he saying that in 1.5 months BTC will be worth 3x it’s worth at ATH? He is bullish?
14,e8vugij,9t3jf3,2,I dont know what he means by the deltas but we are about half way to the next halving
15,e8u42hj,9t3jf3,5,"No, He was saying ATH will be 3x what BTC is worth in 1.5 months (implying it will maintain this stability at 6500 ish for at least the next 90 days which is definitely possible.)"
16,e8ua12n,9t3jf3,1,"no, exact opposite"
17,e8vuijt,9t3jf3,1,"So, does he mean that we go on a climb as we approach the halving?"
18,e8u4k6t,9t3jf3,0,So roughly 16.2 thousand dollars? Why? The new futures contract/ETF?
19,e8vuymo,9t3jf3,2,More or less but at this point the market is baking in that expected supply drop. Last time there was a halvening the peak approached before the actual halvening and I imagine it will happen like that again this time
20,e8u68iz,9t3jf3,3,"No.

One third of last years price."
21,e8u6hbb,9t3jf3,3,"No, the way he worded it is a bit confusing.

The ATH (20K) is 3x the current price of 6.4K 
The current price will stay the same for 90 days and will still be 1/3 of the ATH at christmas)"
22,e8wfewt,9t3jf3,1,Halving in 2020? When exactly?
23,e8wvbat,9t3jf3,2,[https://www.bitcoinblockhalf.com/](https://www.bitcoinblockhalf.com/)
0,9t3gea,9t3gea,3,10 Year Anniversary of Bitcoin White Paper!. 
1,e8tdmca,9t3gea,2,It's ten years to the date the Bitcoin whitepaper was published! Time for cake. 
2,e9i0xmw,9t3gea,1,absolutely
0,9t3gd3,9t3gd3,7,Former Fed Chair Janet Yellen Is Now a Bitcoin Owner. 
0,9t3era,9t3era,1,"Happy Whitepaper day! Help us make excellent crypto memes and merch. Hi guys, happy whitepaper day!

Today, on the 10th anniversary of Satoshi's whitepaper, we're launching SwagChain - a new brand for crypto memes and merch 🎃🎉

This  isn't a sales pitch. At this point, I'm really not interested in  selling you stuff. What I want is your feedback on our store and  concept. The whole thing is set up more like a source of insider crypto  memes than a store. We'll be sharing a lot of content aimed at the  different crypto communities and I just want to know if it's a hit or  miss with you guys.

Here's a meme we made to celebrate the occasion:

[It's Moses... get it?](https://preview.redd.it/fs19rp3zdlv11.jpg?width=1158&format=pjpg&auto=webp&s=065c4c900e73f89a1731221d21a2c622353df09b)

I'd really appreciate it if you checked out the site at [https://swagchain.shop/](https://swagchain.shop/)

I  promise there's enough content on there to keep you entertained and  sorry if this breaks the subreddit rules... I personally think our Moses  meme is very high quality content, but others might dissagree :)"
1,edvrfiu,9t3era,1,Would you be interested in selling this [deck of crypto-themed playing cards](http://crypto-playing-cards.com) I've developed?
0,9t3c0c,9t3c0c,0,"Breaking news: Bitcoin crashes. &#x200B;

https://preview.redd.it/m28zkxpaelv11.png?width=960&format=png&auto=webp&s=6371b875a14702cd7d340aece8fd495f61473d14

https://preview.redd.it/ii87s15celv11.png?width=960&format=png&auto=webp&s=9738a994016aa037ed24418715b88e39b48521b4

https://preview.redd.it/8lpf2fddelv11.png?width=960&format=png&auto=webp&s=ef01301f69cd18baa78c4c75165272a27b69ba61

Excuse the clickbait title, it's a little joke.  
The thing is:  The ""bitcoineta"" (argentinian bus that travels the country to promote the usage of Bitcoin) crashed in the road.  
Nobody got injured.  
No other vehicles were involved."
1,e8tcqam,9t3c0c,1,*(panic selling intensifies)*
2,e8tdemr,9t3c0c,1,You meant a bitcoin Bus? 
3,e8tl5l0,9t3c0c,1,Love it. You got me. Already panic sold everything 
4,e8tepco,9t3c0c,1,"Yes, in Argentina there is a Bitcoin bus called ""La Bitcoineta"" that travels the country to promote the usage of cryptocurrencies, especially Bitcoin.  
It crashed yesterday.  Luckily nobody was injured.  
No other vehicles were involved."
0,e8tcc4y,9t37jb,1,May 2020
1,e8tcao5,9t37jb,0,Real Q: Do you seriously not know how to take a screenshot of something?
2,e8td36s,9t37jb,1,Seriously why be a dick
3,e8tchu2,9t37jb,1,Yes....it was sent to me like that
0,9t36wl,9t36wl,8,I love bitcoin. That is all
1,e8tt56c,9t36wl,2,me too bro
2,e8tc87j,9t36wl,3,I love BITconeeeeeeeeeeeecctt!
3,e8tlh2y,9t36wl,1,I love you too
4,e8tqbtw,9t36wl,0,The love of money is the root of all evil. Or so they say. 
5,e8twanp,9t36wl,2,😂 
6,e8td6cq,9t36wl,0,I don't lol
7,e8te372,9t36wl,3,Hey hey heyyyyyyy
8,e8u3d4h,9t36wl,1,Wassa wassa wassup
0,9t341e,9t341e,1,A Brief History of Bitcoin. 
0,9t33vr,9t33vr,8,"When will Bitcoin's value stop being measured with fiat?. It seems to me that it is almost exclusively valued in fiat. Especially the USD. Even though the most incompetent and corrupt financial institution in world history just creates it out if thin air while claiming that it is real money.

Real money isn't valued soley against other currency. Especially fraudulent fiats. Doing so makes it seem like its only value is that it can be sold for fiat.

Bitcoin's value should be measured against what of value that can be bought with it. Fiat doesn't count because it is worthless.

I've even seen people talking about it in terms of fiat when predicting the value years down the line. Sure it is going to the moon but saying that it will be worth $××× is kinda meaningless because fiat will be hyperinflating by then.

This may be difficult but it is necessary if Bitcoin is ever to destroy fiat. We need to make it happen as soon as possible instead of waiting for it for happen 

"
1,e8tbslv,9t33vr,9,Never
2,e8tggki,9t33vr,3,If fiat is worthless how can you buy bitcoin with it? 
3,e8tbnfz,9t33vr,2,"When the US economy collapses, bringing all world currencies down with it!"
4,e8thag1,9t33vr,2,when fiat is valued in BTC.
5,e8tb0xy,9t33vr,2,"When it's actually adopted and used for purchases. 

When it's stable.

"
6,e8tb1me,9t33vr,1,Imo fiat will always be but with btc we people have the power to evade the atrocious future central bankers are preparing for the 99% people. Im just considering btc as the new gold. 
7,e8tbm04,9t33vr,1,Utill the fiat become deprecated.
8,e8teqg4,9t33vr,1,"When it becomes your primary currency, so probably never."
9,e8thxin,9t33vr,1,"> This may be difficult but it is necessary if Bitcoin is ever to destroy fiat.

Calm down there, internet revolutionary
"
10,e8tidhl,9t33vr,1,I think it will be more of a cultural switch. All most have ever known is the dollar and its ingrained into society. It could take generations to be fully adopted. Millennials are the beginning of crypto but as Gen Z comes into the game and the boomers start to become irrelevant a lot of things are going to be changing and quickly.
11,e8tikr5,9t33vr,1,"a date of this being reality is hard to estimate but among a slew of other events here are some things that have to happen:

increased scaling solutions i.e. mass adoption of lighting network or other 2nd/3rd layer solutions that will enable truly cheap and instant transactions to take place. that will make accepting bitcoin to be feasible for the likes of walmart, amazon, macy's etc.. will begin with these companies immediately converting back to fiat and slowly evolve to them holding a portion and then all of it.

breakthrough in the wallet convenience/security conundrum - currently most secure wallets are very complicated to the general public. most user friendly wallets are not secure enough for irreversible transactions (and are also still too complicated for non-tech folk).

increase in price so large that volatility is decreased. people aren't going to routinely spend btc if they perceive that it can still greatly increase in value. and the masses (not devout hodlers) will not want to have it at all if they perceive it can still drop >40% in value over a short time frame."
12,e8tjjrm,9t33vr,1,"When fiat dies.

Why is it a problem? The dollar is measured in euros and vice versa."
13,e8tm4vk,9t33vr,1,"IMO it is simple. People will start thinking of Bitcoin's value without comparing it to fiat when they are used to buying things with Bitcoin. Until then there's no frame of reference so they convert it to something whose value they have a rough idea of, such as the US dollar."
14,e8to0oa,9t33vr,1,"If you want to value something, you need something else of value as a reference. USD is the most popular currency, so it's logic to use it as a reference. 
"
15,e8u1ybu,9t33vr,1,"Money is a measuring tool. It measures value accross an ecomomy.

Why would we use a measuring tool that is always changing instead of a measuring tool that is static. Obviously a static measurement that doesnt change is beneficial, it allows certainty when building your future.

Soon instead of measuring bitcoin in dollars all fiat currencies will be measured against a unit of bitcoin.

Bitcoin will be the standard to achieve stability against just like today the USD is the standard to achieve stability with. Soon if your monetary policy makes your currency fall against bitcoin you will not be considered a legitimate government.

It will be the job of global governments to try and achieve stability with bitcoin for if they do not people will dump their fiat currency and buy btc just like today they dump weaker currencies and buy dollars. Right now we are trying to create stable coins when in the near future governments will be trying to make their fiat currencies stable against bitcoin or risk a currency crisis and soverign debt crisis."
16,e8u24sp,9t33vr,1,When people start using coins predominantly for fiat-unrelated transactions on average :p
17,e8u3jjx,9t33vr,1,[There you go](http://bitcoinppi.com/)
18,e8trb79,9t33vr,1,"Written like a lunatic.

 Believe it or not bitcoin will not take over the world and fiat value will not die. 

If you think fiat value will no longer exist you have zero knowledge of how world  economics work. "
19,e8tb40h,9t33vr,1,"I think when people start to realize how much of a snow job the purveyors of fiat are foisting on the general public, and are shown how bitcoin differs, then the societal change to bitcoin will begin to happen. That’s the flippening I’ve been waiting for. When society is woke rather than lemmings "
20,e8tfqeo,9t33vr,1,I've been thinking for some time to create a website tracking the opposite. Tracking fiat currencies and f.e. the gold price in their Bitcoin value. For me that's how it makes the most sense. 
21,e8th60e,9t33vr,0,"Not everyone knows it is fake.

/s"
22,e8tiqh7,9t33vr,4,I dunno about you but I used my life savings and a second mortrage to buy as many BTC as possible. So I need this to happen as soon as possible or it may ruin my life.
23,e8u837k,9t33vr,-1,"lighting network can't scale, google double spend issue. Other layers would have the same flaw"
24,e8trvi0,9t33vr,2,Sure the fiat value will exist. In our coins making us all really rich.
25,e8tcq0c,9t33vr,2,I'm reading 'The Bitcoin Standard' at the moment - it's mostly discussed economic policies and Keynesian vs Austrian theory so far.  Definitely feeling like I've taken the red pill.  The mental gymnastics we go through to justify our current monetary system and policy is just mindblowing.
26,e8tk0ng,9t33vr,1,Then it’s technically not worthless...
27,e8tjmlr,9t33vr,2,That was a mistake.
28,e8u5ip7,9t33vr,1,">  it ~~may~~ will ruin my life.


There, fixed it for you.
"
29,e8y2rul,9t33vr,1,"using debt to finance an investment is not only insane, but a guaranteed way to screw yourself."
30,e8tkrfz,9t33vr,1,"Kinda like the gymnastics bitcoiners go through to build the economy, and turn the commodity into a currency, don’t you think?"
31,e8tlxl6,9t33vr,2,"It doesn't matter if the USD is the most important fiat currency in the world. I hate the evil bankers (yeah redundant) who print them. And since my feelings trump reality, fiats are worthless."
32,e8tm4q2,9t33vr,1,"95% I become really rich. 5% chance I fucked myself.

Seems like a good risk to me."
33,e8y3dwr,9t33vr,1,It is a guaranteed way to win when the investment is going to the moon.
34,e8tmpzu,9t33vr,1,"Ok you are clearly trolling, I'm glad."
35,e8tmld6,9t33vr,1,"You are delusional. As I posted in your other thread, go outside and get some fresh air and sunshine. I hope you at least aren't risking the home of any dependants with your second mortgage play."
36,e8tmvx4,9t33vr,2,"
I'm actually thinking of having my mom take out a mortgage on her house to buy more. I'm pretty sure I can get her to do it 

I take it that you think that is a bad idea?"
37,e8tn738,9t33vr,1,Never invest more than you can afford to lose. If you have to borrow the money you can't afford to lose it.
0,9t32tp,9t32tp,1,"Earn free bitcoin with pivot app, Just read the post and get power, to get more power share the post. The Pivot gaves you PVT Then you can convert it to bitcoin.. "
0,9t32bl,9t32bl,0,Anyone have experiences with Changepro?. 
0,9t2z3m,9t2z3m,1,Modulus announces UK venture with Quantex for crypto exchange solution. 
0,9t2quh,9t2quh,1,What is The Position Of Blockchain Technology in Our Society Nowadays?. 
0,9t2nda,9t2nda,0,Bitcoin Turns 10: Inside the Journey of Radical Idea to $100 Billion Market. 
0,9t2lt8,9t2lt8,869,Thought I lost these for ages then I come home to find my Dad wearing them on the 10th birthday.. 
1,e8tmyy3,9t2lt8,54,What’s with the chewed up chicken bone on the floor??
2,e8tf8y8,9t2lt8,24,Dad seems stylish 
3,e8tl0pc,9t2lt8,5,They called it “wing tip”as tip shaped like a wing
4,e8tnwde,9t2lt8,3,I have the same 5.11 pack ya got
5,e8u9fbg,9t2lt8,3,Kind of like Bitcoin you find on an old hard drive. 
6,e8tpv06,9t2lt8,4,Reddit really is full of sly marketing 
7,e8ttrjx,9t2lt8,2,I have the same socks. We must be crypto “sole” mates. 😂
8,e8u53qm,9t2lt8,2,Classy dad
9,e8u6da9,9t2lt8,2,"It's a sign!!! Based on the technical analysis of his heel to hallux ratio and his shoe lace moving average, we should see a breakout at somepoint today! "
10,e9568bi,9t2lt8,2,"Hey, people, the post is about socks :D not about chicken bone))))"
11,e8tvjif,9t2lt8,1,I have the same pair of shoes 
12,e8ty3px,9t2lt8,1,Your dad has great taste in shoes
13,e8u4ryk,9t2lt8,1,Grunkle Stan?
14,e8u7eh5,9t2lt8,1,Is that the famous alpaca socks? Probably cost 10 BTC back then?
15,e8u7h4y,9t2lt8,1,:)
16,e8u82m6,9t2lt8,1,Too bad it's not filled with a qr code of a private key containing hundreds of bitcoin 
17,e8ufu55,9t2lt8,1,High fashion.
18,e8ul1tv,9t2lt8,1,Good man.
19,e8twv1n,9t2lt8,1,10th birthday of what
20,e8txoik,9t2lt8,1,You buy bitcoin at ten years old?
21,e8ul3ls,9t2lt8,1,This is a little too ironic for my taste. Why do people have to tell fake stories? Just show off your socks bro. They re awesome. I have the same pair. 
22,e8tl5xr,9t2lt8,-1,They’ll all be wanting the real thing here shortly too!
23,e8tzwni,9t2lt8,-2,"I think everyone has those socks now. Not to take anything away from this post. Just sayin, I see them everywhere (and have a pair as well)."
24,e8tazpa,9t2lt8,-4,an auspicious omen indeed
25,e8teaph,9t2lt8,-7,Hmm.. des kids have come up with a good idea. Let me just jump on the hype train 10 years late.
26,e8toc16,9t2lt8,28,"His father has a taste for chicken bones, so what??"
27,e8u0bx4,9t2lt8,24,People who own dogs have weird things like this in their houses.
28,e8u78zn,9t2lt8,5,"this is possibly not a chicken bone just [dried natural beef rawhide formed like a bone](https://www.zooplus.co.uk/shop/dogs/dog_treats_chews/dog_bones/rawhide_bones/377003)!

Source: I grew up with 2 dogs"
29,e8udm64,9t2lt8,3,it is what left from BTC since last december
30,e8u57nf,9t2lt8,1,dinner
31,e8u8abi,9t2lt8,1,Chicken dinner.
32,e8tt671,9t2lt8,3,Indeed. Came here to say this. 
33,e8u45ky,9t2lt8,2,"Haha! Yep.  I too was going to comment on his threads and thought I couldn't have been the only one to notice this.  
I bet he's a cool dad, even if he is a sock thief!"
34,e8tzdzy,9t2lt8,3,of bitcoin
35,e8u5kv9,9t2lt8,3,His socks. 
36,e8tofu9,9t2lt8,1,Eeeeaaasssy killer.
37,e8u6l1g,9t2lt8,-1,Cooked chicken bones are deadly to dogs. Let’s hope it’s raw...
38,e8ukutp,9t2lt8,1,Ain’t that the truth.
0,9t2j06,9t2j06,0,Be Prepared for a Cheaper Dollar. 
0,e8tarrk,9t2eqi,1,"Your submission has been flagged for removal because it is considered off topic for the Bitcoin subreddit.

^^I ^^am ^^a ^^bot ^^and ^^cannot ^^respond. ^^Please ^^contact ^^/r/Bitcoin ^^moderators [^^directly ^^via ^^mod ^^mail](https://www.reddit.com/message/compose?to=%2Fr%2FBitcoin) ^^if ^^you ^^have ^^questions."
0,9t2crc,9t2crc,2,"Real Vision's Raoul Pal on Mellenials, Retirement, and ฿itcoin. "
0,9t2cjt,9t2cjt,1,Happy Whitepaper Day! Giving away a few copies of our new Whitepaper Pocketbook to celebrate (available soon). DM for a copy. 
1,e8tcenb,9t2cjt,1,"How do i DM? I would like a copy please

Happy birthday Bitcoin"
2,e8t60vh,9t2cjt,0,"Just put it online, provide a link and stop fucking around.  People have printers these days :)

Or - 

Stick it in a frame, charge 100 USD and Bcashers will buy it - head over there.  


Don't forget to produce multiple versions for their upcoming hard-forks, because those lying fuckers can't even get on amongst themselves."
0,9t2a4x,9t2a4x,53,Just voted with my crypto spirit. 
1,e8tok6b,9t2a4x,11,m'Bitcoin
2,e8u2nag,9t2a4x,2,Life style so good man 
3,e8t50ju,9t2a4x,1,Nicely done ✅ 
0,9t25yn,9t25yn,0,Is There Any Doubt This Man Created Bitcoin? Fortune Magazine seems convinced Nick Szabo is Satoshi. 
1,e8t4pz6,9t25yn,4,"It’s Hal Finney, not Nick Szabo"
2,e8t5mx0,9t25yn,3,When you have to write an article without writing an article.
3,e8tbz2r,9t25yn,2,There is doubt.
4,e8tghyo,9t25yn,1,What?  It's not Craig Wright? 
5,e8t72kp,9t25yn,0,"We all are Satoshi. We all are the network that fulfills bitcoin's prophecy. We have no leader. We solely rely on maths and consensus of majority. We need no third party of any kind, no middleman as well as no authority that dictates the way we act. We don't care for the identity of Satoshi Nakamoto because that wouldn't change the slightest thing. Not on how far we have come. Not on what bitcoin is. We are here. On the evolving path of freedom and sovereignty of any kind."
6,e8t5a77,9t25yn,1,"I have always wondered if its a combination of both Nick and Hal and they purposefully obfuscated the writing style of the white paper to keep people guessing for decades.  Hal and Nick were both experimenting early in 2009.  

As many as said over the years, it probably doesn't matter who Satoshi is at this point, other than he may have a million coins stashed somewhere, or hes burned them intentionally. 

The news media loves a good mystery and we've got a really great creation story!

&#x200B;"
7,e8t9ixu,9t25yn,3,"Not that it matters but good chances it was Hal, who lived across the street from Dorian Satoshi Nakamoto. He picked his neighbors name, obfuscated his writing style and sent the first bitcoin to himself (makes sense, how else would you test it?) He was also the first to tweet about it. Szabo's ideas helped as did Wei's but Szabo is not a coder. "
8,e8tdo0y,9t25yn,1,"Also, isn't he cryonically frozen now? So some day perhaps when Bitcoin has taken over in 50-100 years maybe he will get thawed out and be able to see his legacy. That kind of sounds like something a genius would plan out..."
0,9t24z5,9t24z5,5,Bitcoin’s 10th Birthday; Experts Predict Crypto Market Grow by 5000% in Next Ten Years. 
1,e8tkiui,9t24z5,1,"If price grows by 5000%, I'll be happy."
0,9t244v,9t244v,0,My Halloween costume is a giant head of Dorian Nakamoto​. ​(this is not a joke). 
1,e8tay05,9t244v,1,"I didn't think someone could outdo the blockchain costume for dorkiness but you have managed to do it. Whatever you do, don't let any girls see you in this thing."
2,e8tb5f1,9t244v,1,I want to see you wearing it!
3,e8tjzov,9t244v,1,The greatest invention ever created by mankind.  Duct tape. 
4,e8ttjrt,9t244v,1,"lol already too late. Note, when I finnishe​d I added charli​e lees head on to vitalik and I wore stilts making me around 11 feet tall. When I was out there TREES!! were the biggest problem, there​ branches kept getting in my way."
5,e8uwq51,9t244v,1,"[https://www.facebook.com/photo.php?fbid=10212757619030994&set=pcb.10212757619431004&type=3&theater](https://www.facebook.com/photo.php?fbid=10212757619030994&set=pcb.10212757619431004&type=3&theater)

&#x200B;

you can't really see the top of Charlie lees head since I was unable to fit in my garage but here it is."
0,9t23bz,9t23bz,7,"Happy 10th year! The GOOD, BAD and UGLY side of Bitcoin’s (BTC) journey so far. "
0,e8tfrkn,9t21tq,1,"Yes there was some mental handicapped @ r/cryptocurrencies stating that he invests in ripple cuz bitcoin is destroying the world.

Facts^/s "
1,e8t62dw,9t21tq,0,"Yes, the good thing is that their arguments become more and more stupid.

"
0,9t205l,9t205l,0,Jamie Dimon: ‘I don’t really give a shit about bitcoin. 
1,e8t65ht,9t205l,1,"So he actually said that, or “that was the gist”?"
2,e8tdrq8,9t205l,1,He doesn’t give a shit about btc but his bank JPM does. Such a liar
3,e8t8w18,9t205l,1,"He literally said ""I didn’t want to be the spokesman against bitcoin. I don’t really give a shit — that’s the point, OK?"" and ppl laughed.  It was at the Axios conference.

This post is a dupe from 4 hours prior.

&#x200B;"
0,9t1xzp,9t1xzp,0,"Any thoughts on Jim Rickards/SDR/Distributed Ledger warning?. According to the Agora Financial advertisement, the US dollar is going to be replaced by a basket of currencies called SDRs (Special Drawing Rights) using “distributed ledger” (without saying what it was).  This is to be commenced December 31, 2018 by the IMF and World Bank and they plan to try and blame it on President Trump.

Thoughts?"
1,e8t3xzq,9t1xzp,2,Just one. Source?
2,e8u6myn,9t1xzp,1,"This relates to the IMF document published in June 2018  
https://www.imf.org/en/Publications/Staff-Discussion-Notes/Issues/2017/06/16/Fintech-and-Financial-Services-Initial-Considerations-44985  

This document discusses cryptocurrency, and then proceeds to differentiate permissioned from permissionless. Bitcoin is permissionless and this is dangerous, according to the IMF  
The thrust of the IMF approach to cryptocurrency is to cherry pick the ""good"" parts, and discard the rest. So they think they can make a Blockchain which is centrally controlled, and get all the benefits of Bitcoin, without the ""danger"" of Bitcoin having no central control  
Because they are bureaucrats, they rename the technology ""Distributed Ledger Technology"" - look at this clever new jargon phrase we invented!  
That's the answer to the ""distributed ledger"" part of the question. It's just a Bitcoin-like blockchain currency, after discarding all the inconvenient parts  

Replacing the USD with IMF SDRs in 2019, very old politics, not likely to happen, ever"
3,e8tfhoj,9t1xzp,1,"https://pro.awnagorafinancial.com/p/AWN_sdrblockchain_0817/PAWNU226/?s1=&s2=&s3=1_11344660379624476&h=true

Hope that helps.  It’s an advert, be aware."
4,e8vi7gk,9t1xzp,1,Appreciated. 
5,e8v64d6,9t1xzp,1,Do you have any idea how absurd that is?
6,e8vhrf2,9t1xzp,1,"Yes,  But if you know anything about Agora Publishing you’d understand the question.  

What I’m getting is that he is the sole source on this story, no one else is carrying it.  So either it’s a nothing story, or it’s very confidential information he’s gotten hold of.

If he turns up dead like one of their former contributors, William Colby, we’ll have a better understanding of the nature of his warning.

Thanks for the reply."
0,9t1xwq,9t1xwq,0,19 Words Prove Just How Audacious Bitcoin Really Was. 
0,e8t46v6,9t1vlw,1,54$ for what time span? Each month? 
0,9t1tyu,9t1tyu,190,My job was giving out chocolates today. 
1,e8t3u3t,9t1tyu,20,Why do you wear latex gloves?
2,e8tm0zg,9t1tyu,4,These chocolates again........and again...and again.. 😟
3,e8tb1k8,9t1tyu,3,"Proctologist consolation prize, new meaning to buttcoin."
4,e8tnjd8,9t1tyu,3,"Mint is really the perfect flavor for this. People either love or hate mint: there’s no in between. It’s quite similar with bitcoin. You don’t find people that are just “there” if they have heard about bitcoin. They either love it for the properties and potential that it has, or they hate it for the fact that they think it will amount to nothing."
5,e8tn35q,9t1tyu,1,Gotta start them young
6,e8tsr6d,9t1tyu,1,Is this RUNFORTHECUBE’s new account?
7,e8tsung,9t1tyu,1,Who was paying you to do this?
8,e8txxqe,9t1tyu,1,"Hâh, give me some"
9,e8uweti,9t1tyu,1,u/FairShiftTip have a cookie 🍪
10,ecghwl6,9t1tyu,1,Does your job only require giving out bitcoin candies? Are you a bitcoin faucet? Give me some :) 
11,e8tve2f,9t1tyu,-1,"I like bitcoin cash ew , more protein"
12,e8tllzg,9t1tyu,-6,Why do you wear latex gloves? So creepy! 2nd layer? Is your job in the assassination business? Paid in BTC perhaps? Is this a proctologist consolation prize? A new meaning to buttcoin.
13,e8t4dyp,9t1tyu,12,So creepy
14,e8tan8y,9t1tyu,10,His job is clearly in the assassination business. Duh lol I mean he even gets paid in bitcoin..
15,e8t6azi,9t1tyu,3,2nd layer?
16,e8ubddo,9t1tyu,1,because his halloween cotume is willey Wonka
17,e8uqz44,9t1tyu,1,He works at the Bureau of Printing and Engraving where U.S. dollars are created.
18,e8uwjfe,9t1tyu,2,"/u/Starsurver tipped /u/hairygayguy 0.0782 mBTC ($0.50 = 0.44 € = £0.39)

[How to use](https://twitter.com/FairShiftTip)"
0,9t1q3z,9t1q3z,2,"satoshisballs.com. Hi r/Bitcoin! I've been developing an online multiplayer ball racing game powered by the bitcoin lightning network. I'd love to get some honest feedback on the project. To check it out, come visit at [www.satoshisballs.com](https://www.satoshisballs.com). No account or login is required and if you have your lightning network node set up you can buy a ball on testnet and win some testnet satoshis! Let me know what you think."
1,e8t2y4r,9t1q3z,1,This is deep.
2,e8tdqbe,9t1q3z,1,"Awesome game, man! If you want, you could make it just Slightly more interactive by allowing people to spend a satoshi to tilt the map one degree in either direction at any moment. That would be cool too, and you could make maps that require the players (or viewers) to tilt it at some point."
3,e8tg5ed,9t1q3z,1,"Thanks! That is a good idea, i'll look into implementing that."
0,9t1pqy,9t1pqy,0,Enjin Coin bring mass adoption to crypto. Enjin Coin ENJ the first coin bringing mass adoption. Blockchain Crypto and gaming.. 
1,e8u9oi1,9t1pqy,1,"Your submission has been flagged for removal because it pertains primarily to altcoin discussion and/or promotion. Altcoins are off topic for the Bitcoin subreddit. Please post in /r/CryptoCurrency or the relevant altcoin subreddit instead. Thank you.

^^I ^^am ^^a ^^bot ^^and ^^cannot ^^respond. ^^Please ^^contact ^^/r/Bitcoin ^^moderators [^^directly ^^via ^^mod ^^mail](https://www.reddit.com/message/compose?to=%2Fr%2FBitcoin) ^^if ^^you ^^have ^^questions."
0,9t1p2m,9t1p2m,168,Jimmy Song just tweeted that Programming Bitcoin book is now available for preorder on amazon. He managed to get a honey badger too. 
1,e8tjal2,9t1p2m,7,Contribute here: https://github.com/jimmysong/programmingbitcoin
2,e8tk8og,9t1p2m,10,"    #include <Bitcoin.h>

"
3,e8t4d94,9t1p2m,7,Ready by march...? Damn. This is like 5 years in crypto time.
4,e8tulfz,9t1p2m,3,Can’t wait for this or Andreas’ Mastering Ethereum! Mastering Bitcoin was also awesome. 
5,e8tq1ls,9t1p2m,3,Jimmy is dope
6,e8tbvia,9t1p2m,2,When's the sewer rat edition?
7,e8t3f49,9t1p2m,1,can we preorder digital (kindle) version?
8,e8tpjri,9t1p2m,1,Can I pay with Doge?
9,e8u1p0l,9t1p2m,1,Great ! Can’t wait to create my own Bitcoin this weekend :) I am gonna be rich !
10,e8tfrq3,9t1p2m,4,That’s the bcash version. 
11,e8u78mf,9t1p2m,2,Fyi Sewer rat was used as a positive analogy
12,e8t7n8b,9t1p2m,2,I can't wait!
13,e8tk7mm,9t1p2m,1,So would moving from Andreas’ to Jimmys be a good path to becoming a programmer? 
14,e9bargg,9t1p2m,1,This reminds me of that chapter in andreas’ book the internet of Money about bubble boy and the sewer rat! Such a good one!
15,e8tkqpy,9t1p2m,1,"I’m already in the process of learning python, but I would like to develop in the blockchain space. "
16,e8tmg51,9t1p2m,6,"I'd suggest working on a project as a motivation for learning Python. Even if the idea is simple and has been covered before, there's nothing quite like diving in and doing something in order to learn it. :) That and it'll show initiative."
17,e8tmj6y,9t1p2m,2,Run a node and start playing with the apis
18,e8u4ve4,9t1p2m,1,"100p. Nothing like something with a clear goal \_you want to happen\_ - if it's an idea you want to exist, you will be motivated to get through the barriers to learn it.  


Also, Python is a great first language."
0,9t1j8s,9t1j8s,0,This strategy boosted returns by up to 220% over one year!. 
1,e8tano6,9t1j8s,2,"Don't bother guys, it's about rebalancing "
0,e8szc3j,9t1ecm,1,"Hi there! James from BitPay here. The BitPay Card lets you load up a dollar balance from a bitcoin wallet, then shop with Visa merchants and get cash from Visa-compatible ATMs. It's available and legal in all 50 states. Funds take only one block confirmation (usually seconds, sometimes minutes) to load after you send a bitcoin payment. 

You can check it out here: https://bitpay.com/card/

Let me know if you have any other questions! :) Would love to get feedback from other folks here who may have used our card. "
1,e8szmk0,9t1ecm,2,Here's an AMA we did about the card here on /r/Bitcoin a while back: https://www.reddit.com/r/Bitcoin/comments/5c423d/bitpay_here_ask_us_anything_about_our_bitpay_card/?utm_term=5c91ba03-a887-4739-b714-994e8a2e6fdd&utm_medium=search&utm_source=reddit&utm_name=btc&utm_content=3
0,9t1ct2,9t1ct2,1,Bitcoin Technical Analysis: PRICE MOVES AND RETAIL INVESTORS GET WISER. 
0,9t1bo2,9t1bo2,98,Have you seen this airdrop tool? Seems to be a beta but omg. 
1,e8t1jx7,9t1bo2,1,do you propose bug bounty?
2,e8t20t1,9t1bo2,1,"wow  seems  to  be  a  task  list  for  airdrops,  genius  idea"
3,e8t2djz,9t1bo2,1,"who  tested  it?  I  see  that  they  propose  to  have  a  balance  on  their  site,  where  will  the  tokens  go?"
4,e8t3kpy,9t1bo2,1,"Coooool, it  looks  like  a  trader  screen"
0,9t1bhv,9t1bhv,1,ERC-20 Co-Author Proposes New ICO Model to Protect Investors from Fraudulent Token Sales. 
0,9t1am9,9t1am9,3,"Bitcoin Anniversary Challenge. # Ten years ago the Bitcoin paper was published and to remember it I created a challenge that hides a prize in BTC.

# [https://cryptopuzzle.net](https://cryptopuzzle.net)

    Message:
        Bitcoin Anniversary Challenge
        https://cryptopuzzle.net
        31/10/2018
    
    Signature:
        II2mnBLTm4JPN7J2A6kgRfL0sbPs8CIAaSzObcsMVjtYRRdizLn7yuF8v3xyYgJAGM3dBfWTysBG6GYImipw5g4=
    
    Address:
        32mCnRw9sqLRQpXzdzrFaoccLkCZj3X87R

&#x200B;

# It was made with love and I hope you enjoy it. ♥

# Good Luck"
1,e8sw9va,9t1am9,1,2 minutes in. This would have taken Einstein longer to solve than relativity 🤣
2,e8sy9xz,9t1am9,1,"We're working on solving this challenge on our discord, welcome to join us: [https://discord.gg/94BdBaY](https://discord.gg/94BdBaY)   


Thanks for this great puzzle by u/cryptopuzzle_net aka [https://twitter.com/psiloseba](https://twitter.com/psiloseba), your puzzle last year was epic. Looking forward to seeing how this unravels. :) "
0,9t17y6,9t17y6,0,"How to Short Bitcoin Without Losing Your Shirt And Your Savings (With Sincere Apologies On Your Birthday, BTC...). "
1,e8swhfi,9t17y6,5,"""How to feed the whales without getting seawater on you"""
0,9t17uo,9t17uo,1,"BTC crypto news Jedi at CIS : Tim Draper, Dan Morehead, Miko Matsumura. "
0,9t167s,9t167s,2,7 Things About Bitcoin’s *White Paper* 10th Anniversary. 
0,9t12f1,9t12f1,50,Liechtenstein AIF fund will invest millions directly in Bitcoin! Is this good or bad for Bitcoin?. 
1,e8tdexb,9t12f1,7,All things are good for bitcoin. Especially bad things
2,e8u96ca,9t12f1,3,"They’ve been doing this for months, nothing new here. Most major funds such as JP or Morgan Stanley are purchasing bitcoin through there so when regulations/an ETF gets approved they will announce they are ‘investing’ into bitcoin but they already own hundreds of thousands of them. Bank Fric is one that’s being used for cryptocurrency a lot at the moment. Also, most ‘OTC’ transactions that happen are off the exchange and done ledger to ledger meaning that the large purchases that these institutions are doing are not on the exchange which makes the retail trader/investor feel that bitcoin isn’t going anywhere. The smart ones are holding and adding to there wallet. When these Legacy coins run out to purchase institutions will HAVE to purchase through an exchange... Thus rising the price of BTC. Just be patient.... "
3,e8udjq9,9t12f1,1,"Ledger to ledger transactions are actually common. Normally presented in a lawyers office with a MT103/202 payment or 760 blocked funds. You won’t get a ledger to ledger transaction in a coffee house, (maybe cash deals) there was a murder last month with such a deal like that. "
4,ecgi19x,9t12f1,1,"It is good for bitcoin price, however, I doubt that large amounts of bitcoin accumulated in hands of institutions is a good idea."
5,e8tt9w1,9t12f1,1,"Good I guess, but ""millions"" could just be a drop-in-the-bucket. A lot of trading happens daily and I doubt this would do much to the price."
6,e8top6q,9t12f1,2,"🤔
🤔🤔
🤔🤔🤔
🤔🤔🤔🤔
🤔🤔🤔🤔🤔
🤔🤔🤔🤔
🤔🤔🤔
🤔🤔
🤔"
7,e8ude6c,9t12f1,0,"I can imagine two OTC gentlemen meeting in a caffee, each one with a suitcase with just a ledger embedded in shock resistant foam. "
8,e8u33ui,9t12f1,2,If I had millions to pump into bitcoin I'd do it on a high volume day when bulls are charging and create some fomo. 
0,9t11ln,9t11ln,0,Bitcoin turns 10. 
0,9t11jm,9t11jm,3,"Trying to salvage some coins from 2013. Core (bitcoin-qt.exe v0.8.1-beta on Windows 8.1) is taking weeks to DL the blockchain as expected but keeps crashing now. Can I upgrade to a newer version without losing what I've gotten already (about 75% complete)?. Currently there are 134305 blocks remaining. When I start it up it works pretty smoothly for a while but then slows down. I leave it running while I'm gone but the last several days when I've come back it has crashed and gives me an I/O error, and I have to hit OK then start it back up. It does appear to be further along when I start it back up but not by a whole lot. So this has really slowed my progress. It's reindexed about 75% though, and so I don't want to start over from the beginning. 

The drive it is on has \~400gb of free space so that's not the issue. I have 8gb of memory, and the task manager says bitcoin is taking up about 500mb, but it's using 60-85% of my cpu at a time. 

If I download a newer version of core, I can just copy/paste the old wallet.dat file, right? But wouldn't it have to start downloading the entire blockchain again from the beginning? If so, is there any quicker method?   


While typing this, it crashed twice. It only runs for about 10 minutes.

The version I have doesn't have any settings I can change. I read that there's a db size limit you can change in later versions that could help. This one does have a ""debug window"" with a command line console but I don't really know what to do with it.  Here is a list of available commands:  
￼

>addmultisigaddress <nrequired> <'\[""key"",""key""\]'> \[account\]  
>  
>addnode <node> <add|remove|onetry>  
>  
>backupwallet <destination>  
>  
>createmultisig <nrequired> <'\[""key"",""key""\]'>  
>  
>createrawtransaction \[{""txid"":txid,""vout"":n},...\] {address:amount,...}  
>  
>decoderawtransaction <hex string>  
>  
>dumpprivkey <bitcoinaddress>  
>  
>encryptwallet <passphrase>  
>  
>getaccount <bitcoinaddress>  
>  
>getaccountaddress <account>  
>  
>getaddednodeinfo <dns> \[node\]  
>  
>getaddressesbyaccount <account>  
>  
>getbalance \[account\] \[minconf=1\]  
>  
>getblock <hash>  
>  
>getblockcount  
>  
>getblockhash <index>  
>  
>getblocktemplate \[params\]  
>  
>getconnectioncount  
>  
>getdifficulty  
>  
>getgenerate  
>  
>gethashespersec  
>  
>getinfo  
>  
>getmininginfo  
>  
>getnewaddress \[account\]  
>  
>getpeerinfo  
>  
>getrawmempool  
>  
>getrawtransaction <txid> \[verbose=0\]  
>  
>getreceivedbyaccount <account> \[minconf=1\]  
>  
>getreceivedbyaddress <bitcoinaddress> \[minconf=1\]  
>  
>gettransaction <txid>  
>  
>gettxout <txid> <n> \[includemempool=true\]  
>  
>gettxoutsetinfo  
>  
>getwork \[data\]  
>  
>help \[command\]  
>  
>importprivkey <bitcoinprivkey> \[label\] \[rescan=true\]  
>  
>keypoolrefill  
>  
>listaccounts \[minconf=1\]  
>  
>listaddressgroupings  
>  
>listlockunspent  
>  
>listreceivedbyaccount \[minconf=1\] \[includeempty=false\]  
>  
>listreceivedbyaddress \[minconf=1\] \[includeempty=false\]  
>  
>listsinceblock \[blockhash\] \[target-confirmations\]  
>  
>listtransactions \[account\] \[count=10\] \[from=0\]  
>  
>listunspent \[minconf=1\] \[maxconf=9999999\] \[""address"",...\]  
>  
>lockunspent unlock? \[array-of-Objects\]  
>  
>move <fromaccount> <toaccount> <amount> \[minconf=1\] \[comment\]  
>  
>sendfrom <fromaccount> <tobitcoinaddress> <amount> \[minconf=1\] \[comment\] \[comment-to\]  
>  
>sendmany <fromaccount> {address:amount,...} \[minconf=1\] \[comment\]  
>  
>sendrawtransaction <hex string>  
>  
>sendtoaddress <bitcoinaddress> <amount> \[comment\] \[comment-to\]  
>  
>setaccount <bitcoinaddress> <account>  
>  
>setgenerate <generate> \[genproclimit\]  
>  
>settxfee <amount>  
>  
>signmessage <bitcoinaddress> <message>  
>  
>signrawtransaction <hex string> \[{""txid"":txid,""vout"":n,""scriptPubKey"":hex,""redeemScript"":hex},...\] \[<privatekey1>,...\] \[sighashtype=""ALL""\]  
>  
>stop  
>  
>submitblock <hex data> \[optional-params-obj\]  
>  
>validateaddress <bitcoinaddress>  
>  
>verifymessage <bitcoinaddress> <signature> <message>

&#x200B;"
1,e8sw7po,9t11jm,3,"Your best bet would be to run `backupwallet some_path_on_your_system`, then pull the keys out of that and into a light wallet such as electrum."
2,e8t0tgj,9t11jm,1,"I tried that, it just gives me another copy of wallet.dat. 

How do I pull the keys out of it? "
3,e8t2y2y,9t11jm,3,"Ah, looks like `dumpwallet` didn't exist back then. If you know which addresses hold the BTC, just run `dumpprivkey address` for each of them, then import the keys into electrum"
4,e8taohq,9t11jm,2,"Ok thank you! I'm going to try this soon but I have to leave and won't be back until tomorrow. 

Thanks for the help!"
0,9t11br,9t11br,2,"Bitcoin Birthday (Whitepaper Day) is the same day as World Savings Day. https://en.wikipedia.org/wiki/World_Savings_Day

I wonder if that was Satoshi's intention, or just a coincidence"
1,e8te0zd,9t11br,2,Maybe it save the world
0,9t10cc,9t10cc,0,NPR spreading FUD. 
1,e8u1qe5,9t10cc,1,"Your submission has been flagged for removal because you have not provided sufficient context.

^^I ^^am ^^a ^^bot ^^and ^^cannot ^^respond. ^^Please ^^contact ^^/r/Bitcoin ^^moderators [^^directly ^^via ^^mod ^^mail](https://www.reddit.com/message/compose?to=%2Fr%2FBitcoin) ^^if ^^you ^^have ^^questions."
2,e8sudhq,9t10cc,1,"Second segment the ""crypto"" ghost calling the bailout message in the first block as ""spooky"""
0,9t0znd,9t0znd,0,Constructing Cryptocurrency Indices — Performance & Methodology. 
0,9t0zf5,9t0zf5,1,Van Eck/SolidX Respond to SEC Regarding Bitcoin ETF Concerns. 
0,9t0zdy,9t0zdy,0,Bitcoin Delorean Spotted at Venice Beach. 
1,e8swr51,9t0zdy,2,Btrash
2,e8su4o2,9t0zdy,1,Can it take me back to 2008 to buy some BTC?would be very grateful.I'm in OC so I can be there in a jiffy
3,e8u7wvx,9t0zdy,1,You'd have to go to 2009 to buy bitcoin ;)
0,9t0win,9t0win,41,Cant wait to show of our 1mw containers at Cryptocon! Anyone else going?. 
1,e8st4g4,9t0win,3,Is this one of the new Antminer Boxes?
2,e8tvxhe,9t0win,3,"Careful with your units there. The symbol for the SI prefix ""mega-"" is an uppercase ""M"", and the symbol for the SI unit ""watt"" is an uppercase ""W"".

Milliwatts are a commonly used unit, and you wouldn't want to confuse those with megawatts."
3,e8u3w3a,9t0win,3,Why would you place the vents outside the container dimensions? You would never be able to ship this baby overseas because it wouldn’t fit on a cargo ship.
4,e8stmzx,9t0win,2,So each container is self cooled with a power draw of 1MW? What's the cost of these? 
5,e8sztss,9t0win,2,Crypto and fabrication! I need to be alone for a while. 
6,e8tcocs,9t0win,2,Tell us more plz
7,e8u9w8d,9t0win,2,"That’s some D-Day mining operation there! Fascinating. I have several ‘one trip’ shipping containers that currently are rented out, this would be a great source of income. I am not sure on the increasing difficulty and start up costs would be as profitable in terms of margin as renting the containers for storage. 

A rented container will return 70% per year with little to no running costs. I would imagine something like a mining operation would cost 10’s of thousands to set up with continuous running costs and maintenance. More risk but possibly more return! Good luck to anyone who is doing this, great idea. "
8,e8tk964,9t0win,1,What miner are you using?
9,e8tk9cs,9t0win,1,"I could never afford it, but what's the hashrate on something like this?"
10,e8tlpax,9t0win,1,We’re there. Do you have a Booth?
11,e8tni1l,9t0win,1,Wow Bitmain is really going hard these days
12,e8stl8l,9t0win,2,Lol well played
13,e8su9x6,9t0win,1,For reals right! 
14,e93yzjz,9t0win,1,We can build them so the fans receded until you land the container. Then the are deployed out when it's landed 😎
15,e8svwbp,9t0win,1,"Each container is custom built to what our customer needs, so the price the price varies. Our current customer can draw 1MW per container. If you're interested in prices DM me and I can get you more info! "
16,e8tcyn6,9t0win,0,8====D
17,e8td2ac,9t0win,0,What else would you like the know KZ?.
18,e8td32b,9t0win,0,What else would you like the know KZ?.
19,e8td0hq,9t0win,-1,What else would you like the know KZ?.
20,e93szvp,9t0win,1,"Thanks! So far our customers have been really happy with the product 
"
21,e8tp2r4,9t0win,1,We build out the containers and our customers fill them 😎👍
22,e8tp6zv,9t0win,1,"I'm not totally sure, we build the containment but we don't populate them "
23,e8tp5fp,9t0win,1,"Unfortunately not, we wanted to but thought we'd be better off roaming around and meeting people "
24,e8tp0wf,9t0win,1,B-Box Protocube 😎😎😎
25,e8tl319,9t0win,3,It posted three times cause I'm on the strip in vegas 
26,e8ts19c,9t0win,3,"Yeah, that’s what we thought, too. 30k for a booth is a bit much. If you see me, hit me up. I will be wearing a blue polo shirt with our company name Hashtrend"
27,e8tsl1x,9t0win,1,Booyah! 
28,e8tskmc,9t0win,0,Booyah! 
0,9t0t3s,9t0t3s,6,"Hi. I run a Bitcoin ATM service in the UK. Hi Southwestcrypto ATM's here. Just posting to introduce myself. I run two machines in Devon, both in crypto-friendly old school pubs and really happy with business so far. The mission is to make it as easy as possible to obtain and integrate blockchain tokens in to your everyday everyday life and in everyday venues.

Currently selling bitcoin, ethereum, bitcoin cash and litecoin in Exeter and Chudleigh. Please like our FB page and visit the site for more info.

https://facebook.com/southwestcryptoATM
https://southwestcrypto.co.uk

So if you're ever in Devon and in need of some coin, you know where to go!
"
1,e90941e,9t0t3s,1,Please add current prices to your Web site
2,e9162fo,9t0t3s,1,"Well yes and no if that makes sense. Once they're setup it's fairly straight forward but you need to be available just incase of any issues or customer queries. You need to be able to manage your time properly, it's a bit like being on call 7 days a week."
3,e910iz2,9t0t3s,1,They are already....
4,e9anip2,9t0t3s,1,"Actual prices, exact up-to-the-minute numbers  
It's the Internet  
If the number is available to your ATM, it's available to your Web server  
Please fix"
5,e9aoc72,9t0t3s,1,Ah gotcha. Sorry misunderstood at first but you mean like a ticker? No probs good idea. 
0,9t0s7z,9t0s7z,1,Indian Officials Met to Discuss Possible Ban on 'Private Cryptocurrencies' (...then they fight you). 
1,e8sryn3,9t0s7z,1,This is the reason why bitcoin has to be as resilient & slick as possible
0,9t0s7p,9t0s7p,633,Ukraine: New Policy will Legalize Cryptocurrencies. 
1,e8ssrqc,9t0s7p,25,"""The National Bank of Ukraine (the country’s central bank) even considers creating a new Central Bank Digital Currency.""

\*sigh\*"
2,e8svlwd,9t0s7p,5,"Yeah well... In some countries everything is illegal, unless law states otherwise. "
3,e8svbpm,9t0s7p,5,"This is the best tl;dr I could make, [original](https://medium.com/@deniszaritskyi/ukraine-new-policy-will-legalize-cryptocurrencies-13bdedd7c73e) reduced by 76%. (I'm a bot)
*****
> The Economic Development and Trade Ministry in Ukraine enacted a new state policy which sees cryptocurrencies becoming legal in the region.

> Announcing the new policyWhen announcing this new policy, officials presented an outline of their goals for this policy, saying that they want to: &quot;Create understandable conditions for conducting activities in the field of virtual assets and virtual currencies.""

> They hope is to have this policy in full effect by 2021.In addition to the new state policy, the government notably has brought in a new taxation bill.


*****
[**Extended Summary**](http://np.reddit.com/r/autotldr/comments/9t1792/ukraine_new_policy_will_legalize_cryptocurrencies/) | [FAQ](http://np.reddit.com/r/autotldr/comments/31b9fm/faq_autotldr_bot/ ""Version 2.02, ~361205 tl;drs so far."") | [Feedback](http://np.reddit.com/message/compose?to=%23autotldr ""PM's and comments are monitored, constructive feedback is welcome."") | *Top* *keywords*: **new**^#1 **cryptocurrency**^#2 **policy**^#3 **Ukraine**^#4 **blockchain**^#5"
4,e8tzmtn,9t0s7p,3,"And bitcoin worth nearly 200k in the Ukraine https://bitcoinconvert.org/uah

Nice!"
5,e8twb45,9t0s7p,1, **Legalize**  Cryptocurrencies. LMAO
6,e8u3vg9,9t0s7p,1,Nice!!. This decentralized technology well deserves the decentralization throughout the world.
7,e8u5iwb,9t0s7p,1,Good news!
8,e8ubc1n,9t0s7p,1,"*Suh! you need to apply for a loicens to use that moneh.*
"
9,e8tq2gu,9t0s7p,1,Cryptographic currency will be more and more recognized
10,e8sygf3,9t0s7p,25,They dont get it...
11,e8tlkr0,9t0s7p,4,Recentralized currency 
12,e8u6pud,9t0s7p,3,Ukrayina Petro
13,e8tfvs2,9t0s7p,2,O O F
14,e8u8otq,9t0s7p,2,"It's worth 1 bitcoin here, just like everywhere."
15,e8uom9k,9t0s7p,2,Petro with a stress on the last O....might actually fit really well!
0,9t0rps,9t0rps,23,10 years celebrations to bitcoin white paper at Tel Aviv. 
0,9t0r9c,9t0r9c,9,10 posts you don't want to miss on Bitcoin's 10th birthday. 
0,9t0nss,9t0nss,10,"Trick or Treat; It’s Halloween, and the 10th anniversary of the Bitcoin white paper. Instead of collecting candy, we’re buying it with bitcoin 😎. "
1,e8ubz9d,9t0nss,1,that's creepy af.
0,e8sz4xj,9t0i6x,2,Does Korea even care about crypto? Seems the fad is dead there in comparison to now. 
0,9t0ht4,9t0ht4,0,"India, Really Banning crypto?. I don't get this point of India we're they ban #cryptocurrency in their country then they wanted to encourage blockchain technology ? 

&#x200B;

[https://thebitcoinnews.com/india-may-ban-use-of-cryptocurrency-but-encourage-blockchain-technology/](https://thebitcoinnews.com/india-may-ban-use-of-cryptocurrency-but-encourage-blockchain-technology/)"
0,9t0fbt,9t0fbt,229,Happy Halloween!. 
1,e8svpca,9t0fbt,5,"Next stop, the government!"
2,e8t2zc6,9t0fbt,5,Those glasses are dope!
3,e8t1cxa,9t0fbt,1,Genius...
4,e8tiofz,9t0fbt,1,more of this stuff coming soon :)
5,e8tp46w,9t0fbt,1,"Great cartoon, also great idea for some adventurous bitcoiners. ;-)"
6,e8tyyg0,9t0fbt,1,Trick or treat 
7,e8u6gjc,9t0fbt,1,Happy Halloween too!
0,9t0blq,9t0blq,0,"Will bitcoin go significantly back up? If or when it does, what is the main factor as to why? I heard it's pretty much demand, but what does that mean for Bitcoin? If something is so storage limited idk how something when up so high. I guess it is pretty much the demand and nothing else?. Also, what would be the best way to monitor it? I just stumbled across coinmarket cap but that's simply just charts? Still good to know I'm assuming. "
1,e8soslh,9t0blq,3,because decentralized money is the best invention since the interweb.
2,e8st5jl,9t0blq,2,"Bitcoin is sound money that cannot be changed, its like Gold V2 but can be moved digitally and can be easily cut into 100 million satoshi's. Inflation from government controlled/backed currencies alone will rise the price of Bitcoin."
3,e8sqjih,9t0blq,1,Who? What? A house?
4,e8sowgz,9t0blq,1,Right seems like that's all I need to know! The real dirty money. Haha idk but yeah makes sense.
5,e8sp3zg,9t0blq,-1,So you're going to get bitcoin loans to buy your house? Or do you just have 800k$ worth of bitcoin lying around.
6,e8ssneq,9t0blq,2,"Fractional-reserve banking is a joke, if you're tied up in that system i feel sorry for you but if more and more people turn to Bitcoin the government and banks will have to react and i wouldn't be surprised if we see a Bitcoin Standard in the future."
7,e8sthp4,9t0blq,0,You're smoking glue friend. Those comments you made are just emotional statements you feel. The problem is that much more than just banks would have to change. And I highly doubt you will see it in your life time.
8,e8szbgx,9t0blq,1,"What a constructive reply, Bitcoin is sound money that people can finally store their wealth with or use since gold. Only this time it cannot be censored or controlled and can be sent digitally all over the world. please respond with facts or an opinion that is relevant instead of assuming i'm ""smoking glue"" Big corporations and banks and governments are already recognizing Bitcoin and understanding its purpose, they may not like it but it is here."
9,e8sziyq,9t0blq,1,Also I never said Bitcoin is trash. I enjoy the idea of it I truly do. But the actual fundamentals are way far away than people think imo.
10,e8szfoq,9t0blq,0,not recognizing Bitcoin as much as blockchain itself. But sure.
0,9t0b94,9t0b94,1,"AMA Request: Hodlers of the 2013-15 Bitcoin Cryptowinter. How did you muster the conviction that things were going to get better? Were things different back then than they are now in terms of your feelings on bitcoin? What advice would you give to people who got into bitcoin last fall, believing in it's potential but having possibly gotten discouraged since the start of this year? 

&#x200B;

I've offered my advice to friends but it'd be nice to hear from others who've weathered the storms before."
1,e8u3m3c,9t0b94,2,I stepped away from Crypto during that time and ignored the news. Came back when things turned bullish.
2,e8w3kli,9t0b94,2,Put my cold wallet in a drawer and forgot about it as much as possible
3,e8sr34l,9t0b94,1,What’s your current sentiment 
4,e8srgjk,9t0b94,1,"Oh do you have a reference to this news? That’s super interesting! 

I have to admit, I was big into participation a few years ago but since last year the hype on price kinda killed the fun so I’ve stopped following the news"
5,e8ss3gs,9t0b94,1,"Why then do you think the price is still so low? In light of this news it seems it should have been going up, no?"
0,9t0b5e,9t0b5e,1,"Bitcoin and its supportive ecosystem isn’t going anywhere, and in fact, may eventually grow to replace traditional systems, which are already on their way out.. "
0,9t0akj,9t0akj,0,Happy birthday you beautiful beast. 
0,9t09qo,9t09qo,0,Halloween 2018: Bitcoin’s 10th Anniversary. 
0,9t098t,9t098t,13,Special edition Ledger limited Edition 10th anniversary Bitcoin edition. 
1,e8tdzoc,9t098t,1,"[ledger.com order link](https://www.ledger.com/products/ledger-nano-s-white-paper-edition?utm_source=Iterable&utm_medium=email&utm_campaign=campaign_435290) 

[Pics ](https://postimg.cc/gallery/33ki9ovxq/) "
2,e8ttekn,9t098t,1,"Damn, I want, what an honorable thing to do.
"
0,9t08xc,9t08xc,1,Easy way to Get Bitcoin. 
0,9t07t1,9t07t1,9,Monaco As a Potential Crypto Haven: Will the Monaco International Blockchain Conference Provide the Answers?. 
1,e8sqx3j,9t07t1,1,"Despite the fact that no major media, crypto-focused or otherwise, have reported on this, in January this year, Monaco has passed an extremely promising blockchain bill, on paper perhaps unprecedented. More info on its contents in the Medium article referenced in the OP. On November 29, I am attending the Monaco International Blockchain Conference where I hope to obtain info on the implementation of the bill since its adoption. Stay tuned for updates."
0,9t07qq,9t07qq,2,Breaking! Shitcoinoffering Team's Statement. 
0,9t07n7,9t07n7,1,MasterCard wins patent suit that integrates Blockchain currencies into traditional credit card functions. 
0,9t05j1,9t05j1,7,Bitcoin Turns 10: The Rollercoaster Journey So Far!. 
0,9t05f5,9t05f5,0,These guys who criticising bitcoin at CNBC in 2013 but right now guess what will be there fillings about bitcoin and crypto?. 
1,e8spwld,9t05f5,1,hahahaha!  Counterfeit bitcoin!!!  100$... the government is going to shut it down!!! lolololol  2013 was a very controversial year!
0,9t04e5,9t04e5,0,Jamie Dimon: I ‘Don’t Give a Sh*t’ about Bitcoin. 
1,e8sokok,9t04e5,5,Water is wet.
0,9t03z3,9t03z3,0,"Bitcoin Network Status Update Wednesday, October 31, 2018. ###Status of the Bitcoin network as of Wednesday, October 31, 2018 at 12:00:03 EST:

**Total bitcoins:** 17,351,821.044978

**Height:** 548,152

**Difficulty:** 7,182,852,313,938.317383

######Statistics for the past 24 hours:

**Number of blocks mined:** 167

**Total bitcoins output (amount sent):** 950,833.143275

**Total fees:** 17.578449

**Average time until block found:** 8 minutes, 37 seconds

**Estimated hashrate:** 59,629,274,702.933067 gh/s

**Current price:** US$6,312.57

*Data provided by [Smartbit.com.au](https://www.smartbit.com.au). Price data provided by [Coinbase.com](https://www.coinbase.com).*

***

^^I ^^am ^^a ^^bot. **[^^My ^^commands](https://www.reddit.com/r/Bitcoin/comments/3an2c4/ive_been_working_on_a_bot_for_crypto_subs_like/)** ^^| ^^*/r/crypto_bot* ^^| [^^Message ^^my ^^creator](https://www.reddit.com/message/compose?to=busterroni) ^^| [^^Source ^^code](https://github.com/busterroni/crypto_bot)"
0,9t02e8,9t02e8,23,"To celebrate the Bitcoin White Paper 10th Anniversary Nelly made a very special gift for you: ""Miner"" Black and Gold Artist proof edition. She added ""1010"" binary text on the Miner's t-shirt using the REAL 24K gold leaf!. "
1,e8snva1,9t02e8,3,Saved! 
2,e8t20k8,9t02e8,2,"It is the very and only one Black and Gold Artist proof (enhanced limited edition print). To make it special Nelly added ""1010"" binary on the Miner's t-shirt using REAL 24K gold leaf from Italy. There is gold leaf on the Bitcoin key as well ;) And code fragments are all by SN from BTC 2009 repository. Bid here:
https://docs.google.com/forms/d/e/1FAIpQLScUq1JY-mmCaMlLbzhnqRcwD2r1iDCNZwGbaG-ZNDdFc6YuHw/viewform
Happy bidding!"
3,e8ubq8q,9t02e8,2,cool
4,e8uh4eg,9t02e8,1,Thank you!
0,9szysl,9szysl,26,The Finance Minister Of South Korea Says Yes To Banks Working With Crypto Exchanges. 
1,e8soeg9,9szysl,1,Finally some common sense.
2,e8t4gfd,9szysl,0,"I thought the whole point was to not have to deal with the banks??

https://www.reddit.com/r/Bitcoin/comments/9svjcp/10_years_ago_today_2008_oct_31/?utm_content=title&utm_medium=hot&utm_source=reddit&utm_name=Bitcoin"
3,e8tl3pz,9szysl,1,How is fiat going to flow through exchanges then?
0,e8uc72y,9szwvn,1,Hideous fake art
1,e8wneqz,9szwvn,1,thanks for your feedback igadjeed... taken it on board... currently there is only one piece that I consider is art on there... I've updated the description on the site and here to reflect this... hope its more agreeable to you 
0,9szwup,9szwup,190,10 revolutionary years! Thank you @Satoshi. 
1,e8st0eq,9szwup,5,thanks Satoshi!
2,e8tf6uy,9szwup,2,Why are there 11 candles tho? Is satoshi trying to tell us something??? 
3,e8ty6ku,9szwup,1,"The cake is beutiful, more beautiful if bitcoin increases "
4,e8u2kfh,9szwup,1,Jan 9 2019 came early?
5,e8tb8bn,9szwup,-1,"mmm chocolate condoms.

This cake looks so bad if I had BTC I would send you some as a token of appreciation."
6,e8ti8z2,9szwup,0,awesome cake! 
7,e8sqiog,9szwup,-7,What was so revolutionary about them?
8,e8tmpl8,9szwup,1,"A practical solution to double spend of digital asserts without the need of a central figure which can eventually forms the basis of decentralized everything (or rather decentralize many more things than just money).

But you are right , it has not proven revolutionary in practice ... *yet*

But TCP/IP didn't either on its first take in Arpanet, it needed time to come to its own and it's mostly a consensus by now that the Internet above all other was *the* Invention of the 20th century.

Maybe the blockchain or blockchain like techs would form the basis of much of what the 21st century would be (decentralized money, less centralized news agencies and government, etc). It is early days. Depending on how it catches on it can change everything (basically turn a lot of the enlightenment innovations obsolete for the first time in 300 years) or nothing."
0,9szvxk,9szvxk,2,"Do you know that exactly 10 years ago was presented White paper of the cryptocurrency bitcoin?. ✅Yes, the cryptocurrency, which later turned the world around and created a whole movement of adherents of decentralized means of payment and, of course, the blockchain! 

&#x200B;

✅Bitcoin appeared to this world as:""A purely peer-to-peer version of electronic money that will allow you to send payments directly from one side to the other without using a financial institution."" 

&#x200B;

✅In recent years, bitcoin has shown a constant growth of interest, every day this network is used by more than three million people. According to preliminary estimates, this number may increase to 200 million within seven years. 

&#x200B;

✅We, as investors, believe only in the prospect of their choice and congratulate all those who believe in bitcoin and its successful future.

&#x200B;

https://preview.redd.it/ibms2qyojjv11.jpg?width=960&format=pjpg&auto=webp&s=2ada2a97675bc47fbb6d1cc9e313cd4d47958353"
0,e8sujh1,9szu2w,1,Only gay sex us u can be gay but it’s a sin to have gay sex
0,9szm50,9szm50,9,LocalBitcoins crypto seller faces 5 years jail in USA - cryptoandchill.tips. 
1,e8sl3wv,9szm50,6,"This man injured NOBODY! stoled from NOBODY only helped people buy coins.

Buying and selling now needs permission in the usa.  This is so sick.  If we don't stand up for our basic right of private property ownership we will lose all rights.  [https://www.youtube.com/watch?v=GBSjePLulrA](https://www.youtube.com/watch?v=GBSjePLulrA)"
2,e8srlwy,9szm50,3,Maybe him and Ross Ulbricht can hangout.  Both super dangerous criminals!  /s
3,e8t3ful,9szm50,1,tax evasion will getcha 
4,e8so8c1,9szm50,-1,"Yes you’re correct you will loose all your rights if you don’t, personally I think someone ought to out trump, he’s a terrorist and a racist, and worse, and the arse holes got the worst hair on earth."
5,e8srzzv,9szm50,3,"The issue is the IRS considers bitcoin property and the judiciary considers bitcoin money.

They need to figure shit out."
6,e8tdtjm,9szm50,1,Beboop. Orange man bad. Beboop. 
