,date,neu,pos,neg,compound
0,2018-01-01-00-00,0.8093056318681319,0.11944093406593408,0.07124244505494506,0.14043653846153845
1,2018-01-06-00-00,0.8032999026290164,0.12312917883803959,0.07356962025316456,0.12763683868873743
2,2018-01-11-00-00,0.8027176656151419,0.11945057833859095,0.07783123028391167,0.09490481072555206
3,2018-01-16-00-00,0.8132597402597402,0.11226566080977847,0.07447612681436211,0.07764858670741023
4,2018-01-21-00-00,0.7931813428153106,0.12507759882869693,0.08174482325873249,0.10620343024471868
5,2018-01-26-00-00,0.8143317365269461,0.1104218990590248,0.0752480752780154,0.08012224123182207
6,2018-01-31-00-00,0.8000989627137649,0.12400252312867957,0.07589935520044856,0.11298629100084105
7,2018-02-05-00-00,0.8067018235584031,0.12110990635781171,0.0721821915557746,0.10438800722851978
8,2018-02-10-00-00,0.81973949230129,0.1134369538077403,0.0668160632542655,0.12890303786933002
9,2018-02-15-00-00,0.8006994863013699,0.12730950342465752,0.07199914383561644,0.13294345034246577
10,2018-02-20-00-00,0.8042505066250974,0.12736009353078723,0.0683937646141855,0.1411022447388932
11,2018-02-25-00-00,0.8094108446298227,0.12029118873826904,0.07029979144942647,0.12373143899895726
12,2018-03-02-00-00,0.8120377443271175,0.11920444843855314,0.06875286452482589,0.11275978431813076
13,2018-03-07-00-00,0.8056102490075785,0.11550198484301696,0.0788997955010225,0.08471814026223987
14,2018-03-12-00-00,0.811993021042614,0.11506386803426034,0.07294448556624722,0.09673465158083959
15,2018-03-17-00-00,0.8069679936516333,0.11866697526782172,0.07436476656526914,0.10249111228673456
16,2018-03-22-00-00,0.807428138124125,0.11873565095660288,0.07383644423705085,0.11060002333177789
17,2018-03-27-00-00,0.811636543797067,0.11898295679746335,0.06937990487514864,0.11385055489496632
18,2018-04-01-00-00,0.813148581719946,0.11466966831757466,0.07218054930211616,0.10249173045174845
19,2018-04-06-00-00,0.8061990811638592,0.11974119448698316,0.07406355283307811,0.10742330270546196
20,2018-04-11-00-00,0.8089702970297029,0.12382662266226624,0.0672118811881188,0.13349093509350934
21,2018-04-16-00-00,0.8152333245452149,0.11775744793039811,0.06700843659372528,0.11909116794094385
22,2018-04-21-00-00,0.8129287288758266,0.12009184423218221,0.06698493754592212,0.1369008082292432
23,2018-04-26-00-00,0.8098329749103943,0.11773476702508962,0.07243225806451613,0.10077347670250897
24,2018-05-01-00-00,0.8134986990459669,0.12251864700780574,0.06398482220294884,0.15875901994796185
25,2018-05-06-00-00,0.8131561794936075,0.12040260716971672,0.06643820506392581,0.14669190273251442
26,2018-05-11-00-00,0.8027287608446554,0.12498968734653788,0.07228384350957603,0.11870748076608283
27,2018-05-16-00-00,0.8112764423076922,0.1196638621794872,0.06905488782051283,0.12603265224358973
28,2018-05-21-00-00,0.8044237825594563,0.12107633069082673,0.07449331823329558,0.10917377123442809
29,2018-05-26-00-00,0.8110809248554912,0.11892485549132947,0.06998362235067437,0.12449145793192035
30,2018-05-31-00-00,0.8052622890682318,0.127002201027146,0.06774504768892149,0.1426366837857667
31,2018-06-05-00-00,0.8106192609182532,0.12206980216498695,0.06731354983202688,0.14219055617767823
32,2018-06-10-00-00,0.8066019641825535,0.11923377623724245,0.07416425958020412,0.11108124398228385
33,2018-06-15-00-00,0.8046899518238129,0.11996971782518927,0.07534824501032346,0.12456111493461804
34,2018-06-20-00-00,0.8094345549738219,0.11811727748691098,0.07244816753926703,0.1245998254799302
35,2018-06-25-00-00,0.8108977477477477,0.11735495495495496,0.0717490990990991,0.11014644144144144
36,2018-06-30-00-00,0.8080010718113612,0.12204715969989283,0.06995819935691319,0.1272688817434798
37,2018-07-05-00-00,0.8102069545709479,0.116051598429613,0.07374144699943914,0.11143135165451486
38,2018-07-10-00-00,0.8081095083897557,0.1235613776861937,0.06832764203709155,0.14534297909920518
39,2018-07-15-00-00,0.8145703395703395,0.11556133056133056,0.06986036036036036,0.12460738045738046
40,2018-07-20-00-00,0.8018302034428795,0.12375899843505477,0.07440766823161188,0.14715938967136152
41,2018-07-25-00-00,0.818603595890411,0.1213724315068493,0.060017123287671226,0.1468806506849315
42,2018-07-30-00-00,0.8030171086398632,0.12535158254918735,0.07163729683490164,0.1399657827202737
43,2018-08-04-00-00,0.8106753864447087,0.12040190249702734,0.06892508917954816,0.14981224732461354
44,2018-08-09-00-00,0.7987413118527042,0.12440759493670887,0.07685201380897584,0.11648662830840047
45,2018-08-14-00-00,0.8109105581708137,0.12005581708137188,0.0690291414481058,0.1187852723604573
46,2018-08-19-00-00,0.8019308343409915,0.11844643288996373,0.0796229746070133,0.07970577992744861
47,2018-08-24-00-00,0.8106515892420538,0.11603422982885085,0.07332090464547678,0.10830773227383862
48,2018-08-29-00-00,0.8122787713841367,0.12096500777604975,0.0667597200622084,0.15410031104199068
49,2018-09-03-00-00,0.804449654278306,0.12153910976663787,0.074019014693172,0.12018928262748489
50,2018-09-08-00-00,0.8124528535980149,0.11531761786600496,0.07223138957816377,0.10674022952853597
51,2018-09-13-00-00,0.8063023884632717,0.11917079765660207,0.07453312302839117,0.12481928796755297
52,2018-09-18-00-00,0.7968510705289672,0.126102959697733,0.07703841309823677,0.13661952141057934
53,2018-09-23-00-00,0.8146573283225144,0.1151920054663478,0.07015749914588315,0.12666812435941238
54,2018-09-28-00-00,0.8244508196721312,0.11971311475409836,0.055864754098360656,0.2090905737704918
55,2018-10-03-00-00,0.8017174028738692,0.12516977115486963,0.07310058541777541,0.11950883448642895
56,2018-10-08-00-00,0.8062211037834085,0.11860326275598751,0.07519021173203748,0.10221082957306489
57,2018-10-13-00-00,0.816586115527292,0.10974615792262851,0.07366746157922627,0.08427366189719132
58,2018-10-18-00-00,0.8216449106449105,0.11403263403263403,0.06431157731157731,0.12048236208236208
59,2018-10-23-00-00,0.819588502269289,0.1174957135653051,0.06291023701462431,0.13485032778618253
60,2018-10-28-00-00,0.8104202988792031,0.12016749688667497,0.06942652552926525,0.1290763387297634
61,2018-11-02-00-00,0.8338070866141732,0.11573622047244095,0.050475065616797904,0.17155209973753283
62,2018-11-07-00-00,0.8025963791267304,0.12433013844515442,0.07307667731629393,0.1492161874334398
63,2018-11-12-00-00,0.8193940242763771,0.11307843137254901,0.06751633986928103,0.1354563025210084
64,2018-11-17-00-00,0.7972200452147702,0.11686473247927656,0.08592539562923888,0.06365207234363225
65,2018-11-22-00-00,0.8098105590062112,0.11202018633540373,0.07817888198757764,0.08082413043478262
66,2018-11-27-00-00,0.8154742885671493,0.11411233150274588,0.07041337993010485,0.11222980529206192
67,2018-12-02-00-00,0.806705755084379,0.11518260493292948,0.07811077455646906,0.08456343574210298
68,2018-12-07-00-00,0.8045361875637105,0.12145158002038736,0.07401529051987768,0.12709689092762486
69,2018-12-12-00-00,0.8099224433768016,0.113248455730954,0.0768277282086479,0.08175614275909404
70,2018-12-17-00-00,0.8162742910274291,0.12168247326824734,0.062039516503951654,0.10674890748489074
71,2018-12-22-00-00,0.8021339236303264,0.12120863309352518,0.0766535694521306,0.10451001660210293
72,2018-12-27-00-00,0.8075000000000001,0.12204256854256855,0.07045815295815296,0.13011277056277057
73,2019-01-01-00-00,0.8155757575757576,0.12242222222222221,0.061997979797979795,0.16447737373737376
74,2019-01-06-00-00,0.8160600667408231,0.10804783092324806,0.07589432703003338,0.08699966629588432
75,2019-01-11-00-00,0.8145972732039852,0.11635972732039852,0.06904509701101205,0.11033308862087048
76,2019-01-16-00-00,0.8282285714285714,0.10323877551020408,0.06854693877551019,0.0899804081632653
77,2019-01-21-00-00,0.8080335195530725,0.12147905027932963,0.07048603351955307,0.15471606145251396
78,2019-01-26-00-00,0.813349860724234,0.11490919220055712,0.0717342618384401,0.1178150417827298
79,2019-01-31-00-00,0.832720044792833,0.10710750279955206,0.060185890257558786,0.12239720044792834
80,2019-02-05-00-00,0.8121772053083528,0.1187486338797814,0.06907181889149103,0.11367939110070258
81,2019-02-10-00-00,0.8203066343042071,0.11234546925566341,0.0673616504854369,0.13163017799352753
82,2019-02-15-00-00,0.8160095799557847,0.12121812822402357,0.06276934414148858,0.1526144436256448
83,2019-02-20-00-00,0.8097440652818991,0.12464391691394658,0.06561275964391691,0.1396975519287834
84,2019-02-25-00-00,0.8085540661304735,0.11654781054512955,0.0749159964253798,0.1252100983020554
85,2019-03-02-00-00,0.8063620689655172,0.12260217113665389,0.07102043422733079,0.1523852490421456
86,2019-03-07-00-00,0.813362952836637,0.12156322624743678,0.06507177033492823,0.13922966507177031
87,2019-03-12-00-00,0.8159735682819383,0.11665345080763584,0.06737444933920704,0.14313913362701908
88,2019-03-17-00-00,0.8228563685636857,0.1082836495031617,0.06885365853658537,0.11444932249322493
89,2019-03-22-00-00,0.8196230283911672,0.10812776025236592,0.07223659305993692,0.11092586750788644
90,2019-03-27-00-00,0.8108299145299145,0.12044700854700854,0.06872564102564102,0.17298666666666665
91,2019-04-01-00-00,0.8137780821917808,0.12205972602739727,0.0641586301369863,0.14012690410958906
92,2019-04-06-00-00,0.8148326309452139,0.11636724864539434,0.06879048765803733,0.12645574954846478
93,2019-04-11-00-00,0.8080461445051608,0.12334547662416515,0.06861323618700668,0.16130619307832425
94,2019-04-16-00-00,0.8297462121212121,0.11253977272727272,0.05773295454545455,0.14014772727272726
95,2019-04-21-00-00,0.8128096468561585,0.11914728682170542,0.0680318690783807,0.12017011197243754
96,2019-04-26-00-00,0.8083619834710744,0.11210206611570249,0.07952396694214876,0.05220946280991736
97,2019-05-01-00-00,0.8121459110960297,0.11855242619613164,0.0693036986766203,0.10997319307770614
98,2019-05-06-00-00,0.8050173710137413,0.11800129634430905,0.07697718434016075,0.09343824215711694
99,2019-05-11-00-00,0.806998975409836,0.12307146516393444,0.06992136270491804,0.1399029969262295
100,2019-05-16-00-00,0.7983052359708852,0.12918901150504813,0.07249917821084761,0.12185576426391172
101,2019-05-21-00-00,0.8213859060402685,0.11184995206136146,0.06676030680728667,0.125035426653883
102,2019-05-26-00-00,0.7999254716981132,0.13119056603773585,0.06888537735849057,0.1295358962264151
103,2019-05-31-00-00,0.8047089783281733,0.12740131578947367,0.06790208978328173,0.13793928018575852
104,2019-06-05-00-00,0.8019615384615384,0.12470181503889369,0.07334269662921349,0.12744628349178913
105,2019-06-10-00-00,0.8076615776081425,0.12370788804071248,0.0686264631043257,0.14709445292620865
106,2019-06-15-00-00,0.8165110294117648,0.11927757352941176,0.06420358455882352,0.13272886029411765
107,2019-06-20-00-00,0.8084745122718691,0.12749276274386406,0.06403713027061045,0.1374369414726243
108,2019-06-25-00-00,0.8118793053545585,0.12079363241678726,0.06732648335745296,0.12030946454413892
109,2019-06-30-00-00,0.8031895761741124,0.12877319587628866,0.06802462772050401,0.13736076746849943
110,2019-07-05-00-00,0.804755768148565,0.1257540799099606,0.06948452447945976,0.1303172763083849
111,2019-07-10-00-00,0.8084499818115679,0.1172328119316115,0.07432157148053838,0.11056205893052021
112,2019-07-15-00-00,0.8053263246425568,0.1268797308662742,0.06779534622932437,0.13230714886459208
113,2019-07-20-00-00,0.8077416294642857,0.12242522321428571,0.06983370535714287,0.12836629464285715
114,2019-07-25-00-00,0.8138440860215054,0.1114065860215054,0.07475067204301075,0.07749798387096775
115,2019-07-30-00-00,0.8110996745321399,0.1188193653376729,0.07007770545158665,0.1164593572009764
116,2019-08-04-00-00,0.8033621655258245,0.1242221530802738,0.07242874922215307,0.12676253889234598
117,2019-08-09-00-00,0.8033868003341688,0.12234878863826233,0.07425856307435255,0.11829791144527986
118,2019-08-14-00-00,0.7909613793103448,0.12707379310344827,0.08196862068965517,0.09649786206896552
119,2019-08-19-00-00,0.8026893101632439,0.12142917324907847,0.07587888362295946,0.11620289626119011
120,2019-08-24-00-00,0.7985350515463917,0.12799639175257732,0.07347164948453608,0.12921427835051547
121,2019-08-29-00-00,0.8167660550458716,0.11480963302752292,0.0684506880733945,0.11811146788990826
122,2019-09-03-00-00,0.8063566099671741,0.12456639809012236,0.06907520143240824,0.11848621307072515
123,2019-09-08-00-00,0.8184216524216523,0.119,0.06259259259259259,0.17094757834757834
124,2019-09-13-00-00,0.8015520467836257,0.12458245614035088,0.0738748538011696,0.13059473684210526
125,2019-09-18-00-00,0.8038388429752066,0.12771735537190085,0.06845206611570248,0.127438347107438
126,2019-09-23-00-00,0.8016220472440946,0.1185984251968504,0.07977924634420697,0.08738962317210347
127,2019-09-28-00-00,0.8107296587926509,0.1080909886264217,0.0811758530183727,0.0697663167104112
128,2019-10-03-00-00,0.7991471722365038,0.1188688946015424,0.08198071979434447,0.06398001285347044
129,2019-10-08-00-00,0.8093290960451978,0.10960593220338984,0.0810677966101695,0.10573234463276836
130,2019-10-13-00-00,0.8060571428571429,0.11165714285714287,0.08227563025210084,0.06813159663865546
131,2019-10-18-00-00,0.8058137356919876,0.11539125910509884,0.07880853277835588,0.09439531737773153
132,2019-10-23-00-00,0.7923854884475071,0.1274535873530604,0.08015200648561006,0.10147738143494121
133,2019-10-28-00-00,0.8023090332805072,0.12250475435816165,0.07519096671949287,0.08460990491283678
134,2019-11-02-00-00,0.8152615262321145,0.11562718600953896,0.06910492845786963,0.1154891891891892
135,2019-11-07-00-00,0.8005663082437277,0.13093189964157706,0.06850358422939068,0.14189901433691757
136,2019-11-12-00-00,0.8024866542520173,0.11682619490999378,0.0806772191185599,0.10062259466170081
137,2019-11-17-00-00,0.7934709707385045,0.12213608917789132,0.08439990710636322,0.08565030190431956
138,2019-11-22-00-00,0.7944294770206022,0.12011410459587955,0.08545219228737454,0.06775657686212361
139,2019-11-27-00-00,0.7906033755274261,0.1290379746835443,0.08035382760699215,0.11245479204339964
140,2019-12-02-00-00,0.8025186028853454,0.11853910402429765,0.07893166287015946,0.09110106302201974
141,2019-12-07-00-00,0.8126208178438661,0.11786617100371748,0.06951022304832714,0.11056821561338288
142,2019-12-12-00-00,0.7977995245641839,0.12506418383518225,0.07713391442155308,0.13458541996830428
143,2019-12-17-00-00,0.8011043256997457,0.12075911789652248,0.07812722646310433,0.07786276505513147
144,2019-12-22-00-00,0.8289807692307692,0.11276201923076923,0.058257211538461535,0.090303125
145,2019-12-27-00-00,0.8076556818181818,0.11012272727272727,0.08221363636363638,0.09223909090909091
146,2020-01-01-00-00,0.8141135331516802,0.11430881017257039,0.07159309718437784,0.09202706630336058
147,2020-01-06-00-00,0.7969216539717083,0.1263030467899891,0.07678073993471166,0.10691800870511425
148,2020-01-11-00-00,0.8088733874820833,0.12131533683707596,0.06981700907787865,0.11415661729574773
149,2020-01-16-00-00,0.8058532915360501,0.12172978056426334,0.07241003134796238,0.12611335423197492
150,2020-01-21-00-00,0.8046110787172011,0.12665481049562682,0.06873002915451894,0.12826349854227406
151,2020-01-26-00-00,0.8036030174446016,0.12354502593116454,0.07284441301272986,0.10321272984441301
152,2020-01-31-00-00,0.807568413886998,0.1245350578624915,0.06790129339686862,0.12933989108236896
153,2020-02-05-00-00,0.8023852183650616,0.1311511758118701,0.06646696528555432,0.14111466965285555
154,2020-02-10-00-00,0.804162440570523,0.12747068145800317,0.06837876386687798,0.13468201267828844
155,2020-02-15-00-00,0.8067956764295676,0.12941352859135286,0.06378730822873083,0.15368891213389121
156,2020-02-20-00-00,0.8044818617385352,0.1189322381930185,0.07657905544147844,0.12799178644763862
157,2020-02-25-00-00,0.8042015655577299,0.1211027397260274,0.07469814090019569,0.10111771037181996
158,2020-03-01-00-00,0.8042829964328181,0.12524137931034482,0.07049464922711059,0.13108382877526753
159,2020-03-06-00-00,0.8051855345911949,0.12255283018867923,0.07225723270440253,0.10362918238993711
160,2020-03-11-00-00,0.7917881514174162,0.11532676964861653,0.09288864369377016,0.02982164318451876
161,2020-03-16-00-00,0.8042295081967213,0.11795784543325526,0.07781147540983607,0.06406857923497268
162,2020-03-21-00-00,0.8051401120896717,0.11217053642914332,0.08269135308246597,0.04357862289831865
163,2020-03-26-00-00,0.8212702871410738,0.1062896379525593,0.07244444444444444,0.07426029962546817
164,2020-03-31-00-00,0.7965356500898743,0.11832834032354704,0.08514080287597363,0.06247807070101858
165,2020-04-05-00-00,0.8044675767918088,0.11644641638225257,0.07907303754266211,0.0719617747440273
166,2020-04-10-00-00,0.7988053035589673,0.11739357990230286,0.08379344033496161,0.07663405443126307
167,2020-04-15-00-00,0.8000507996237065,0.11962276575729068,0.08032596425211666,0.07775169332079021
168,2020-04-20-00-00,0.8021758139534884,0.11997209302325582,0.0778493023255814,0.10237553488372093
169,2020-04-25-00-00,0.8034906226556638,0.12121680420105026,0.0752820705176294,0.11984186046511626
170,2020-04-30-00-00,0.7995289032955158,0.1291853052404106,0.07128795245813074,0.12369600216099406
171,2020-05-05-00-00,0.8101786802030457,0.11731776649746192,0.07248527918781726,0.12083725888324873
172,2020-05-10-00-00,0.803670295489891,0.12343701399688958,0.07288646967340591,0.10424883359253499
173,2020-05-15-00-00,0.7912167076167077,0.12810073710073708,0.08068796068796068,0.13476800982800982
174,2020-05-20-00-00,0.802522707797772,0.11883119108826048,0.07863838903170522,0.12170257069408741
175,2020-05-25-00-00,0.7911246006389777,0.13357188498402556,0.07530431309904154,0.13882667731629392
176,2020-05-30-00-00,0.8007554161915622,0.1135963511972634,0.08565165336374002,0.057329475484606617
177,2020-06-04-00-00,0.7997430555555556,0.1203138888888889,0.07993472222222221,0.08261041666666667
178,2020-06-09-00-00,0.8020304347826088,0.12506376811594205,0.07290652173913044,0.13174014492753625
179,2020-06-14-00-00,0.8049468354430379,0.11982616033755276,0.07523206751054853,0.11512194092827002
180,2020-06-19-00-00,0.8172348668280872,0.1178995157384988,0.06486198547215498,0.1295257869249395
181,2020-06-24-00-00,0.803596919127086,0.12290629011553274,0.0734775353016688,0.14610860077021823
182,2020-06-29-00-00,0.8047409793814434,0.1217577319587629,0.07350386597938144,0.09942551546391754
183,2020-07-04-00-00,0.8043432835820895,0.13435489220563848,0.061318407960198995,0.14103764510779437
