,date,neu,pos,neg,compound
0,2018-01-01-00-00,0.8960597880423915,0.07053529294141173,0.03339792041591681,0.10051111777644471
1,2018-01-06-00-00,0.8822617476504698,0.07178004399120176,0.04595280943811238,0.07913457308538292
2,2018-01-11-00-00,0.8862255548890222,0.07206838632273545,0.041702259548090384,0.0796988802239552
3,2018-01-16-00-00,0.8828932213557289,0.08029194161167766,0.036806238752249545,0.12724717056588683
4,2018-01-21-00-00,0.8870141971605678,0.07937832433513298,0.033605278944211156,0.12707012597480502
5,2018-01-26-00-00,0.8959444111177766,0.06922255548890223,0.03483203359328134,0.09378018396320735
6,2018-01-31-00-00,0.8745300939812037,0.08367586482703458,0.041791441711657676,0.10809652069586081
7,2018-02-05-00-00,0.8885462907418518,0.06865346930613878,0.0428002399520096,0.07790195960807839
8,2018-02-10-00-00,0.8871655668866227,0.07746090781843631,0.03537612477504499,0.11513879224155169
9,2018-02-15-00-00,0.8858372325534893,0.07842271545690863,0.03574545090981804,0.11108840231953611
10,2018-02-20-00-00,0.8926062787442511,0.07622075584883023,0.031175164967006595,0.12104121175764847
11,2018-02-25-00-00,0.8926480703859228,0.0729628074385123,0.034386522695460914,0.11396884623075386
12,2018-03-02-00-00,0.89399700059988,0.06719616076784643,0.03880743851229754,0.08478810237952408
13,2018-03-07-00-00,0.8974455108978204,0.07015516896620676,0.03239712057588482,0.1123109778044391
14,2018-03-12-00-00,0.898243351329734,0.06542231553689262,0.03633313337332533,0.08655724855028994
15,2018-03-17-00-00,0.9063159368126372,0.06309878024395121,0.030584483103379325,0.08946608678264346
16,2018-03-22-00-00,0.9032697460507899,0.06586282743451309,0.030866826634673068,0.10180629874025195
17,2018-03-27-00-00,0.8957184563087384,0.06845950809838032,0.035823835232953405,0.08715926814637073
18,2018-04-01-00-00,0.9014237152569486,0.06362307538492301,0.034956008798240346,0.0807877424515097
19,2018-04-06-00-00,0.8967256548690261,0.06845730853829235,0.034816836632673466,0.09171723655268947
20,2018-04-11-00-00,0.8937914417116576,0.07681583683263347,0.02940091981603679,0.11760489902019597
21,2018-04-16-00-00,0.8958068386322734,0.07241771645670866,0.0317748450309938,0.11506632673465306
22,2018-04-21-00-00,0.9008148370325936,0.0635858828234353,0.03560487902419516,0.07501841631673666
23,2018-04-26-00-00,0.8916708658268345,0.07306358728254349,0.035263747250549884,0.11825058988202358
24,2018-05-01-00-00,0.8920897820435911,0.0659376124775045,0.041967006598680266,0.07563089382123575
25,2018-05-06-00-00,0.8985940811837634,0.072374325134973,0.029031793641271744,0.1145877624475105
26,2018-05-11-00-00,0.8974505098980203,0.06800899820035991,0.0345372925414917,0.10133593281343731
27,2018-05-16-00-00,0.8967654469106179,0.07396480703859228,0.029267546490701863,0.12876994601079786
28,2018-05-21-00-00,0.8905824835032993,0.07587002599480105,0.033550289942011605,0.10822543491301741
29,2018-05-26-00-00,0.8988554289142171,0.07021775644871026,0.03092221555688862,0.11184059188162368
30,2018-05-31-00-00,0.908138972205559,0.06633313337332535,0.025527894421115777,0.1155365326934613
31,2018-06-05-00-00,0.900147370525895,0.06739872025594881,0.03245810837832434,0.10777434513097381
32,2018-06-10-00-00,0.8969708058388323,0.0660997800439912,0.036933613277344526,0.09509904019196161
33,2018-06-15-00-00,0.9024547090581885,0.06807778444311138,0.029468106378724258,0.11357060587882423
34,2018-06-20-00-00,0.8886704659068186,0.07358908218356329,0.03773465306938613,0.1055249350129974
35,2018-06-25-00-00,0.8879384123175365,0.07338172365526895,0.03867826434713058,0.0947625674865027
36,2018-06-30-00-00,0.9100169966006798,0.06736592681463707,0.02261487702459508,0.1357217956408718
37,2018-07-05-00-00,0.8910669866026796,0.08033213357328534,0.02860087982403519,0.1304485102979404
38,2018-07-10-00-00,0.9038146370725855,0.06656908618276346,0.029615076984603084,0.10698238352329535
39,2018-07-15-00-00,0.9022677464507098,0.07130233953209358,0.026427914417116578,0.12856586682663465
40,2018-07-20-00-00,0.9007132573485304,0.06995580883823235,0.02933253349330134,0.11674825034993003
41,2018-07-25-00-00,0.9088136372725456,0.06826754649070187,0.022918416316736655,0.1291257148570286
42,2018-07-30-00-00,0.9060727854429115,0.06617716456708658,0.027749250149970005,0.11627238552289543
43,2018-08-04-00-00,0.8993687262547492,0.06184383123375325,0.03878924215156969,0.06833603279344132
44,2018-08-09-00-00,0.896114977004599,0.0645384923015397,0.039351129774045195,0.07551697660467906
45,2018-08-14-00-00,0.8862907418516297,0.0778260347930414,0.03588002399520096,0.1196866026794641
46,2018-08-19-00-00,0.8773011397720456,0.07166746650669865,0.05102819436112778,0.07605102979404119
47,2018-08-24-00-00,0.89224675064987,0.07226894621075786,0.03548390321935613,0.11196232753449309
48,2018-08-29-00-00,0.88150849830034,0.08413497300539892,0.034358128374325135,0.13602751449710057
49,2018-09-03-00-00,0.8900289942011598,0.07881583683263348,0.031153969206158767,0.12971687662467507
50,2018-09-08-00-00,0.8891507698460308,0.07868126374725055,0.032170165966806635,0.12923369326134776
51,2018-09-13-00-00,0.8876006798640271,0.0800377924415117,0.03235992801439712,0.12934655068986203
52,2018-09-18-00-00,0.8967756448710257,0.07147370525894822,0.03175124975004999,0.12391155768846232
53,2018-09-23-00-00,0.8944369126174765,0.07087962407518497,0.0346876624675065,0.09710385922815436
54,2018-09-28-00-00,0.8940301939612078,0.0653511297740452,0.04062107578484304,0.08277162567486504
55,2018-10-03-00-00,0.8860411917616478,0.07806198760247951,0.03589742051589682,0.11931403719256148
56,2018-10-08-00-00,0.886241351729654,0.06884143171365727,0.04491941611677664,0.07425414917016597
57,2018-10-13-00-00,0.9041527694461107,0.06511017796440711,0.030733253349330133,0.10261577684463108
58,2018-10-18-00-00,0.8915282943411319,0.07937272545490902,0.029097180563887225,0.13565542891421717
59,2018-10-23-00-00,0.8890883823235353,0.08255768846230753,0.02835032993401319,0.15015640871825633
60,2018-10-28-00-00,0.8899884023195361,0.07889082183563288,0.031117576484703063,0.12871883623275346
61,2018-11-02-00-00,0.8898200359928014,0.07348150369926015,0.03670085982803439,0.1083884623075385
62,2018-11-07-00-00,0.888754449110178,0.07672945410917817,0.03451549690061988,0.1224755648870226
63,2018-11-12-00-00,0.8713409318136375,0.07734593081383724,0.05131433713257348,0.06923113377324534
64,2018-11-17-00-00,0.8857658468306339,0.06981963607278545,0.0444119176164767,0.07814477104579083
65,2018-11-22-00-00,0.8756000799840032,0.0715508898220356,0.05285342931413717,0.06661593681263747
66,2018-11-27-00-00,0.8844225154969007,0.08198240351929614,0.03358988202359528,0.1282014197160568
67,2018-12-02-00-00,0.8879768046390724,0.07387282543491301,0.03815616876624675,0.10583951209758048
68,2018-12-07-00-00,0.8924407118576284,0.07154249150169965,0.03601539692061587,0.10167544491101779
69,2018-12-12-00-00,0.8714461107778442,0.08508118376324734,0.04346370725854829,0.11487058588282344
70,2018-12-17-00-00,0.8775402919416116,0.09005738852229554,0.03240251949610078,0.15621465706858625
71,2018-12-22-00-00,0.8817628474305139,0.07497820435912818,0.04325834833033393,0.10058408318336333
72,2018-12-27-00-00,0.8803627274545092,0.0835368926214757,0.03610357928414317,0.1313988802239552
73,2019-01-01-00-00,0.8828892221555689,0.08444871025794842,0.03266366726654669,0.14130527894421116
74,2019-01-06-00-00,0.8915782843431315,0.07085022995400919,0.03757048590281943,0.10278164367126574
75,2019-01-11-00-00,0.8884057188562287,0.0767240551889622,0.0348632273545291,0.12259684063187364
76,2019-01-16-00-00,0.8800483903219355,0.07495600879824035,0.044999600079984006,0.09615968806238752
77,2019-01-21-00-00,0.8933413317336534,0.07344631073785243,0.03321415716856629,0.10961795640871826
78,2019-01-26-00-00,0.8920687862427517,0.07392561487702459,0.03400619876024795,0.10633211357728456
79,2019-01-31-00-00,0.8998996200759848,0.06421195760847831,0.03588982203559288,0.08600997800439912
80,2019-02-05-00-00,0.8873593281343731,0.08287282543491302,0.029765446910617877,0.14043109378124374
81,2019-02-10-00-00,0.8857416516696661,0.07465426914617077,0.039601679664067184,0.09851949610077984
82,2019-02-15-00-00,0.8981953609278145,0.06638292341531693,0.03542131573685263,0.0985247950409918
83,2019-02-20-00-00,0.8813317336532693,0.08056668666266746,0.038099180163967204,0.11736724655068985
84,2019-02-25-00-00,0.8815886822635473,0.07516636672665468,0.04323675264947011,0.10095998800239951
85,2019-03-02-00-00,0.8904299140171965,0.07911817636472705,0.030453909218156373,0.1283127174565087
86,2019-03-07-00-00,0.8870801839632074,0.07595140971805639,0.03697020595880825,0.11510337932413518
87,2019-03-12-00-00,0.8829300139972006,0.08257368526294742,0.03449750049990002,0.12731375724855032
88,2019-03-17-00-00,0.8894965006998599,0.07446950609878025,0.036037992401519704,0.10811435712857428
89,2019-03-22-00-00,0.8874949010197959,0.07717976404719055,0.03532753449310138,0.12209092181563687
90,2019-03-27-00-00,0.8787380523895222,0.08679104179164167,0.03447330533893222,0.16327970405918818
91,2019-04-01-00-00,0.8964337132573484,0.07094121175764846,0.032623675264947014,0.11860563887222556
92,2019-04-06-00-00,0.8881985602879425,0.07461007798440313,0.03719576084783044,0.10914497100579885
93,2019-04-11-00-00,0.8834855028994201,0.07684383123375325,0.03966826634673065,0.10751037792441512
94,2019-04-16-00-00,0.8768412317536494,0.08058368326334733,0.04257688462307539,0.10100215956808639
95,2019-04-21-00-00,0.8873243351329734,0.07131873625274944,0.04135792841431714,0.09077618476304739
96,2019-04-26-00-00,0.8866972605478903,0.07394721055788842,0.03935392921415716,0.1098899220155969
97,2019-05-01-00-00,0.8826448710257948,0.07808318336332734,0.03927714457108578,0.11144765046990601
98,2019-05-06-00-00,0.8842199560087983,0.08198560287942411,0.03379784043191362,0.14185798840231956
99,2019-05-11-00-00,0.8867500499900022,0.07610117976404719,0.03715156968606279,0.11829628074385122
100,2019-05-16-00-00,0.8805968806238752,0.07599960007998399,0.04339412117576485,0.09742967406518697
101,2019-05-21-00-00,0.8749684063187364,0.08809918016396721,0.03693981203759248,0.13784091181763647
102,2019-05-26-00-00,0.8799598080383924,0.0768884223155369,0.04315236952609478,0.10101067786442712
103,2019-05-31-00-00,0.8827958408318335,0.07546930613877226,0.041734253149370126,0.10383421315736853
104,2019-06-05-00-00,0.8824485102979402,0.07936032793441312,0.03819136172765447,0.12341107778444309
105,2019-06-10-00-00,0.8746786642671466,0.08610137972405518,0.03922275544891022,0.13565392921415717
106,2019-06-15-00-00,0.8780857828434313,0.08820855828834233,0.033703059388122375,0.15690643871225757
107,2019-06-20-00-00,0.8835584883023394,0.08064887022595481,0.035789642071585685,0.12666916616676666
108,2019-06-25-00-00,0.8791775644871025,0.08449990001999601,0.03632113577284543,0.14057858428314338
109,2019-06-30-00-00,0.8788692261547689,0.08103839232153569,0.04008898220355929,0.11620505898820237
110,2019-07-05-00-00,0.8815792841431714,0.08462087582483503,0.03379464107178565,0.13730615876824634
111,2019-07-10-00-00,0.878260347930414,0.07974165166966607,0.041992001599680064,0.11396132773445311
112,2019-07-15-00-00,0.8933519296140773,0.07325494901019795,0.033395320935812836,0.10734241151769645
113,2019-07-20-00-00,0.8826302739452109,0.07909478104379124,0.03827894421115777,0.1152870025994801
114,2019-07-25-00-00,0.8919092181563687,0.07424195160967806,0.033848030393921216,0.1153025794841032
115,2019-07-30-00-00,0.8819212157568485,0.0831003799240152,0.03497700459908019,0.13032815436912618
116,2019-08-04-00-00,0.8790983803239353,0.07511217756448711,0.04578544291141772,0.09665554889022196
117,2019-08-09-00-00,0.8876662667466505,0.07394461107778445,0.0383871225754849,0.10627414517096583
118,2019-08-14-00-00,0.8672113577284541,0.08272005598880224,0.05006138772245551,0.09366868626274745
119,2019-08-19-00-00,0.8720827834433114,0.08701659668066386,0.04090101979604079,0.13243235352929414
120,2019-08-24-00-00,0.8820489902019595,0.07503339332133574,0.04292121575684863,0.101674125174965
121,2019-08-29-00-00,0.8923033393321337,0.07195360927814438,0.0357378524295141,0.10236332733453309
122,2019-09-03-00-00,0.8884579084183163,0.078001399720056,0.03354029194161168,0.13004559088182363
123,2019-09-08-00-00,0.891134573085383,0.07255848830233953,0.03630593881223755,0.10563137372525495
124,2019-09-13-00-00,0.897622475504899,0.07002039592081584,0.032354929014197155,0.10967382523495303
125,2019-09-18-00-00,0.8853421315736851,0.07987182563487302,0.03478224355128974,0.13045546890621876
126,2019-09-23-00-00,0.8893455308938213,0.07093621275744852,0.039715456908618274,0.09393933213357329
127,2019-09-28-00-00,0.8904201159768046,0.07196020795840832,0.037618276344731055,0.09909168166366726
128,2019-10-03-00-00,0.8900529894021197,0.07425514897020596,0.035694661067786446,0.10879350129974004
129,2019-10-08-00-00,0.8896026794641072,0.07622155568886223,0.03417736452709458,0.12438308338332334
130,2019-10-13-00-00,0.8908964207158567,0.07094581083783244,0.038159968006398724,0.10109252149570086
131,2019-10-18-00-00,0.8917990401919618,0.07246610677864426,0.035740851829634074,0.10813957208558289
132,2019-10-23-00-00,0.8933915216956609,0.07248390321935613,0.03412357528494301,0.1149848830233953
133,2019-10-28-00-00,0.8888520295940813,0.07872825434913018,0.03241731653669266,0.12588306338732252
134,2019-11-02-00-00,0.8895552889422116,0.07379524095180966,0.03664587082583483,0.11302005598880221
135,2019-11-07-00-00,0.890624675064987,0.0742125574885023,0.035165166966606674,0.11723585282943412
136,2019-11-12-00-00,0.8857650469906018,0.07962327534493102,0.03461107778444311,0.12358700259948012
137,2019-11-17-00-00,0.877618876224755,0.08084243151369726,0.04154149170165967,0.1113375124975005
138,2019-11-22-00-00,0.8771761647670465,0.08616616676664668,0.03665446910617876,0.1260147970405919
139,2019-11-27-00-00,0.8893103379324137,0.07862567486502699,0.03206618676264747,0.13094801039792042
140,2019-12-02-00-00,0.8863531293741251,0.07874145170965807,0.03489882023595281,0.1213382123575285
141,2019-12-07-00-00,0.8855858828234352,0.07888262347530495,0.03552889422115577,0.12011583683263347
142,2019-12-12-00-00,0.8866950609878023,0.07270185962807438,0.040600279944011206,0.09094711057788442
143,2019-12-17-00-00,0.8864547090581884,0.07535792841431714,0.038185962807438516,0.12112035592881423
144,2019-12-22-00-00,0.883866626674665,0.07479144171165768,0.04134513097380524,0.10064127174565088
145,2019-12-27-00-00,0.8757998400319936,0.08456528694261149,0.039632073585282944,0.12803113377324535
146,2020-01-01-00-00,0.8848452309538092,0.07490761847630475,0.040246150769846036,0.1069759648070386
147,2020-01-06-00-00,0.8820579884023196,0.07669406118776245,0.041250549890022,0.11086676664667067
148,2020-01-11-00-00,0.8927414517096581,0.07351629674065187,0.033744051189762043,0.11786702659468105
149,2020-01-16-00-00,0.8888708258348331,0.07537392521495702,0.03575464907018596,0.1210900219956009
150,2020-01-21-00-00,0.8850373925214957,0.07745710857828435,0.037507298540291945,0.12526772645470904
151,2020-01-26-00-00,0.8844065186962606,0.07504579084183163,0.0405492901419716,0.10423495300939813
152,2020-01-31-00-00,0.882737052589482,0.08231573685262947,0.0349500099980004,0.1306514897020596
153,2020-02-05-00-00,0.8922149570085982,0.07587142571485703,0.031916016796640675,0.11911885622875425
154,2020-02-10-00-00,0.8796756648670265,0.08521975604879023,0.03510377924415117,0.13696128774245153
155,2020-02-15-00-00,0.869503299340132,0.0858508298340332,0.04464607078584283,0.12188576284743051
156,2020-02-20-00-00,0.8825916816636673,0.07289842031593681,0.044508898220355926,0.0878993401319736
157,2020-02-25-00-00,0.8908600279944011,0.07520115976804638,0.03393961207758448,0.1131010597880424
158,2020-03-01-00-00,0.8910979804039191,0.07407078584283143,0.03483063387322536,0.10811015796840633
159,2020-03-06-00-00,0.8915814837032592,0.06954149170165967,0.038881623675264945,0.09240407918416317
160,2020-03-11-00-00,0.8724719056188762,0.07229814037192561,0.05522435512897421,0.05278106378724255
161,2020-03-16-00-00,0.8822271545690862,0.07390441911617676,0.04387262547490502,0.07771531693661268
162,2020-03-21-00-00,0.8809712057588482,0.07184463107378523,0.04718656268746251,0.0689499900019996
163,2020-03-26-00-00,0.8823685262947412,0.0715870825834833,0.04604259148170366,0.07101173765246951
164,2020-03-31-00-00,0.8837128574285144,0.07364047190561887,0.042641271745650876,0.09990169966006798
165,2020-04-05-00-00,0.8892875424915015,0.07217756448710258,0.03853569286142771,0.0927751849630074
166,2020-04-10-00-00,0.8918148370325936,0.07356568686262747,0.0346130773845231,0.11615750849830035
167,2020-04-15-00-00,0.8854227154569085,0.07484223155368926,0.03973265346930614,0.11084009198160369
168,2020-04-20-00-00,0.884863827234553,0.07473365326934613,0.04040431913617277,0.10582687462507498
169,2020-04-25-00-00,0.8868548290341932,0.07421415716856629,0.0389252149570086,0.10082899420115977
170,2020-04-30-00-00,0.8775704859028194,0.0874363127374525,0.034993201359728054,0.15991977604479105
171,2020-05-05-00-00,0.8792333533293342,0.08235352929414118,0.03840971805638872,0.12661669666066788
172,2020-05-10-00-00,0.888978604279144,0.07457488502299539,0.03644131173765247,0.11461757648470305
173,2020-05-15-00-00,0.8944141171765647,0.07246810637872425,0.03311457708458308,0.11594025194961007
174,2020-05-20-00-00,0.8781643671265749,0.08233593281343732,0.03950169966006799,0.12586834633073385
175,2020-05-25-00-00,0.8855578884223155,0.07601599680063988,0.038424715056988606,0.11518002399520094
176,2020-05-30-00-00,0.878734453109378,0.07709158168366326,0.044173165366926614,0.10425888822235552
177,2020-06-04-00-00,0.8801189762047591,0.07990201959608079,0.039976604679064186,0.12526634673065387
178,2020-06-09-00-00,0.8752823435312937,0.08485242951409717,0.03986662667466506,0.12841211757648469
179,2020-06-14-00-00,0.8816698660267946,0.07772045590881824,0.04061707658468306,0.10628184363127374
180,2020-06-19-00-00,0.8804899020195961,0.08107958408318336,0.0384247150569886,0.13265514897020597
181,2020-06-24-00-00,0.8894917016596681,0.07561527694461108,0.034894221155768845,0.12865206958608277
182,2020-06-29-00-00,0.8825342931413718,0.07999660067986403,0.03746950609878024,0.13691503699260146
