,id,submission_id,score,body
0,d2s96n,d2s96n,28,"Testers for sentiment signal. Hi all,

We just launched a dashboard with a Bull & Bear trading signal. 

So far only quants use our data. With the dashboard, our goal is to make a quantitative sentiment signal that is accessible for discretionary traders, too.

Some background on our technology: 

We spent the last months training an AI that identifies 93 emotions (*FOMO, Bullish/Bearish,  optimism, FUD*, ....) and topics (*hacks, scam, technical analysis*,...) in social media data (Reddit/Twitter/Bitcointalk) in real-time. 

This is the [full picture](https://www.augmento.ai/sentiments-and-topics-measured-by-augmento-s-ai/) of what our AI detects in online crypto discussions.

We would be happy to hear what you think and we’re looking for testers who want to test the signal (for free) and provide feedback. 

You can sign up here: [https://www.augmento.ai/sentiment-signal-signup/](https://www.augmento.ai/sentiment-signal-signup/)

Looking forward to learning if you find this useful

Cheers"
1,ezwqb2f,d2s96n,5,Do you have any backtesting results from trading off of these signals?
2,ezynx7p,d2s96n,2,Very interesting. Just signed up and would be happy to test and feedback
3,ezwxrju,d2s96n,1,"here is some context from the info in the app:

*""The backtest of the signal follows the logic described above* \[=signal crossing a defined threshold\] *going all-in on every trade with a starting investment of one unit. That means if one had followed the signal with an initial investment of one BTC the resulting returns would have yielded ca. 41.9x between January 1st, 2017 and September 1st, 2019. Trading fees of 0.075% for each trade—as required by Bitmex— are included in the backtest. The distribution of returns and drawdowns are depicted in the plot above.""*

Edit: corrected % number of Bitmex trading fees"
4,ezyrk1g,d2s96n,1,"great, will sign you up and send you an email"
5,ezyw2hy,d2s96n,1,"You are right, trading fees are 0.075%. I just double-checked and we had implemented it correctly in the code. 

Thanks a lot for the heads up!

Seems you have a good eye for details. Feel free to check our Github. There are scripts you can use to load our data and run your own backtest: [https://github.com/augmento-ai/quant-reseach](https://github.com/augmento-ai/quant-reseach)"
0,d2p6s1,d2p6s1,0,Buy/Sell Volume indicators. The missing piece in volume analysis.. 
1,ezx97l8,d2p6s1,3,This is cool...it's certainly what is missing from tradingview. Is it possible to make a CVD that starts from an origin and keeps counting instead of using a rolling window?
2,ezw5hbp,d2p6s1,1,So bought at ask and sold to bid metrics?
3,ezxkpwz,d2p6s1,1,"What I'd like to see is market absorbance. Essentially how well the bids on the orderbook are able to withstand the market orders.

If the market has low absorbance, that means selling N contracts into the market will move the price by a larger amount, and vice versa."
4,f022dym,d2p6s1,1,"I dont understand how to use it. I understand the indicator, I just dont see how its correlated or not with anything. Im trying to find patters, divergances, something that would indicate that there is some correlation between indicator and chart, but I cant find it. Ive looked at small and large timeframes.

Its cool indicator, but its shit. Cool, but shit. But nice job on the site. Too much useless info :) But nice info :)"
5,f00ioi5,d2p6s1,3,Should be possible. I'll build such an indicator as soon as possible. Will let you know when is done.
6,f07p9qp,d2p6s1,2,"I have implemented, see ""Cumulative Volume Delta"" indicator on Indicators window. See  ""Start Bar Offset"" parameter. You can specify the origin bar. If you specify 50 for example that means 50 bars ago, 52 means 52 bars ago etc.  If you specify 0 then the origin bar will be the first bar. 

Let me know please if it works as expected or if you need adjustments.

Regards!"
7,ezw72w5,d2p6s1,1,exactly
8,f0899nn,d2p6s1,1,Thank you. It looks to be working as expected.. I think it will be useful to me.
9,f08s383,d2p6s1,1,You are welcome. Thank you too for the suggestion.
0,d2kc03,d2kc03,17,"[Altcoin Discussion] Wednesday, September 11, 2019. 
**Thread topics include, but are not limited to:**

* Discussion related to recent events
* Technical analysis, trading ideas & strategies
* General questions about altcoins

**Thread guidelines:**

* **Be excellent to each other.**
* All regular rules for this subreddit apply, except for number 2. This, and only this, thread is exempt from the requirement that all discussion must relate to bitcoin trading.
* This is for high quality discussion of altcoins. **All shilling or obvious pumping/dumping behavior will result in an immediate one day ban. This is your only warning.** 
* No discussion about specific ICOs. Established coins only.

If you're not sure what kind of discussion belongs in this thread, [here](https://www.reddit.com/r/BitcoinMarkets/comments/8ckuwb/daily_discussion_monday_april_16_2018/dxgcgdb/) [are](https://www.reddit.com/r/BitcoinMarkets/comments/4o936f/alt_cryptocurrencies_megathread_june_15_2016/d4fv61m/) [some](https://www.reddit.com/r/BitcoinMarkets/comments/4kmayw/alt_cryptocurrencies_megathread/d3g6gzs/) [example](https://www.reddit.com/r/BitcoinMarkets/comments/6xejto/what_does_your_crypto_porfolio_look_like_and_why/) [posts](https://www.reddit.com/r/BitcoinMarkets/comments/7m4pj6/do_you_think_ethereum_will_surpass_bitcoin_in_510/drrpw1t/). News, TA, and sentiment analysis are great, too.


**Other ways to interact:**

* [Get an invite](https://join.slack.com/t/reddit-bitcoinmarkets/shared_invite/enQtNjM1NTg3ODgwODUzLTQ2NjZjYjYxMWExZmZmMWY0MDNlN2JlM2RhZmM0NWY1YzY1MDlkOTMyNWFjNTZjYTg1ZDM2YmEwMWRkZjIwYjM) to live chat on [our Slack group](https://reddit-bitcoinmarkets.slack.com/) and check out the #altcoins channel
* Daily Discussion for bitcoin only: [Daily Discussion](http://www.reddit.com/r/BitcoinMarkets/search?q=daily+discussion&sort=new&restrict_sr=on&t=all)
* Prior Altcoin Discussion: [Altcoin Discussion](http://www.reddit.com/r/BitcoinMarkets/search?q=altcoin+discussion&sort=new&restrict_sr=on&t=all)"
1,ezwgkc5,d2kc03,2,Thoughts on GRIN? Seems like a decent entry for a long-term hold here.
2,ezwnt3y,d2kc03,6,"I said two months ago that we would likely see a continual fall off of altcoins up until the two or three days before Binance shut down in the US. 

At this point, I can’t imagine anyone who would be selling. I’m expecting an alt pump now, and especially once Binance US opens up or coinbase adds those eight coins they mentioned last month. 

I’m not buying at the moment, but I’m hoping to see my LTC, ETH, and QUANT make some solid headway in the next few weeks—expecting a 15-25% growth, maybe more."
3,ezx50s2,d2kc03,5,Grin is interactive i.e. both parties must be online for the transaction to surpass. That is a big no for me.
4,ezwir33,d2kc03,6,You mean a 40 year hold before inflation gets manageable?
5,ezwnfng,d2kc03,2,Grins inflation is too high to hold right now. Read the white paper before you jump on board.
6,ezxm1hh,d2kc03,1,"I have a decent grin position, adding more if it dips to 14k satoshi.

To counter what other posters said:

1) inflation doesn't really matter when the grin's marketcap is only $40MM.

2) speculative shitcoins don't have to have utility for them to pump."
7,ezxov7z,d2kc03,2,EOS has a hard fork coming on 9/23. I am expecting a pump.
8,ezxc41d,d2kc03,-5,"How are people valuing Litecoin after the leaked Telegram chat? 

Halving was supposed to double the price, but instead 40% of miners jumped ship. The market has shown there is no demand for LTC even during one of it's biggest events, which makes me worry for LTC. 1 week after the halving and LTC slid a spot and lost 20% of it's marketcap in a week."
9,ezvxylk,d2kc03,3,"With bitcoin sitting at the bottom of this channel and eth holding its ratio gains, I actually think you might be right."
10,ezvt6ba,d2kc03,2,Lol I just got rid of my eth stack for some btc bc of bakkt
11,ezwb2he,d2kc03,2,Funny. I'm looking at it now and cale here to say that we lost yesterday's gains and it's as if the market wasn't satisfied with going under 10k unless the alts got stomped back into their place first
12,ezvqpby,d2kc03,1,"Agree, however BTC still looking like it's overbought, which may temper any immediate gains in alts

[https://imgur.com/a/LT8mfiZ](https://imgur.com/a/LT8mfiZ)"
13,f00u1i5,d2kc03,2,"I almost capitulated yesterday - but my exposure is so limited in comparison with my btc holdings that I realized it wasn’t worth it and that I was probably selling the bottom (or close to it.) Fuck it, if the shitcoins wanna go to zero so be it at this point for me."
14,ezxc7nb,d2kc03,-2,"> both parties must be online for the transaction to surpass.

Hate to break it to you, but so is Bitcoin's Lightning too."
15,ezxk36p,d2kc03,5,"Well, Litecoin is one of the oldest coins. And it’s considered a test net for bitcoin. And it’s basically available on every exchange. And it’s got a nice chunk of hashing power. 

So there is that."
16,ezycah1,d2kc03,4,"Are you seriously *that* threatened by Litecoin? I mean, sure, [the BCH:LTC ratio has fallen dramatically since BCH was created](https://www.coingecko.com/en/coins/bitcoin-cash/ltc) and yes, [Litecoin dominates Scrypt mining with almost 99% of the share of hashrate](https://twitter.com/SatoshiLite/status/1161015145142730754) while [BCH seems to be trending towards **less than 2%** of the total SHA-256 hashrate](https://fork.lol/pow/hashrate)... so there are legitimate reasons for you to be afraid of Litecoin flippening BCH (again), this time for good. But it still seems like you are *especially* obsessed with Litecoin, considering how incessant (and repetitive) you are in your campaign against it:

* [""Litecoin is going down the shitter.""](https://www.reddit.com/r/btc/comments/ctznyy/anteing_up_the_pressure_roger_its_now_been_over/expox38/)

* [""LTC has 0 development""](https://www.reddit.com/r/CryptoCurrency/comments/cpcz8f/this_market_is_a_cash_cow/ewojsb8/)

* [""Litecoin has 0 development.""](https://www.reddit.com/r/BitcoinMarkets/comments/cp77rx/altcoin_discussion_monday_august_12_2019/ewpc71b/)

* [""lack of development is the hallmark of Litecoin.""](https://www.reddit.com/r/CryptoCurrency/comments/cp1hex/is_it_normal_for_rlitecoin_to_censor_all_comments/ewogtoj/)

* [""no one is working on it""](https://www.reddit.com/r/BitcoinMarkets/comments/cp77rx/altcoin_discussion_monday_august_12_2019/ewpd00s/)

* [""With all LTC devs left and it's creator selling at ATH, the LTC halvening was the last milestone for this coin and most likely the last chance to get out. I expect Litecoin to keep sliding""](https://www.reddit.com/r/CryptoCurrency/comments/cvolra/litecoin_hash_rate_since_the_halvening_has/ey5pvn8/)

* [""LTC bags holders like /u/mrilirgashi are spinning this as false... still in denail that LTC is not a scam ... The whole house of cards is falling apart.""](https://www.reddit.com/r/BitcoinMarkets/comments/cq4gv5/altcoin_discussion_wednesday_august_14_2019/ewvn98y/)

* [""there's simply no demand for LTC...  miners left LTC""](https://www.reddit.com/r/CryptoCurrency/comments/cvolra/litecoin_hash_rate_since_the_halvening_has/ey5xx0j/)

* [""40% of miners left ... creator sold his stack and left the coin as did rest of the LTC developers ... no development for last 2 years""](https://www.reddit.com/r/CryptoCurrency/comments/cvolra/litecoin_hash_rate_since_the_halvening_has/ey61sff/)

* [""creator already left and all LTC developers... there is no market or miner demand for LTC... it's now acceptable to talk about the scam that Litecoin was/is""](https://www.reddit.com/r/CryptoCurrency/comments/cvolra/litecoin_hash_rate_since_the_halvening_has/ey654dz/)

* [""all these were planned for LTC and all are vaporware.""](https://www.reddit.com/r/btc/comments/csgcie/bch_developers_keep_shipping_code_24_completed_22/exfpneg/)

* [""There's little to no demand for Litecoin""](https://www.reddit.com/r/CryptoCurrency/comments/cvolra/litecoin_hash_rate_since_the_halvening_has/ey5zeuy/)

* [""Litecoin is a dead coin walking.""](https://www.reddit.com/r/BitcoinMarkets/comments/cvj0gv/altcoin_discussion_monday_august_26_2019/ey5epyy/)

* [""Litecoin is a dead project... a zombiecoin with no future.""](https://www.reddit.com/r/CryptoCurrency/comments/cp1hex/is_it_normal_for_rlitecoin_to_censor_all_comments/ewokow3/)

* [""Litecoin serves no use case""](https://www.reddit.com/r/CryptoCurrency/comments/co4k5q/ltc_foundation_chat_leaked_no_evidence_of/ewgxllb/)

* [""what value do you see in Litecoin?""](https://www.reddit.com/r/CryptoCurrency/comments/co4k5q/ltc_foundation_chat_leaked_no_evidence_of/ewgqru2/)

* [""Litecoin has no use case except for being a testnet for Bitcoin.""](https://www.reddit.com/r/CryptoCurrency/comments/cho718/tron_crypto_founder_accused_of_money_laundering/euxl4n2/)

* [""no one can find a usecase for Litecoin other than being a testnet for Bitcoin. And the creator has jumped shipped and retired off these fools.""](https://www.reddit.com/r/CryptoCurrency/comments/cwokwk/so_what_news_is_about_to_drop_now/eydj7ew/)

* [""Tron is the new Litecoin. No purpose and all marketing.""](https://www.reddit.com/r/CryptoCurrency/comments/cho718/tron_crypto_founder_accused_of_money_laundering/euwg8dg/)

* [""coins like Litecoin who literally have 0 developers would not even exist let alone be a top 5 coin. Same with XRP, it's not even a crypto currency, but it had the best gains even better than Bitcoin in 2017. If the market wisened up in 2 years these 2 coins would be the 1st to go""](https://www.reddit.com/r/BitcoinMarkets/comments/d0bmot/altcoin_discussion_friday_september_06_2019/ez9dwfl/)

* [""I would expect a crash in 10 days as people sell their position in LTC.""](https://www.reddit.com/r/BitcoinMarkets/comments/ch36gt/altcoin_discussion_wednesday_july_24_2019/euvm7zx/)

* [""There's a reason Litecoin lost $1Billion in value in 1 week following the Charlie Lee Telegram leak. And the LTC halving which was supposed to make LTC price double, instead cuased 40% of miners to leave instead. The market doesn't even have demand for LTC during it's biggest milestone in years lol.""](https://www.reddit.com/r/BitcoinMarkets/comments/d0bmot/altcoin_discussion_friday_september_06_2019/ezplfw6/)

* [""How are people valuing Litecoin after the leaked Telegram chat? ... Halving was supposed to double the price, but instead 40% of miners jumped ship. The market has shown there is no demand for LTC even during one of it's biggest events, which makes me worry for LTC. 1 week after the halving and LTC slid a spot and lost 20% of it's marketcap in a week.""](https://www.reddit.com/r/BitcoinMarkets/comments/d2kc03/altcoin_discussion_wednesday_september_11_2019/ezxc41d/)

* ["" Litecoin investor. He fell for scam #1 then scam #2 and then cleaned his trail so no one can see what a fool he was.""](https://www.reddit.com/r/btc/comments/ctznyy/anteing_up_the_pressure_roger_its_now_been_over/exptzdj/)

* [""Litecoin's hashrate has dropped""](https://www.reddit.com/r/CryptoCurrency/comments/cvolra/litecoin_hash_rate_since_the_halvening_has/)

* [""shhh don't tell the bagholders. The Litecoin halving is Litecoin last milestone for anything.""](https://www.reddit.com/r/CryptoCurrency/comments/cdycjj/lition_project_caught_dumping_on_supporters/ety06w6/)

* [""but it's been well over 2 years since any LTC development""](https://www.reddit.com/r/CryptoCurrency/comments/cvvxsw/is_litecoin_a_shitcoin/ey8m2sc/)

* [""The others left after Charlie dumped his bags.""](https://www.reddit.com/r/btc/comments/ce5zt9/bch_transaction_growth_dwarfing_btc_and_ltc/eu1y18w/)

* [""all the Litecoin developers left after Charlie dumped his stack.""](https://www.reddit.com/r/btc/comments/cf9oag/why_i_bought_some_bch_despite_ragging_on_it_for/eu9wk5v/)

* [""Litecoin developers left 2 years ago, when Charlie dumped his bags.""](https://www.reddit.com/r/BitcoinMarkets/comments/cp77rx/altcoin_discussion_monday_august_12_2019/ewp2552/)

* [""Is /r/litecoin angry at Charlie Lee for dumping his bags on his followers?""](https://www.reddit.com/r/BitcoinMarkets/comments/cq4gv5/altcoin_discussion_wednesday_august_14_2019/ewvl543/)

* [""there was a litecoin community?""](https://www.reddit.com/r/CryptoCurrency/comments/cvolra/litecoin_hash_rate_since_the_halvening_has/ey80m6m/)

* [""Entire history of Litecoin is shady.""](https://www.reddit.com/r/CryptoCurrency/comments/ch9nli/charlie_lee_deletes_tweet_after_people_expose_the/eurksge/)

* [""The rest of us saw Litecoin's purpose 8 years ago: to get Charlie Lee rich.""](https://www.reddit.com/r/CryptoCurrency/comments/cvvxsw/is_litecoin_a_shitcoin/ey85xud/)

* [""no grudge, I never bought into litecoin. But most of us saw the long con from the start""](https://www.reddit.com/r/CryptoCurrency/comments/ch9nli/charlie_lee_deletes_tweet_after_people_expose_the/eut6lcg/)

* [""I don't accept Liecoin.""](https://www.reddit.com/r/btc/comments/csgcie/bch_developers_keep_shipping_code_24_completed_22/exfm1kz/)

* [""I had a study of most wash traded coins and of the top 200 Litecoin was #4.](https://www.reddit.com/r/BitcoinMarkets/comments/cssjjs/altcoin_discussion_tuesday_august_20_2019/exi85r3/)

* [""The only advantage Litecoin has is being around 8 years to be commonplace such that it has enough liquidity on exchanges. But it fails hard at scaling, while Nano is promising and offers scaling and low fees as promised""](https://www.reddit.com/r/CryptoCurrency/comments/cvolra/litecoin_hash_rate_since_the_halvening_has/ey6a1v8/)

* [""LTC has no value left.""](https://www.reddit.com/r/BitcoinMarkets/comments/cpntxg/altcoin_discussion_tuesday_august_13_2019/ews2gkn/)

* [""Charlie Lee creator of scamcoin and get the creator rich quick, Litecoin""](https://www.reddit.com/r/btc/comments/cz6hcp/are_blockstream_trolls_trying_to_bribe_reddit/eyws4wm/)


I'm pretty sure I could write a bot that would be able to convincingly pass for /u/500239 at this point. I might have actually guessed that you *were* a bot, except for the fact that most of your ""LiTeCOiN iS a ScAM"" comments have their wording ever-so-slightly different from one another, suggesting that these comments aren't automated or scripted, but actually manually typed up by a sad, potentially-legitimately-insane person.

Mindlessly parroting the same four Litecoin-FUD bullet points over and over doesn't do much other than make your fear of the competition more obvious, by the way."
17,ezxwqks,d2kc03,1,"From where I'm sitting, LTC looks good.

Edit: guy above covered it well."
18,ezxhqe7,d2kc03,1,"There are other cryptos supporting offline transactions, why compare to Bitcoin only?"
19,ezykrf9,d2kc03,1,"Yup, that’s a big no for me too."
20,ezzssfv,d2kc03,-1,"It just lost over 40% of it's hashpower during the halving...

and despite all that there was no demand for LTC during it's biggest event in years, the halving. Not sure what to tell you mate, LTC is a zombie coin, with nothing going on and no competitive advantage that gives it a chance versus it's competition.

there's a reason Charlie Lee dumped his LTC bags and immediately shilled Raiblocks/Nano. He saw the writing on the wall. LTC has no competitive advantage and coins like Nano work so much better."
21,ezzs4ui,d2kc03,-1,"man Litecoin has a shady history. LTC foundation marketing LTC to clueluess NFL fans and the suckers don't even know there's no development going on lol

I can tell I've upset a bag holder. FYI Charlie Lee isn't coming back to LTC..."
22,ezzscsr,d2kc03,0,what competitive advantage does Litecoin have that sets it above it's competition?
23,ezvtfbu,d2kc03,4,"That’s the conclusion I came to once I made the trade. It’s funny how it goes lol but I figured with the volume falling today, that it would have a direct affect on the alts. I am just trying to catch a swing from the newbies that have dates like 09/23 ... but really I like the momentum of bakkt and ideas of the upcoming halving event."
24,ezvqzrv,d2kc03,1,"With you. I'm just saying, if BTC does dump to 7-9k I don't see ETH making confident gains until BTC looks demonstrably bullish again"
25,ezwpdu2,d2kc03,0,I bring terrible news from the future!
26,ezzsz81,d2kc03,-1,"which other cryptos require both sender and receiver to both be online at the same time?

I'm only aware of Grin and Bitcoin's Lightning to have those limitations."
27,f00h5de,d2kc03,2,"So, in response to being called out as a mindless parrot, you mindlessly parrot the same deranged FUD? Fun.

In any case, I don't hold (nor trade) Litecoin. But even if I *did* hold Litecoin, as noted above, I would be much less of a bagholder than you, because **Litecoin has outperformed BCH** in the market since BCH launched. It also offers more security, since it doesn't run the same risk of one bored (or bothered) mining operation deciding to 51% it by allocating a tiny percentage of their hashrate towards doing so. It also has the Lindy effect advantage.

But you must already know these things. Why else would you be so terrified of Litecoin?"
28,ezvr0uf,d2kc03,4,"And thinking about it, that doesn't invalidate your suggestion to buy – it just gives people a longer amount of time to do so"
29,ezzx5yc,d2kc03,1,Exactly. This means Bitcoin Lightning is a big no-no too.
30,f00hlhe,d2kc03,0,"you keep attacking me and not the argument... because you don't have an argument.

The following has been confirmed as true:

- leaked Telegram chat of Charlie Lee and LTC foundation confirming there has been no development on LTC for last 2 years as all LTC devs left.

- despite that the LTC foundation went ahead and marketed LTC to clueless NFL Miami Dolphin fans

- LTC halving showed no market demand, hence LTC sliding a spot under Bitcoin Cash. Lost $1Billion in marketcap in 4 days!

Which of these do you have an issue with? 

Also your poor trading advice assumes your a bad trader who holds any crypto bags when the last Dec 2017 bubble popped. You held LTC post Dec 2017 bubble pop? *F*"
31,ezzxb67,d2kc03,1,but you mentioned other cryptos also have this limitation. Which ones are you referring to? I'm just aware of Grin and Bitcoin's LN to have this issue.
32,f00k1tu,d2kc03,2,"I'm not attacking anyone, I'm just pointing out that you are incredibly obsessed with Litecoin, and that it's clear you feel especially threatened by it. It's also clear exactly *why* you are so scared of it; it has outperformed BCH, and could very well flippen it permanently.

Your profligate animosity towards Litecoin reeks of desperation and fear."
33,f000hld,d2kc03,2,"No, I said ""other cryptos support offline transactions""."
34,f00lfr1,d2kc03,0,"If I didn't hold any coin would you even have an argument?

The 3 events I listed above are true whether you're happy about them or not. It's obvious you're not happy. I can link you to Charlie Lee's Twitter post confirming it's real if you still don't believe me. 

I do have to say you have balls of steel to hold crypto post Dec 2017 bubble. Your analysis of BCH and LTC performance reviews lines up with a person that held crypto all while watching the whole market burn. [Balls of steel my man.](https://metro.co.uk/wp-content/uploads/2017/02/dmvidpics-2017-02-20-at-13-46-18.png)"
35,f0014nr,d2kc03,1,"and we were discussing cryptos that only accept online transactions, ie Grin and Lightning."
36,f00oysc,d2kc03,2,">If I didn't hold any coin would you even have an argument?


If you weren't holding such heavy BCH bags, it's doubtful you would be investing such a preposterous amount of effort to trash-talk Litecoin, because you wouldn't feel threatened. In that scenario, there would have been no deranged comment history for me to highlight, so to answer your question: probably not!

>The 3 events I listed above are true whether you're happy about them or not.

Again, I have no particular interest in Litecoin. What I have been pointing out is **how obviously afraid you are of Litecoin**, almost certainly because you're terrified of its price performance beating that of the altcoin *you're* invested in (which it **has**, historically). This fact is true whether you're happy about it or not.

The fact that you're so desperately avoiding acknowledging the hash-share and price performance points I've raised just hammers this home.

>It's obvious you're not happy. 

I'm perfectly happy. I hold Bitcoin. The *real* Bitcoin. Neither LTC nor BCH holds a candle to it. I am not threatened, I am amused by how threatened *you* obviously are.

>I do have to say you have balls of steel to hold crypto post Dec 2017 bubble.

Thanks. I do, indeed. Been holding Bitcoin for *many* years, I've held through multiple bubbles and managed to take significant profits towards the top of each (some of which I've reinvested at subsequent lower prices, some of which I've divested into other assets, some of which I've simply spent and enjoyed). I also had the foresight to convert my airdropped BCH altcoins into BTC at almost 6x the current price ratio, so in a way, you sort of paid for my last vacation. Thanks!"
37,f00qwly,d2kc03,0,"Bitcoin mods are a peculiar bunch. You have to treat them differently than most users.

First you come here in a tizzy because I mentioned actual events that occurred on Litecoin, none of which you refuted of course. This upset and blinded you so then you offer absolutely horrible trading advice like holding crypto post bubble popping and telling me about your performances of said horrible advice. Lastly when all of that fails you start bolding random strings of words in attempt to convey your own emotions in a logical debate."
38,f00sq6p,d2kc03,2,"I haven't offered any trading advice in this thread, but I'll do so now: don't hold BCH over long time intervals. It is a shitcoin.

Anyways, it looks like we're done here. Thanks again for paying for my vacation, bud."
39,f00tkll,d2kc03,0,"lol wtf just happened? 

A /r/Bitcoin mod just showed up to tell me about his vacation plans, his horrible trading advice where you hold BCH/LTC while watching the bubble pop and bolded a few words for good measure like an edgy teenager on MySpace. What a time to be alive."
40,f010sv7,d2kc03,3,"**True summary:**

* [You mindlessly parroted your anti-Litecoin pamphlet](https://www.reddit.com/r/BitcoinMarkets/comments/d2kc03/altcoin_discussion_wednesday_september_11_2019/ezxc41d/) and included the question: ""How are people valuing Litecoin?"" 

* [I pointed out](https://www.reddit.com/r/BitcoinMarkets/comments/d2kc03/altcoin_discussion_wednesday_september_11_2019/ezycah1/):

* 1) Litecoin has outperformed BCH, price-wise.

* 2) Litecoin is the dominant Scrypt coin (with ~99% hash dominance) while BCH is the minority SHA-256 coin (with < 3% hash dominance)

* 3) You, a BCH evangelist and bagholder, seem terrified of the threat Litecoin represents. I included [**40 links to examples of your deranged anti-Litecoin FUD parrotings**](https://www.reddit.com/r/BitcoinMarkets/comments/d2kc03/altcoin_discussion_wednesday_september_11_2019/ezycah1/)

* [You ignored every point I raised, incorrectly accused me of being an angry Litecoin bagholder, and repeated the same tired FUD](https://www.reddit.com/r/BitcoinMarkets/comments/d2kc03/altcoin_discussion_wednesday_september_11_2019/ezzs4ui/)

* [I pointed out that I don't hold Litecoin and reiterated my earlier points, including the fact that **Litecoin has historically performed better as an investment than BCH**](https://www.reddit.com/r/BitcoinMarkets/comments/d2kc03/altcoin_discussion_wednesday_september_11_2019/f00h5de/)

* [You once again ignored what I'd said, once again repeated from your same silly pamphlet, and once again falsely accused me of being a Litecoin bagholder](https://www.reddit.com/r/BitcoinMarkets/comments/d2kc03/altcoin_discussion_wednesday_september_11_2019/f00hlhe/)

* [I noted that you're still showcasing how threatened you feel](https://www.reddit.com/r/BitcoinMarkets/comments/d2kc03/altcoin_discussion_wednesday_september_11_2019/f00k1tu/)

* [You asked if I would have an argument if you weren't such a bagholder and said that I must have balls of steel](https://www.reddit.com/r/BitcoinMarkets/comments/d2kc03/altcoin_discussion_wednesday_september_11_2019/f00lfr1/)

* [I pointed out that cashing out my BCH onto bagholders like you actually paid for the last vacation I took, in a way](https://www.reddit.com/r/BitcoinMarkets/comments/d2kc03/altcoin_discussion_wednesday_september_11_2019/f00oysc/), and thanked you for the profit

* [You pretended like I had been offering trading advice, and misrepresented our conversation awkwardly](https://www.reddit.com/r/BitcoinMarkets/comments/d2kc03/altcoin_discussion_wednesday_september_11_2019/f00qwly/)

* [I gave trading advice for the first time in the thread: **""Don't invest in BCH, because it is a shitcoin""** (and thanked you again)](https://www.reddit.com/r/BitcoinMarkets/comments/d2kc03/altcoin_discussion_wednesday_september_11_2019/f00sq6p/)


**False summary:**

* [This weird thing you just did.](https://www.reddit.com/r/BitcoinMarkets/comments/d2kc03/altcoin_discussion_wednesday_september_11_2019/f00tkll/)

It's interesting how you've gone straight to a ""pretend he gave trading advice he never gave, and call him an edgy teenager on MySpace!"" strategy. I can't say it's a terribly effective technique, but you certainly went for it anyway.

Alright, I think we can all see that you've gone full-troll at this point. Feel free to try to ""get in the last word"" here and misrepresent the situation yet again. You seem to get something out of it, at least. Take care."
41,f011j28,d2kc03,0,I thought you were going to tell me more about your vacation plans in /r/bitcoinmarkets.
0,d2kbyf,d2kbyf,38,"[Daily Discussion] Wednesday, September 11, 2019. **Thread topics include, but are not limited to:**

* General discussion related to the day's events
* Technical analysis, trading ideas & strategies
* Quick questions that do not warrant a separate post

**Thread guidelines:**

* **Be excellent to each other.**
* Do not make posts outside of the daily thread for the topics mentioned above.

**Other ways to interact:**

* [Get an invite](https://join.slack.com/t/reddit-bitcoinmarkets/shared_invite/enQtNjM1NTg3ODgwODUzLTQ2NjZjYjYxMWExZmZmMWY0MDNlN2JlM2RhZmM0NWY1YzY1MDlkOTMyNWFjNTZjYTg1ZDM2YmEwMWRkZjIwYjM) to live chat on [our Slack group](https://reddit-bitcoinmarkets.slack.com/)
* Set your flair to trade pretend money in [the Flair Game](https://coinsight.org/flairgame)
* Weekly threads: [Newbie Mondays](http://www.reddit.com/r/BitcoinMarkets/search?q=newbie+monday&sort=new&restrict_sr=on&t=all) and [Fundamentals Fridays](http://www.reddit.com/r/BitcoinMarkets/search?q=fundamentals+friday&sort=new&restrict_sr=on&t=all)
* Altcoins Discussion: [Altcoin Discussion](http://www.reddit.com/r/BitcoinMarkets/search?q=altcoin+discussion&sort=new&restrict_sr=on&t=all)"
1,ezy8pzb,d2kbyf,1,"#New post: [\[Daily Discussion\] Thursday, September 12, 2019 →](https://www.reddit.com/r/BitcoinMarkets/comments/d32gf8/daily_discussion_thursday_september_12_2019/)"
2,ezvmmz8,d2kbyf,19,I wonder who buys all these dips with such determination...
3,ezvvyoe,d2kbyf,33,Trump just tweeted his advocacy for zero or negative interest rates. That would be lovely for crypto.
4,ezve4zs,d2kbyf,43,fresh daily. bullish.
5,ezwe0xe,d2kbyf,11,"Any thoughts on this hidden bullish divergence that's been shaping up on the [weekly](https://www.tradingview.com/x/EBWaXXit/) and daily?

I typically don't give much credence to hidden divergence vs regular divergence, but this one is pretty text book given our long term uptrend.

Reminds me a bit of this [May-August 2016 hidden bull div](https://www.tradingview.com/x/8WeRpUOQ/), esp given the similar-ish descending triangle formation (ofc that descending triangle did in fact break down, although it recovered very quickly to flatten out and resume the macro uptrend)"
6,ezwvw3y,d2kbyf,14,"Binance's new stable coin pegged to a dollar, BUSD, just had it's first mint--6 million worth

https://etherscan.io/tx/0x55533ae64bdb31735a1e7e92ea3fd8dede895fd350e893e55c7cc877231ccb99

There's so many damn stablecoins now, but wouldn't surprise me if we saw this one grow pretty quickly"
7,ezwgzne,d2kbyf,10,Where's GKLemon?
8,ezwc2zz,d2kbyf,8,"I am a little bit afraid of what is about to come next - please someone hand me a beer and hold my (other) hand. I know you guys prefer popcorn but then nobody would be holding my hand, right?

edit: this thing loves to surround 10'000, it's amazing - the 'psychological barrier' argument gets less and less meaning."
9,ezxi3oc,d2kbyf,9,"Just driving and thinking today, with mining at an all time difficulty, wouldn’t that in turn cause price of over the counter trades to increase? 

I have seen some stats regarding mining difficulty and price increases recently, and it would seem that with difficulty increasing price should be following soon. 

Any contrasting views on this? Or am I missing something all together?"
10,ezwkmpi,d2kbyf,15,"Fat green doji on the hourlies telling us that buying/longing any of these little wicks under $10K is the path to riches, probably also portending a run up."
11,ezwb7r5,d2kbyf,11,"I'm going in a long here, x5 leverage, first entry 10005. I'll be buying 9800, 9400 and 8600, but I'll probably stop before that if my vision on the market changes. My reason right now is that we are in 4 consecutive red days, it's a very unlikely pattern that we see the 5 one, even more the 6. So if we keep seeing too much red in the next days, I won't be calling this a bull market anymore."
12,ezx5jro,d2kbyf,14,"Everyone saying 10k is the new 6k but in reality 9k is the new 6k. 

9k and 9.2k are the critical levels to watch. Everyone freaking out over mini dips needs to chill."
13,ezw5fis,d2kbyf,20,"Why keep buying above $10,000 when it's obvious we can wait for below $10,000 prices."
14,ezvoh9s,d2kbyf,12,"The triangle pattern on the daily chart indicates a heavy movement very soon. Wonder where it will go...
[https://www.tradingview.com/x/vPxVDSGA/](https://www.tradingview.com/x/vPxVDSGA/)"
15,ezx7ouu,d2kbyf,15,"Let's, for a change try to get a sense of the max downside that could result if we were to go into full bear mode of the type seen thrice before. Various indicators were used early part of this year so let's see what number they throw up at this stage:

1. 200 week MA that has been the support for 2015 and the most recent bear market is $4481. But this will rise in coming weeks so probably by the time bear market bottoms, it may be closer to 5k.

2. Metcalf law using wallet addresses containing greater than 0.01btc - at the bottom in Dec, this was 6.41 million and now 7.5 million. If a bear market takes hold, this number could move either way. So taking 7.5 million, the new pivoted bottom is 3128*square(7.5/6.41) so around $ 4282.

3. Google search trends at boring law. In the boring period of Feb, gtrends bottomed at 24 while now when price has again been rangebound, gtrends is showing some stability at around 35. So minimum price that could find support due to this stable interest is 3128 * square (35/24)  = $6652. In reality though, I suspect a bear market might further drive down gtrends from current level so I think the supported price might be closer to mid 5ks.
https://bitinfocharts.com/comparison/google_trends-btc.html#1y

4. Realised Cap is now around $101 billion with an MVRV of 1.82. The last few bottoms have all seen MVRV punch below 1 and infact get closer to 0.7. And no doubt realised cap itself would have taken a hit of at least 10% by the time bottom arrives. So the bottom likely to have a market cap of 90*0.7 = $63 billion.  That gives a price around $3700.

So it looks like a complete bear market bottom would lie most likely in the 4ks should shit hit the fan. That's just over 50% down from here. Should we be scared given most here have experience with living through an 84% drop and still coming out well on recovery?"
16,ezvo4wu,d2kbyf,12,"My question about the manipulation of this market by whales is wouldn't the existence of several whales end up making it potential unpredictable for each of them separately? People here are claiming whales manipulate the market and are guaranteed to make money, but that can't be the case unless there's only very, very few of them"
17,ezwmh1j,d2kbyf,3,Second attempt to bounce it from the lower 12 hour band. Market seems set on testing the middle weekly band tbh
18,ezvrooz,d2kbyf,4,"Is RSI(14, Close) on the daily the same as RSI(14\*6, Close) on 4hr?

[https://www.tradingview.com/x/Z22gdc5K/](https://www.tradingview.com/x/Z22gdc5K/)

[https://www.tradingview.com/x/8QhX4Ks3/](https://www.tradingview.com/x/8QhX4Ks3/)

I just want higher ""resolution"" to the daily RSI..."
19,ezwrc3f,d2kbyf,5,Some potential near term positive/negative catalysts coming up. Sept 12th Binance shutting off US traders.  Sept 23rd Bakkt launch.  Oct 14th NY AG & Bitfinex/Tether hearing/update.  Any other near term you guys can think of?
20,ezvz3zm,d2kbyf,5,"Do you think this is a replay of late 2018? Stabilizes price, low vol ----> price drop?"
21,ezxcmjo,d2kbyf,4,I don't know about this sentiment. Disbelief perhaps?
22,ezxw0bm,d2kbyf,5,"Everyone, everywhere, not just here, is bearish. feels like 4,1k before the breakout.  See you all at 20k soon."
23,ezvh17t,d2kbyf,3,"Anybody used the FTX exchange?

Not shilling - genuinely interested if its a better alternative to Bitmex. Interesting Index Futures as well.

Edit: Seems trustworthy, as it's backed by the guys from Alameda."
24,ezwxpcx,d2kbyf,3,"Going to long here to 10300-10400, let's see what happens"
25,ezx6xg0,d2kbyf,2,"Btw, updated coinbase topholder activity

[https://i.imgur.com/tEJzPVd.png](https://i.imgur.com/tEJzPVd.png) 

 [https://pastebin.com/xxMXDCTD](https://pastebin.com/xxMXDCTD)"
26,ezwn8e4,d2kbyf,3,I'm tempted to open longs here. The r/r is almost there.
27,ezxy356,d2kbyf,2,"Liquidity available below. Long/short ratio still has room to cool-off.

Short @ 10139.50"
28,ezvm57r,d2kbyf,1,"Volume-weighted weekly just looks like a bull flag

https://imgur.com/a/LT8mfiZ"
29,ezxu6xf,d2kbyf,0,"What if everyone was short, and the price collapsed down to new lows, and everyone got rich?   Sort of like 2017 in reverse"
30,ezxvkf2,d2kbyf,-4,"Looking at the daily, there’s no way this isn’t going to 9.7k. Sell entire trading stack and set limit orders accordingly. Thank me later"
31,ezwhskp,d2kbyf,-6,"[This post was censored on r/bitfinex, see my post history]

Tether's ToS were revised in February 2019 ([see appeal to NYAG, page 16 of pdf](https://iapps.courts.state.ny.us/nyscef/ViewDocument?docIndex=Z_PLUS_L8TzJToaa5xZs5MxbgSw==)) to allow its reserves to include credits alongside with US dollars. Before this revision, all issued tethers were contractually covered in full by USD deposits at any given time, and these deposits could not contractually be spent by the company. The ToS included a clause to allow the company to not redeem the tokens, temporarily or permanently, at its discretion.

I seem to conclude that the business model was a planned exit scam.

As of April, Tether's USD reserves cover 68% of all issued tokens ([page 78 of pdf](https://iapps.courts.state.ny.us/nyscef/ViewDocument?docIndex=Z_PLUS_L8TzJToaa5xZs5MxbgSw==))

From page 79, distrust in Tether is claimed to provoke distrust in all crypto currencies:

> The Attorney General’s ex parte, highly inflammatory, and misleading application was widely
> covered in the press, including an article in the Wall Street Journal. See Paul Vigna,
> Bitfinex Used Tether Reserves to Mask Missing $850 Million, Probe Says, Wall Street
> Journal (April 25, 2019) (copy attached as Ex. H). **This coverage resulted in an approximate
> loss of $10 billion across dozens of cryptocurrencies within one hour.** See Ryan Browne &
> Eustance Huang, Cryptocurrencies shed $10 billion in an hour on worries over ‘stablecoin’
>"
32,ezvs3q6,d2kbyf,-3,"Retesting 9100-9300? (Meme triangle)

Is it really ""that obvious""?

https://www.tradingview.com/x/nJsABngI/"
33,ezvmmrg,d2kbyf,0,Woah that spike!
34,ezvnohn,d2kbyf,-6,It will most likely climb to 12k in the next 12 days and then brd to 9.5k in 12 seconds. Just to make sure everyone (except them) loses money. Again.
35,ezvvo9e,d2kbyf,12,Those who sold at higher level with such determination.
36,ezvu9ye,d2kbyf,9,Smart money
37,ezvpffx,d2kbyf,7,Me
38,ezvmzxo,d2kbyf,9,"Someone who understands that this baby market, where a few million can push the price in two digit percentages in either direction, can be played like a flute."
39,ezw2xu7,d2kbyf,9,"Even more interestingly, some entity dumped a veritable shipload of US Treasuries yesterday.  Who? Why?  And the trillion-dollar question: Will any of that cash find its way to Bitcoin?"
40,ezvyw8c,d2kbyf,12,"Of course he would, he has zero savings."
41,ezwitvs,d2kbyf,1,He says that and at the same time he makes unpredictable moves that scare markets and cause a flight to US dollars. If he stopped behaving like that it would have a bigger effect than any interest rate cut.
42,ezven3f,d2kbyf,10,Friday part 2
43,ezveev3,d2kbyf,6,100x long
44,ezwit9u,d2kbyf,6,"It’s one of the big reasons I think applying a fractal pattern here via the late 2018 breakdown might not work. Leaving aside the facts that we’ve been in a clear bull trend prior to this whole pattern developing, and unlike in late 2018 when everyone was convinced 6K was the bottom, now virtually everyone is convinced this descending triangle is due to break down. 

But, hey, I’ve been one of the CME gap boyz for awhile now, so there’s that..."
45,ezwii3m,d2kbyf,-2,"We see the phrase ""text book"" here almost as much as we see ""ATH EOY"".

Come on, post a photo of the page from the pretty text book that covers funky divergences!

P.S. Baby pips is not a text book. Want evidence that there are paper copies of these things ;-)"
46,ezwzcol,d2kbyf,4,What exactly is different between all these various brands of stable coins and why do exchanges not simply use the ones that already exist? I mean fine if they want to stay away from ones that appear shady but then there are others like USDC and DAI and whatever. Why can't Binance use those instead of coming up with yet another stablecoin from their stable? What is in it for them?
47,ezwh8ul,d2kbyf,19,Liquidated
48,ezwckxj,d2kbyf,7,The trick is to cut a hole in the bottom of the popcorn.  Then they can hold something else...
49,ezxp8na,d2kbyf,4,interesting chart:  [https://twitter.com/100trillionUSD/status/1171448643762524160](https://twitter.com/100trillionUSD/status/1171448643762524160)
50,ezxuo0s,d2kbyf,2,"Difficulty chases price, not the other way 'round.

If price rises, miners will bring more capacity online, then difficulty rises.  If prices falls, miners power off less efficient equipment, and difficulty falls (or at least slows down or stabilizes).

There is always a lag time between price rising and difficulty rising.  The current difficulty rise is still part of the price rise we've seen since beginning of 2019."
51,ezxlufx,d2kbyf,2,"Theoretically, assuming that the difficulty is due to an increase of miners and not just existing miners upgrading rigs, it would mean as the difficulty increases, the miners profit less... in order to sustain more miners, it would be in their best interest to increase price, but just depends on where the margins lie..."
52,ezwktxf,d2kbyf,11,"Either way, you degenerates will be getting all the volatility you could possibly want, very very soon"
53,ezwmte8,d2kbyf,-2,It's telling me that bulls can't get it up. Again...
54,ezwdlcs,d2kbyf,4,5 or 6 means nothing. Be safe!
55,ezwca8j,d2kbyf,10,"Good luck longing this bullshit. I’m pretty much done longing. Just buy and hold mode.

Agree, with the bull market comment. I am on the edge of flipping bear and I’ve been a bull for a long time."
56,ezwpqtf,d2kbyf,3,">My reason right now is that we are in 4 consecutive red days, it's a very unlikely pattern that we see the 5 one, even more the 6

bruh...."
57,ezwc7lz,d2kbyf,0,"That's good reasoning.  We are due for a decent sized green daily candle.  5x is too much leverage though, IMO. 

One thing I do know is that you'd have to be dumber than a box of rocks to short or sell here."
58,ezx99eu,d2kbyf,-4,Spinning top forming on daily. I've found spinning top to be pretty telling on the dailies.
59,ezw789k,d2kbyf,25,"Some people believe strongly that BTC will one day be far more valuable than it is today. They don't actively trade, but simply buy as much as they can whenever they can. If BTC reaches 100k, it won't matter if you bought at 9k or 10k."
60,ezw98jh,d2kbyf,7,because we have things to do so it doesn't make sense to us to spend two weeks watching the charts waiting for a 30 minute window where it will be possible to get a couple hundred dollars lower entry price.
61,ezw8b4z,d2kbyf,9,"Why not buy now when it's obvious that the floor is $10,000?  

We're tracking 2016 pretty perfectly.  We had a big run up in June, followed by a pullback and relatively stable period.  Buy now, check back in December.  Pretty simple stuff."
62,ezw6txs,d2kbyf,4,There is nothing obvious in crypto
63,ezw6ifk,d2kbyf,2,When something seems to become obvious in this market - it's better to stop doing it.
64,ezw5voq,d2kbyf,1,exponential resistances are just smacking down any recovery attempt
65,ezw6mkw,d2kbyf,1,Totally worth the risk of a bounce off psychological support in the order of 10 to 20% just to save a couple points. Totally.
66,ezwbmwy,d2kbyf,0,Why buy below $10k when you'll soon be able to buy below $9k?
67,ezw73tm,d2kbyf,0,Bognadoff has killed cpt. Obvious a long time ago.
68,ezwcadg,d2kbyf,3,"Yeah been watching this is well. I initially thought this is pretty much exactly where it would break up, but with the most recent legs I'm inclined to say it's more likely to go to high 9700 or 9800 before breakout."
69,ezvptih,d2kbyf,13,It could very well drag along for \~ another month without much action.
70,ezxa5iz,d2kbyf,-5,"The last full blown bear market brought us to the same level as the previous peak: to about $200 in Jan. 2015.

If we take that as an indicator, we could go as low as $1200 (which was the peak of the previous bull market in Nov. 2013)."
71,ezvod6c,d2kbyf,27,"Yes, youve figured out why manipulation isn't anywhere near as rampant as people say. it definitely occurs, but I'd wager the vast majority of what people perceive as manipulation is just natural market movements in an illiquid, 24/7 market"
72,ezvtwc5,d2kbyf,5,"That is why most actual manipulation happens in altcoins with low market cap where it takes very little funds to control both the buy and sell side.

As the market grows manipulation strategies become more localized both in time to execute and price range to execute. I.e. there can still be manipulation but when it happens is very fast and can only be done in very specific situations (for example a stop loss run)."
73,ezvuq9k,d2kbyf,2,Listen to this podcast it should erase any doubt you may have about market manipulation. https://pca.st/46LM
74,ezvoi0i,d2kbyf,2,"Don't be silly, of course these whale coordinate their market manipulation among themselves."
75,ezvohqt,d2kbyf,1,Unless they all collude with each other....
76,ezxjfgp,d2kbyf,5,You might be on to something. Seeing an inverse H&S-ish formation / rounded bottom too.
77,ezxex3k,d2kbyf,3,Usually breakout attempts that take hours materialize end up being fakeouts. Need strong decisive 200$+ moves for them to hold
78,ezxf7en,d2kbyf,3,Somebody is running out of coins to dump. Shit's gonna blast off any day.
79,ezxeggf,d2kbyf,-1,It is usually the opposite of what it looks like.
80,ezvrz9p,d2kbyf,4,"It depends on your timeframe.

I've been backtesting a new RSI based strategy. For this strategy, 480min and 720min candles were found to perform best. Furthermore, for 720min, an RSI of 14 was best. For 480min you could use an RSI of 9 or 14 to achieve similar results.

So, my thoughts are that if you use 240min that an RSI of 86 is looking too far back and you might want to look at RSI values less than 14 for 240min.  Also consider 'unusual' candles like the 8hour candle if your platform allows."
81,ezvxqx3,d2kbyf,2,"RSI(30\*14, Close) on the daily, those tops really stand out:

[https://www.tradingview.com/x/X4CIGSb5/](https://www.tradingview.com/x/X4CIGSb5/)"
82,ezw0ieo,d2kbyf,1,"More or less. It's movement is scaled down so it doesn't cross 70 and 30 as frequently.

https://www.tradingview.com/x/S3MJOl3h/

https://pastebin.com/FKRR40Vp"
83,ezws2tb,d2kbyf,5,"The fed expected to cut rates again at next the next meeting. Sept 17,18."
84,ezwsja8,d2kbyf,3,"How about US Binance launch - soonish?

https://finance.yahoo.com/news/binance-us-launch-coming-weeks-132404323.html"
85,ezwtveq,d2kbyf,4,"I remember this spring when Binance was hacked and subsequently went down for maintenance, price did the opposite of what I thought it would do. I remember thinking: *shrug* I guess we are mooning now."
86,ezwxmsv,d2kbyf,2,Anddd the for the reminder - I need to move funds outta there ASAP.
87,ezwrvhd,d2kbyf,1,"Things you already know about are probably already priced in.. sometimes it doesn’t need a catalyst, it just move"
88,ezwry9i,d2kbyf,1,"CZ claims the US KYC compliant version of Binance will open in ""weeks""

https://finance.yahoo.com/news/binance-us-launch-coming-weeks-132404323.html"
89,ezxk615,d2kbyf,2,This is quite possibly the dumbest thing I’ve read in awhile.
90,ezvzr0c,d2kbyf,6,"Possible it will play out that way, but the biggest difference is that we haven't broken the 200D in any fashion yet and the long term trend is still up. On chain signals and mining difficulty are also healthier than the 2018 period (for now, anyway)"
91,ezw8pki,d2kbyf,7,No it is 2015 replay. Price stability -> hike.
92,ezw1gur,d2kbyf,13,"No. There are a few key differences:

1) 2018 was a much longer ""stable"" period.  In 2018 we had been ""stable"" for 4-5 months.  Six months ago we were around $4K.  Six months prior to the drop from 6.5K we were sitting at $8-9K  IIRC.

Therefore...

2) In late 2018 we were stabilizing after a fall.  Now we're stabilizing after a rise.  We were struggling to break through $8K just three months ago.

3) 2018 was a ""bear market.""  This is still the early stages of a bull market.  In 2018, normal people were mocking Bitcoin, now they're asking how to get in."
93,ezw41jt,d2kbyf,9,"i think its very possible that the market wants to retest 6k as support. you have to leave every possibility open or you are going to get burned   
edit: if you look at the number of alt and btc longs on bitfinex you can see that theres a ton of top buyers which are underwater right now. a breakdown would be very violent, but i don't think it would last very long."
94,ezw9bbl,d2kbyf,1,"unlikely, late 2018 is too recent a history to be a proper market cycle and repeat itself"
95,ezxdu8w,d2kbyf,28,"Current sentiment analysis of this sub:  
bullish if +1%   
bearish if -1%  

Current meme: descending triangle 

Wild cards: Bakkt meme, ETF meme, binance US"
96,ezwgijy,d2kbyf,12,"I agree with your analysis. However it is all so cut and tidy, which seems almost too perfect and makes me want to build a large long."
97,ezwgiex,d2kbyf,8,"So you're saying things look insanely bullish because it makes everyone think we are bearish, which is usually the catalyst for sudden unexpected bull movement?

Seems like a nice spot to buy. This is Bitcoin after all."
98,ezwiabb,d2kbyf,5,Depression
99,ezwkdx5,d2kbyf,10,Prediction: Comment will not age well.
100,ezwgoi4,d2kbyf,8,"I haven't seen any of your posts before, so I checked your comment history. Looks like you pissed off the permabulls with your analyses. Keep it up! it's always good to see differing trade viewpoints"
101,ezwgkr2,d2kbyf,6,"So many assumptions in this post it's laughable.

""About to break the recent low of 9.4""
""Bulls don't have the strength at all""
""and is about to turn into a death cross.""

LOL! Share some more with us please."
102,ezxz40z,d2kbyf,1,Wasn't everyone bullish at 4.1k?
103,ezxyk5f,d2kbyf,0,"as much as I hope you are right the pessimist in me says thats not true, thats impossible."
104,ezvmxlv,d2kbyf,5,">better alternative to Bitmex.

Out of all the alternatives, each one manages to fuck up something that makes bitmex still the best choice.

[https://help.ftx.com/hc/article\_attachments/360037600311/mceclip0.png](https://help.ftx.com/hc/article_attachments/360037600311/mceclip0.png)

* Ftx is getting too greedy with these fees. I know they don't care about and don't need makers because they want to do it themselves, but normal users pay maker fee too.
* And in addition to this fees, they still maintain a **spread** on contracts other than btc( I see **0.05%** on usdt futures).
* So for the pairs that are available on mex, it's always the better choice. Ftx definitely has some interesting and unique instruments, **usdt futures** is the one thing I can see myself using them for.
* Liquidity is bad because although they've filled up the books, there are no takers and actual trading happening.
* They also force you to margin in usdt and convert your btc to usdt at a spread(again). I like to do everything in btc.
* Finally the most important thing - kyc"
105,ezvhk59,d2kbyf,1,"I don't use it, but they certainly have interesting products to offer."
106,ezvid75,d2kbyf,0,No. It looks gimmicky.
107,ezvr6h4,d2kbyf,0,"In volatile markets like bitcoin negative convexity is a concern with these leveraged tokens:

[https://www.reddit.com/r/BitcoinMarkets/comments/cj5ovr/ftx\_leveraged\_tokens\_will\_scam\_you/](https://www.reddit.com/r/BitcoinMarkets/comments/cj5ovr/ftx_leveraged_tokens_will_scam_you/)"
108,ezx7lj4,d2kbyf,3,how to read this
109,ezxkz8p,d2kbyf,2,"I agree.  Minus a few pumps and dumps, I expect price action to follow along the 21-weekly for the next 6 months at least.  Those long term moving averages need to get above 10k before we can see the next bull market really take hold, in my opinion."
110,ezwnvwu,d2kbyf,0,What's that?
111,ezxyrup,d2kbyf,4,Probably shouldn't read it that way after a strong 4h bulldiv though. Gambling on it being invalidated.
112,ezyr341,d2kbyf,1,What do you mean by liquidity available below?
113,ezwu3ag,d2kbyf,-2,"Also if you don't know who Stanley Druckenmiller is, he's perhaps one of the greatest investors of all time (especially good at identifying unsustainable situations), posting an average 30% returns over 30 years with zero down years. (I don’t say this to imply that he’s always right, but that it’s worth at least considering what he has to say.)"
114,ezxuuto,d2kbyf,8,"you can't even double your position with a short :/

No one gets rich off btc going down, really. maybe they make a pretty penny but ""rich""? unlikely 😔 

I love shorting but a lot of the money I've made has come from longing lol, it's just way more lucrative"
115,ezxw1el,d2kbyf,0,thank you now
116,ezwlsam,d2kbyf,17,"OOh.

FUD from April.

Did you just wake up from a very long nap? Or have you had some limited success with a monodirectional time machine?

The funniest part of this specific fud:

>We don't trust anything that Tether says! Tether says that if people lose trust in Tether, it will result in a huge blow to cryptocurrencies everywhere, and we trust that to be true! So Hurry up and lose trust in Tether! My name is Hari Seldon."
117,ezwm774,d2kbyf,6,"Nobody except complete ignoramuses invest into tether. It is an exchange tool which some traders use at great risk. Tethers solvency, legitimacy,  corruption, etc, have nothing to do with Bitcoin. A run on tether would in fact be a massive bull run on bitcoin. Anyone who sells their Bitcoin because tether fud is true is a moron who shouldn't be in this space to begin with."
118,ezwtmjz,d2kbyf,5,"With Binance moving to BUSD, USDC supply on the move, and DAI offering a decentralized stablecoin, is USDT really as important as it used to be?  There's also TUSD to soak up some excess demand."
119,ezwij1y,d2kbyf,16,"Ah, the good ol' tether fud. I'm one signal away from flipping long at this point."
120,ezwr2tk,d2kbyf,4,"What a lame attempt to save your short. It’s like you googled tether fud and copy pasted it to related subs. It’s old, irrelevant and been discussed to death"
121,ezwivwm,d2kbyf,11,">As of April, Tether's USD reserves cover 68% of all issued tokens ([page 78 of pdf](https://iapps.courts.state.ny.us/nyscef/ViewDocument?docIndex=Z_PLUS_L8TzJToaa5xZs5MxbgSw==))

After the LEO sale in May their USD reserves should be higher (probably still not 100% though). 

Also, fun fact even at just 68% they are *significantly* more backed by genuine USD than almost all banks (who only have a 10% reserve requirement (and that's for large banks--the legal reqs for reserves are even less for small banks).

Not to imply that what Tether did is right! They definitely fucked up, it's just that imo this isn't nearly as scary as it sounds. There's much bigger houses of cards out there."
122,ezx1lvu,d2kbyf,2,"Downvoted and ripped to pieces in the comments. This has to be social engineering, or ppl here are beyond retarded."
123,ezwiel1,d2kbyf,1,"Doesn't look good for Bitfinex, NYAG/USA has total power on anyone messing with the USD"
124,ezw2pjb,d2kbyf,3,"I don't think it's obvious at all. E.g. the lower line should not be horizontal, but slightly upwards slopping at around 9400 USD (going back into July) = the new meme. In this new meme we are right in the middle of a vertical span from top to bottom. There's about equal room in both directions from where we sit before we can talk about meme breakout.

edit: [https://imgur.com/a/nhIvCns](https://imgur.com/a/nhIvCns) Where we are at the moment - and please guys, rather than downvote, please argue/disagree with me :-)"
125,ezw44ru,d2kbyf,0,"Probably more like $9600, but possibly."
126,ezxy313,d2kbyf,4,That's really specific. Did you forget the cents as well?
127,ezxwump,d2kbyf,2,"Jose? Is that you? 

do you only short man? Not mocking you, bc you did make a great call. But why only show up for downwards movement?"
128,ezw8icc,d2kbyf,3,"> a bullish breakdown 

A what now?"
129,ezvsnu7,d2kbyf,6,"a few million. 10%?

principle is correct but this is about 800% exadurated."
130,ezvn7do,d2kbyf,1,"This, to be honest."
131,ezw3wu2,d2kbyf,4,“The Nonening”- love it
132,ezvzbg5,d2kbyf,2,"Hmm thanks, I never thought of this predicament"
133,ezvfxvr,d2kbyf,2,The Resurrection of the Orange Coin Trolls Awakening... Bugaloo
134,ezvet88,d2kbyf,9,100x short
135,ezvelu4,d2kbyf,5,I dare you
136,ezwk737,d2kbyf,7,"Sure! Here's an paper on hidden divergences I found [on Google Scholar](http://www.forexhug.com/ebooks/Hidden_Divergence.pdf):

>In a bullish HD, the indicator makes a lower low, but price makes either a higher low or a double-bottom low. This type of nonconfirmation occurs mainly during corrective declines in an uptrend

*Stocks & Commodities V. 14:7 (285-289): Hidden Divergence by Barbara Star, Ph.D.*

Note that that description is exactly what's happening in my example. This was about a 5 second Google but I'm sure you could find more on Google Books or other sites if you're interested."
137,ezx0ab4,d2kbyf,4,">Why can't Binance use those instead of coming up with yet another stablecoin from their stable? 

I mean, to be fair, Binance does use pretty much every stable coin available. They already have markets with USDC, PAX, USDT, TUSD... I think they just like to have options to make it as easy as possible for their customers to arb between other exchanges.

>What is in it for them?

AFAIK same thing that's in it for all of the stable coin makers. They can make interest on the cash reserves they get from MM deposits. 

There's an expression I've heard thrown around on FinTech twitter a few times recently that comes to mind that--on a long enough time frame--pretty much every startup becomes a bank. This would be a variation on that I would suppose."
138,ezxdl48,d2kbyf,6,"Why skrill when there's paypal, western union, alert pay, visa, mastercard, venmo, greendot, perfect money, paysafecard etc.? They all want their own little fiefdom."
139,ezxdlh4,d2kbyf,5,"> What exactly is different between all these various brands of stable coins and why do exchanges not simply use the ones that already exist?

They're all shady, which is exactly why new ones keep getting released. 

Think about it, if you could say:

""Hey if you bring me gold i'll give you this shiny new crypto token that cost me nothing to create, that is my promise to pay back the gold. Except I have no legal obligation to give any gold back to anyone""

wouldn't you fucking do it? That's why everyone is doing it. Because there are a million suckers out there just itching to empty their pockets."
140,ezx05an,d2kbyf,1,They will probably used any deposited USD to fund other things and basically provide it as fractional reserve.
141,ezx2ipw,d2kbyf,8,"If you don't think Bitcoin is a better store of value than assets pegged to USD than your time preference is too high. 

Since 2010, USD has lost about 15-20% of its purchasing power. I'm sure you're aware BTC has done just a *little better* than that in that time frame. The macro trend aint gonna stop anytime soon either. It's just simple Austrian economics, same as gold, but with more transparent inflation.

I agree it's not a good currency tbh. I *do* think it is a currency though, since, ya know, there are plenty of people who genuinely accept it for payments. (Sure it's not accepted as much as USD or EUR or CNY, but I'm sure it's more widely accepted than at least some smaller nation states' currencies at this point)."
142,ezx200p,d2kbyf,6,"> The fact that ""stable coins"" AKA centralized MySQL databases are popular is conclusive proof that cryptocurrencies are abject failures

That's like saying ""the dollar is still around, crypto is a failure""."
143,ezx57sq,d2kbyf,4,"What? Investors use them only as a like-kind trade, not an investment. When bitcoin tops, like at $19k in December 2017 and recently at $13.8k, the bitcoin is traded for a stablecoin pair, rather than a USD pair. When the price falls, like it has a few times into the $9k’s, the stablecoin is used to buy a greater quantity of bitcoin than the investor sold at $13.8k or $19k."
144,ezx6sqf,d2kbyf,4,"Yeah, you should look up DAI. Not that it is perfect, but it may give you a glimpse to future possibilities ans usd cases of the blockchain"
145,ezwcokr,d2kbyf,3,This guy crip-toes
146,ezxqgb5,d2kbyf,1,Difficulty increases or decreases based on the average time it takes to discover a block. It takes about 2 weeks to update and difficulty is increased when block discovery is too quick (less than 10 minutes) and decreased when block discovery is too slow (more than 10 minutes).
147,ezwluzg,d2kbyf,6,Are you not including yourself as a degenerate?
148,ezwqdo4,d2kbyf,3,"I'm not a degenerate.  I'm a senior hodler who trades gentlemanly amounts as a hobby -- quite successfully, I might add.

> getting all the volatility you could possibly want, very very soon

Is that a promise? Because it's been an hour since you said that, and all I see is a couple nice little rounded bottoms."
149,ezwqaqz,d2kbyf,8,"We're up 20% over the past 90 days and 300 percent over the past 9 months.

Keep on shorting, buddy.  We like taking your money."
150,ezwdw0b,d2kbyf,3,"thanks. we trade on patterns, that's one that I'll be beting on, risk managment under control"
151,ezwe1pg,d2kbyf,1,"thanks, this region seems like a decent entry zone. I can push my liquidation to below 8K if I don't stop it before. buy and hodl always work"
152,ezwe6qr,d2kbyf,1,"thanks! I can push my liquidation to below 8K, so that sounds safe for now, but I'll be watching this closely"
153,ezx6zri,d2kbyf,6,You must be new here then
154,ezx6sxu,d2kbyf,-4,"I have retrieved these for you _ _
 *** 
^^&#32;To&#32;prevent&#32;anymore&#32;lost&#32;limbs&#32;throughout&#32;Reddit,&#32;correctly&#32;escape&#32;the&#32;arms&#32;and&#32;shoulders&#32;by&#32;typing&#32;the&#32;shrug&#32;as&#32;`¯\\\_(ツ)_/¯`&#32;or&#32;`¯\\\_(ツ)\_/¯`

 [^^Click&#32;here&#32;to&#32;see&#32;why&#32;this&#32;is&#32;necessary](https://np.reddit.com/r/OutOfTheLoop/comments/3fbrg3/is_there_a_reason_why_the_arm_is_always_missing/ctn5gbf/)"
155,ezw7hkz,d2kbyf,16,"Of course it matters, you'll have 10% more if you buy at 9k. I think what you mean is, 10% more is not worth the risk of being a nocoiner, so it's fine to just buy now and not wait for better prices that may never come."
156,ezxblf6,d2kbyf,2,This is a trading sub.
157,ezw8xcb,d2kbyf,2,yeah like that 6k floor  :P  oops... :(
158,ezwa7dt,d2kbyf,3,"Agreed. Even CNBC indicator stopped working pretty much the moment it was published. 

This has actually been pretty well researched in other markets. For example someone found out that statistically Mondays had seen, on average, the biggest gains in stocks. As it was published and became common knowledge people started buying on Fridays in anticipation of Monday rallies, which is when it stopped working.

This is also one way the descending triangle may end up breaking up if everyone jumps on the short train in $9K's.

This also means that, assuming you have a reliable indicator or strategy, it's against your own interest to share it with bigger audience."
159,ezw8fo3,d2kbyf,2,"Strong demand at $10K is smacking down any dump attempt.  When those dumped coins get repaid in a few months, you'll see something akin to April-June when last year's dumped coins were repaid."
160,ezvrvyl,d2kbyf,5,"no doubt, but its getting more and more interesting for potential breakouts in both directions."
161,ezxb0ke,d2kbyf,17,"You are not really this foolish are you? Not a chance. At $1200, 10,000 bitcoins only cost $12million. That’s a fire sale price that bitcoin could not even think of reaching for many many many years. If you don’t think you could easily find 1400 buyers in the world to drop in $12 million each and buy up the entire currently available supply, you are already brain-dead."
162,ezxafwo,d2kbyf,6,"Most analysis suggests that the period between that 200 and 1200 were part of a single bull market with a deep consolidation in between. No other time have we seen bear markets come anywhere close to previous bull market tops.

One very clear giveaway.. the mid 2013 drop in fact did not see any decrease at all in realised cap. So it was pure consolidation and accumulation. 

https://coinmetrics.io/charts/#assets=btc_right=CapRealUSD_zoom=1361965049878.211,1387931589896.6797"
163,ezvpe9h,d2kbyf,5,Where can I sign up?
164,ezvvnez,d2kbyf,3,... and steal from those who have nearly nothing. Perpetuum mobile.
165,ezxnp5w,d2kbyf,3,why did you delete so much of your comment history?
166,ezwtuq0,d2kbyf,2,"It is interesting as a rate cut should increase investments with a risk-on appetite yet if the global economy is looking better there is less global uncertainty (trade/currency wars, protests, etc) then less would be inclined to purchase BTC? Always a good subject to discuss.....so much subjectivity"
167,ezwtod0,d2kbyf,2,Thanks - will be on the lookout for a date there.
168,ezwsz6a,d2kbyf,1,"""Binance US is still finalizing the list of states it’ll be available in""

Plus will the coins they offer be different than the alts on other exchanges in the USA?"
169,ezwtnic,d2kbyf,3,Was about understanding upcoming events not impact to price action......arguing over what is baked in is ignorant.  Theoretically any known factual information is baked in.
170,ezxkfml,d2kbyf,8,"Everyone in this room is now dumber for having listened to it. I award you no points, and may God have mercy on your soul."
171,ezw9h5h,d2kbyf,6,"
I never posted before, and have been doing well enough, also thinking that there's not many really successfull people who share

It's amusing to read stuff here though and I am bored

When asked in Dec 17 if she should buy, I told her to wait for 3k, while suggesting to buy at 3.5, just to be sure. Simple reason, the big breakout was never really tested. So, would it be absurd to retest 6k, a big breakout? 
Looking at the monthly it would be just a blip while not being bearish at all in the long run, in my opinion: [Blip](https://www.tradingview.com/x/VHL23yII/)"
172,ezw6rf7,d2kbyf,1,"The longs on BFX seems really high because they have been open for a very long time due to very low funding rates, and the fact shorts were very low when the BFX drama with the ny ag dropped and volume on the exchange died, making the open  longs not be offset by new shorts."
173,ezxj3yn,d2kbyf,10,"if +1% in past 4h: ""descending triangles are only bearish in downtrends. They have 56% chance of breaking up in bull trends. Next resistance is $11k, after that $16k and $20k"" 

if -1% in past 4h: ""$6k repeat. $4k first target, eyeing $2k for long term holds"""
174,ezwgmqu,d2kbyf,7,"Yeah, That was my first thought as well. lmao.

fwiw: my experience with golden/death crosses is that there usually is a time lag. Combine the golden cross with a hidden bull divergence........

Damn, I’m getting bullish again. 🤔"
175,ezx7jib,d2kbyf,1,"Because we've never heard ""you guys are too bullish, I'm switching to short"""
176,ezwisco,d2kbyf,5,* digital dementia.
177,ezwm7nk,d2kbyf,4,"Echo your sentiment. Need other opinions. 

Sincerely, A Permabull"
178,ezy1zze,d2kbyf,8,"No, not at all. Everyone was saying ""everyone here is bullish"" lol

What ends up happening when people try to counter trade is the actual minority opinion is silenced/barely heard but those holding the majority opinion say they're seeing it so much that people begin to believe it. 

---

So it ends up looking like:

""Wow everyone's bearish""

""Lol, everyone's bearish.""

""So many people shorting, seems like it's gonna pump just to rekt everyone"" 

""Longing here, everyone's bearish"" 

""Seems like everyone is bearish here, gonna go long"" 

""Opening a short here""

""Wow everyone in here is bearish, if countertrading sentiment is true should definitely go long"" 

---

People see the word ""bearish"" so many times they begin to believe they  may not be the majority. 

This also happens in reverse a lot (it happened at $4.1k in april and $5.5k in May as well) 

https://www.reddit.com/r/BitcoinMarkets/comments/b7x3kn/daily/ejwcnzb

I noted this here 8 hours before we +$1000 candled up to $5k lol

The only way you can truly accurately gauge sentiment in my experience is with significant futures premium changes and/or trends (rising premium or increasingly large discount)

If everyone could accurately gauge sentiment it would be impossible to trade off of. It's not easy at all to do

Also, sometimes countertrading sentiment leads to getting rekt in the medium term: e.g. funding hugely positive at $9.1k-9.4k on the way up in June, now that's the literal bottom of our range and we went literally 50% higher from there."
179,ezy01li,d2kbyf,1,just my opinion.  I could be wrong.  I also remember everyone shorting 6k in complete disbelief of it breaking 6k on the first go.
180,ezy081t,d2kbyf,3,when I bought at 3-4k area I was at best expecting 6-7k by end of the year. Over 10k seemed like an insane prediction at the time.  I personally like to buy when things slow down and get boring.
181,ezvnar8,d2kbyf,1,"What issues do you have with Bitmex except for the occasional ""overloads""? It has been getting better actually. I ended up moving from Deribit to Bitmex. Dbit has its own form of an overload where they just go down for non-trivial amounts of time."
182,ezvhv6c,d2kbyf,2,"Yeah just looking at it now. Those 3x ERC20 Tokens are VERY interesting.

Can go Long or short without Liquidation risk.... Be very interested to hear peoples experiences.

Edit: That BULLSHIT token is hilarious."
183,ezvijt6,d2kbyf,1,"Yeah - doesn't look or feel as nice as Bitmex.

But interested to hear from users how it performs during PUMP or DUMP times. Getting sick of not having trades execute on Bitmex. If FTX performs better, I could get used to the UI/UX."
184,ezw5amm,d2kbyf,0,"If it's that much of a concern you should be able to profit handsomely by the divergence between the levered and the unlevered asset. The only thing wrong with leveraged ETFs is how people don't understand them, and that's not exactly a problem of the derivative itself."
185,ezx84cv,d2kbyf,6,"Orange line = selling activity (right axis). If its low, people are buying.

No surprises, top holders are buying the dips and selling at the top (short-term)"
186,ezx9d2b,d2kbyf,2,"My notes, I explained in my other reply"
187,ezxr9b3,d2kbyf,4,"Everybody wants a moon, but this is the real moon opportunity.  We are all investing regularly and as much as we can before the moon, right?  BTC going to >$100k immediately means you will be buying >$100k BTC if you want more of it at that point."
188,ezwobgk,d2kbyf,-1,Risk reward. 9k-10k has been holding for 3 months odds are this is just to get rid of traders and hodlers.
189,ezxyysc,d2kbyf,-3,They are invalidated all the time
190,ezyu9bp,d2kbyf,1,Bids. There is enough bids to support selling into them. The market moving to where orders can be fulfilled is often more likely than floating off into thin air.
191,f025opg,d2kbyf,1,"I mean you definitely could, but would have to reset your position and hope the price goes up."
192,ezwoa5s,d2kbyf,-4,"This document was published at the end of August, with additional files dated last week. See [here](https://iapps.courts.state.ny.us/nyscef/DocumentList?docketId=45ijAi/tB8GcCcKjNaL4Qw==&display=all&courtType=Appellate%20Division%20-%201st%20Dept&resultsPageNum=1)."
193,ezwtv48,d2kbyf,2,"Given the capitalization of over $2 billion, it is presently quite relevant. Not for its technical merits though, only for its market share."
194,ezwkbyx,d2kbyf,6,Tether FUD = strong buy signal.
195,ezwivx0,d2kbyf,4,Long with this PA? You are indeed a degenerate trader sir
196,ezwk0av,d2kbyf,10,"> fun fact even at just 68% they are significantly more backed by genuine USD than almost all banks (who only have a 10% reserve requirement

This is probably a stupid comment but don't those banks have insurance from the Federal Government against bank runs, whereas Tether has no such protection?"
197,ezw422z,d2kbyf,4,You’re exaggerating
198,ezvgz32,d2kbyf,2,double dog dare you.
199,ezwvp45,d2kbyf,4,"Haha, well played. You're officially entitled to use the phrase ""pretty text book"" as much as you need to. 

Now we just need to wait and see if the hidden divergence is correct."
200,ezwkaeq,d2kbyf,1,My brain
201,ezxu7a3,d2kbyf,1,"Right, I guess I'm talking more about why the time change occurs. It speeds up because the hash rate increases which means the network is gaining strength either because of miner upgrades and/or increase in miners."
202,ezww3oy,d2kbyf,1,can you teach me how to be gentlemanly?
203,ezxfr0c,d2kbyf,0,dude show me some nice round bottoms :)
204,ezwe7k7,d2kbyf,2,Keep trading the patterns. Thank you.
205,ezweds2,d2kbyf,2,"Yeah, I am just kinda disappointed with this PA went for a long yesterday and it did really well at first and then it dribbled down as it has been with every pump. I might still entertain a long “if” it go’s to 9.5-9.8k. 

Otherwise, if we close in the red today or tomorrow, Ill probably flip the script and begin looking for short opportunities.

Buying and holding most definitely is the best option if you’re still hopeful that we’re in a bull market. But I would account for those buy/holds and be ready to dump them if the wet paper bag falls out from the bottom."
206,ezw7s45,d2kbyf,10,"Yes I was exaggerating. Seems you get the point that if you admit to believing btc is massively undervalued but also admit to having no ability to predict short term price fluctuations, the best risk-adjusted returns are achieved by buying asap."
207,ezwbp9j,d2kbyf,4,Like “one last dump” at 3200
208,ezw40mi,d2kbyf,2,Isn’t a descending triangle bearish?
209,ezxdpgm,d2kbyf,-2,"> Not a chance.

Sir nothing is 100% certain in BTC. :)"
210,ezxc2zx,d2kbyf,-7,The chance of this happening is inversely proportional to the eloquence of the bulls.
211,ezvr446,d2kbyf,7,"Don't worry, once you have enough funds to really move the markets, they'll find you. ;)"
212,ezxlknm,d2kbyf,2,It adds absolutely no value to the conversation.  If this was a shit post subreddit....fair enough.  But you gave zero analogies and/or fundamental similarities other than saying 'it will go up'.
213,ezw8j72,d2kbyf,4,"Well, you missed out on 300 percent gains in nine months so I'm not surprised.

You do you, pal.  You do you.  Take those sweet 2% stuck market gainz.

Let me give you a TA protip:

Don't draw all your lines from one anomalous wick two years ago.  Try tracking the bottoms.  Draw a line from $6K last year to $3.2K earlier this year to $9.1K recently.  Remember that round bottoms are bullish and that the trend is your friend."
214,ezw3dxl,d2kbyf,10,Not everyone bought in late December 2017 like clearly you did.
215,ezvnljv,d2kbyf,2,"Lol same here, and deribit starts lagging sometimes when they don't go down completely. So much for shitting on bitmex with their marketing tactics."
216,ezvmaao,d2kbyf,2,">3x ERC20 Tokens are VERY interesting.

Just looked into it and here are my thoughts -

1.\\ Very high fees - "" The [leveraged tokens](https://ftexchange.com/tokens) have creation and redemption fees of 0.10%, and **daily management fees of 0.03%.**  ""

2. They're not exactly similar to a 3x long -  ""Because the leveraged tokens rebalance each day, the NAV and PnL will track the sum of the daily percent moves in the underlying tokens, which could diverge from the accumulated move.  As markets move and as creations/redemptions are called, a leveraged token's CL might diverge from its TL.  In that case, the token will automatically trade futures to rebalance its portfolio at the beginning of the next day, returning its CL to match TL. ""

>without Liquidation risk

3. Not really, ""the token's account on FTX is subject to the same margin call and liquidation practices as all other accounts, and in the event of large market moves against the account's positions, the account may have some of its positions closed down by the liquidation engine ""

I don't see any reason to use leveraged tokens. Do tell me if I'm missing anything."
217,ezvlc6z,d2kbyf,1,have you tried bybit?
218,ezwhmzc,d2kbyf,1,"It's not that they're leveraged. 

It's that the daily rebalance means they diverge over longer horizons and shouldn't be held for very long at all."
219,ezxcap7,d2kbyf,1,How do the top holders know that the top they are selling is indeed likely to be a short term top?
220,ezxfax6,d2kbyf,1,"did you add those labels or did I just miss them the first time around lol

the unfortunate part of this is all the extra variables this doesn't represent. What if this is only showing 10% of all holders and the other 90% aren't doing anything at all. sub 10k volume and I pretty much stop looking at most short term indicators and things that depend on volume personally"
221,ezwv2r6,d2kbyf,10,what else is there but traders and hodlers?
222,ezwpalh,d2kbyf,7,Who's left after they're gone?
223,ezxz7hf,d2kbyf,2,"Yeah, though it is a point against me. While it (11 Sept 1600h) is the strongest one my indicators have detected since 24 July 1600h (which was invalidated briefly before bounce).

12 April 0000h was a good one!"
224,f02bdlq,d2kbyf,2,"Huh? No, you can't. You can never make more than 100% of your short $ position size. 

If you're saying yes as long as you change position size or close then...yeah...I guess lol but that's not what I'm talking about"
225,ezwovkn,d2kbyf,7,"The AG has simply taken affidavits and material filed as part of the earlier application to dismiss and attached them as exhibits to their memorandum for the current application.

It is literally all old news."
226,ezwkyox,d2kbyf,6,"Fair point but FDIC only covers up to 250k per depositor, so a lot of retirement accounts can still get boned when banks go down. In events like 2008-09 it almost doesn't matter if you're rich in equities, real estate, or USD, pretty much everything gets fucked. 

Point being, I still don't think 10% is enough and that there's much bigger houses of cards built on bad debt in our traditional economy than Tether represents to our virtual economy."
227,ezwl450,d2kbyf,3,Yes. Aka bailouts
228,ezwldrd,d2kbyf,1,"Besides, the European ECB lowered the reserve requirements to only 1% since 2012. By no means this implies that banks hold so little in their own reserves. I remember a guesstimate I made last year, I guesstimated the actual reserves at about 40%. (no source for that)"
229,ezxy864,d2kbyf,2,Jose Artiqua? Thats a blast from the past. Don’t you know BTC bull/bear pennants generally break in the opposite direction? Just sayin.
230,ezx9z81,d2kbyf,4,"Bundle up 1 Billion USD  $1 bills and send them to a location on the other side of the world. Post the costs of transportation and bundling, and more so, *if* the bundles even actually arrived at their destination without being stolen. The same was just done with BTC. It arrived at its destination without being stolen and cost the sender $700.     
You could say, that’s not fair, one is paper and one is digital. So to that I say, try the same transaction using the standard banking system and post the costs. You *will* pay a great deal more than $700!     
So which is actually superior “in every way possible”?"
231,ezx3a0m,d2kbyf,2,"\> Because the dollar is superior to crypto in every way possible.

All darknet and various clearnet retail markets are on BTC and are going to continue this. So not ""in every way possible""."
232,ezx4ccx,d2kbyf,1,"Dollar may be superior as a currency for most use everyday cases but certainly not as a long term store of value. And I mean over periods of 1 year or longer, it is a no brainer to see where value has preserved better (or even increased due to being in early price discovery phase)."
233,ezx9aud,d2kbyf,2,What is your preferred terminology?
234,ezwes9r,d2kbyf,1,"We are seeing lots of negative stuff. Last month we had maybe the biggest sequence of 4h red candles of all time. I went to the past charts looking if that had happened before, and I couldn't find. Later on it was ""explained"" as a chinese ponzi scheme selling their coins."
235,ezw8uet,d2kbyf,1,"I agree - except for during obvious bubbles where the price has already increased 5x or more beyond previous ATH, buying now is the best strategy and will almost certainly beat DCA.

About half the bitcoin I own I bought at ATHs (at the time). Felt terrible paying more than anyone had ever paid, but very soon it became clear that was the right call, as those prices were never seen again."
236,ezwaawb,d2kbyf,1,I agree.
237,ezwvfzb,d2kbyf,1,its only bearish in a bear market.  its considered a continuation pattern so in a bull market it means more up after it breaks.
238,ezvmr7d,d2kbyf,1,"Thanks man.

Agree with 1 and 2. I think with #3 though, the way it works is that it MINTS and ERC20 Token, therefore there is NO possibility of liquidation. You can literally take that ERC20 Token and Transfer it onto a HW wallet like Ledger.

The only risk I see here is if the Token/Exchange is no longer Honoured - due to shutdown, etc..

The cool thing is though, you can 3x Any of the Indices they have..very cool. Not sure if I'll use, but its great to have it available."
239,ezvm27a,d2kbyf,2,"Took a quick look. Looks nice.

My issue is, who the hell are these guys? Theres no info that I can see other than headqaurtered in Singapore and registered in BVI.

Doesn't really scream confidence. Do you have any other info on them?

EDIT: Did some further digging as it looks nice. Looks to damn new to be trusting it with any decent amount. The CEO's linked IN shows he went straight out of college to running a FOREX Bucket Shop, to now running Bybit. 

Checked his Twitter, people complaining Stop losses not working... hmmm.., NOPE for me."
240,ezvlu3l,d2kbyf,1,"No, ill look into it tho."
241,ezwjbf0,d2kbyf,1,"The rebalancing comes as a result of the leverage. And yes, I understand the divergence (and how to profit from it!). Did you read what I wrote?

> you should be able to profit handsomely **by the divergence between the levered and the unlevered asset**.

Again

> shouldn't be held for very long at all

There's nothing wrong with holding them for longer time frames *so long as you understand what you're holding*. Which is why I stated previously

> The only thing wrong with leveraged ETFs is how people don't understand them, and that's not exactly a problem of the derivative itself.

Some of the most successful long term strategies use leveraged ETFs. Just know what you're getting into."
242,ezxf8q2,d2kbyf,2,you are asking how to trade? Haha
243,ezxen18,d2kbyf,1,I don't know
244,ezwwbf1,d2kbyf,16,"Nocoiners.  
  
Filthy, angry nocoiners."
245,ezwrrv3,d2kbyf,3,Noicoiners and Buttcoiners!
246,ezwpdv6,d2kbyf,1,LOL!
247,ezws33n,d2kbyf,4,"I know but isn't that what we are conditioned to believe? The MMs might break the conditioning, won't be the first or last time."
248,ezwqlxh,d2kbyf,-2,"> earlier application to dismiss

The motion for jurisdictional competence was rejected in August both in appeal and by the supreme court, to my understanding this was the first line of defense, which is now gone, and the next motion will concern technicalities regarding whether Tether can be considered a security under the Martin Act."
249,ezwfjd2,d2kbyf,2,"I wouldn’t get too caught up in the narrative that some no-coiners have been constantly peddling. Make no mistake- even though I am somewhat disappointed, I do have the anticipated thought that this will ultimately succeed. I do NOT at all see this as a “chinese ponzi scheme”. 

Right now I have to rationalize my mind and work through the emotions of the 6k schema that I lived through. The key now is not to get emotional and make stupid trades. 

So I am really undecided right now as everyone else is. These times suck because you really don’t know which way it could go. I am on the point of thinking that right now is a moment of truth if we reach ath’s again or not. If Bakkt is all hot air then I would count on this not succeeding the way most bulls think it will."
250,ezwas8a,d2kbyf,4,Shitposting on a subreddit is not a job.
251,ezvnfxx,d2kbyf,1,">NO possibility of liquidation

Umm, liquidation means your account  goes to 0, the same is valid for this, the token will go to 0 when the token account trading on futures gets liquidated."
252,ezvrdqt,d2kbyf,1,"Interview with Sam Bankman-Fried - [https://chatwithtraders.com/ep-177-sam-bankman-fried/](https://chatwithtraders.com/ep-177-sam-bankman-fried/)

In the show notes there is a link to a video of the Alameda guys doing live arbitrage trading that is interesting to watch."
253,ezx730h,d2kbyf,1,"they're using limit orders most likely, have had a great experience so far..much better than having system overloaded and a trading desk working against it's own customers.."
254,ezwyybx,d2kbyf,1,"And glorious, oblivious precoiners."
255,ezwsc54,d2kbyf,3,"Hear, hear!"
256,ezwpg0d,d2kbyf,-5,Just the miners who control supply.
257,ezwr4kj,d2kbyf,4,"The original application to dismiss for lack of jurisdiction was initiated in late April/early May, which is when these documents were first filed.

As you can see [here.](https://iapps.courts.state.ny.us/nyscef/DocumentList?docketId=npvulMdOYzFDYIAomW_PLUS_elw==&display=all&courtType=New%20York%20County%20Supreme%20Court&resultsPageNum=1)"
258,ezxywm8,d2kbyf,3,"Ok, deal. How about?.............Sloppy- you can give it to him LOL! I’m sure he eats tube steaks for breakfast.

JK- 😂 

sloppy I’m just giving you a rip. (love ya man) btw- its a hot potato and I had to pass it quickly. 🤷🏻‍♂️"
259,ezvo22a,d2kbyf,1,"You're right, I shouldn't say, NO possibility but rather it actively tries to avoid liquidation.

""Leveraged tokens will automatically reinvest profits into the underlying asset; so if your leveraged token position makes money, the tokens will automatically put on 3x leveraged positions with that.

Conversely, leveraged tokens will automatically reduce risk if they lose money.  If you put on a 3x long ETH position and over the course of a month ETH falls 33%, your position will be liquidated and you will have nothing left.  But if you instead buy ETHBULL, the leveraged token will automatically sell off some of its ETH as markets go down--likely avoiding liquidation so that it still has assets left even after a 33% down move.""

 [https://help.ftx.com/hc/en-us/articles/360033079651-Why-Use-Leveraged-Tokens-](https://help.ftx.com/hc/en-us/articles/360033079651-Why-Use-Leveraged-Tokens-)"
260,ezwrvs7,d2kbyf,0,"I seem to understand the motion was rejected on August 21 as per page 35. What document do you refer to from the archive you linked?

Edit:

> as you can see here

From the archive you linked, file 115, page 28, the order issued by the supreme court to dismiss the motion is dated August 19, the same day the hearing took place. In August 21 an appeal against that ruling was filed."
261,ezy2bvw,d2kbyf,2,"Lmfao fk u man

But I'm laughing at ""tube steak"""
262,ezwseiv,d2kbyf,6,"What are you talking about? It does not matter when the application was heard.

The documents were published here the date they were filed.

Look for your damn self.

* Filed: 04/25/2019
* Filed: 04/25/2019
* Filed: 04/25/2019
* Filed: 04/25/2019
* Filed: 04/25/2019
* Filed: 04/25/2019
* Filed: 04/25/2019
* Filed: 04/25/2019
* Filed: 04/25/2019

etc.

Now, the AG has taken these documents that were originally filed in April, and they have included them in their memorandum to the court that they filed in August.

And you've dug them up and thought that this shit never made the news in April when it was *all fucking originally filed.*

How do you not understand this? My opinion of you is quickly shifting from naive and obtuse to deliberate bad actor."
263,ezy5bq5,d2kbyf,2,lmao! Sloppy I respect you man. I didn’t know what to do? haha!
264,ezwt73l,d2kbyf,0,The only rejection of the motion for jurisdictional competence by the supreme court is dated August 21. What you assume to be dated April 25 are other hearings.
265,ezx223o,d2kbyf,2,"It literally does not matter what hearing it was for.

The documents you refer to in your first fucking post are from April. You are bringing up old news that we all knew about in April.

They have simply been repackaged by the AG into part of their memorandum that was filed in August.

What do you not understand? It does not matter what the application in April was. The documents were filed then. It does not matter what the August filing was for. The AG just took the old documents and re-filed them as part of their own."
266,ezx2vxu,d2kbyf,1,At last you made one coherent objection. With a more positive and attentive reception to my post I'd have expanded the discussion to my interpretation of what the defensive strategy aims to achieve and to why I believe the defense is aimed at reducing the damage rather than to save the companies.
267,ezx4hip,d2kbyf,-2,"Why are you giving this guy such a hard time? So, he brought up something that isn't current. We talk about older things here too, why not this? It's not like tether doesn't affect the current market either, wasn't there a recent large printing of tether recently? I don't get it really, why all the down votes and mob tendency?

What's in it for you?"
268,ezx30sa,d2kbyf,3,"Oh no.

And now your wisdom is locked away and thrown down a well.

I'm sure we are all very sad about that. It's going to be a real shame we will miss out on a simply stellar legal analysis from someone who can't even understand the dates that documents were filed with the court."
269,ezxes3r,d2kbyf,2,"Some mob polarization occurred when /u/NotGonnaGetBanned, a few posts above, started to talk more in shapes than in substance, showing dates and apparent competence while presenting an incorrect objection, while instead I doubled down on substance but neglected the shape. I believe there is also a psychological phenomenon of perceiving the members of a discussion as polarized in a confrontation between two parties, the OP in one group, and everybody else in the other, ignoring the plurality of positions that instead exist. Anyone who writes a reasonable answer in one group, is automatically classified as a supporter of the group, even though the same answer may be considered reasonable by the other group.

Re-reading this thread top to bottom I can affirm the correctness of the substance I attempted to present, alas in a bad shape."
270,ezx9wli,d2kbyf,1,"Again, from the archive you linked above, file 115 (""*DECISION + ORDER ON MOTION*""), page 28 (last page), the order issued by the supreme court to dismiss the motion is dated August ~~28~~ 19, the same day the hearing took place.

> your wisdom is locked away

The amount arrogance and empty statements I encountered certainly bar some talent from commingling with the discussions."
271,ezxesip,d2kbyf,2,"I am baffled by your behaviour.

The document you linked to is the Memorandum Of Law In Support Of Respondent-Appellants’ Emergency Motion For A Stay Pending Appeal And For An Interim Stay. The style of cause and title for the document is found on page 5 of the pdf you linked. 

In your original post, you first say:

>Tether's ToS were revised in February 2019 (see appeal to NYAG, page 16 of pdf)

I have no idea what page you are actually referencing in the pdf you linked, but attached as an exhibit to that document, the February 26, 2019 Terms of Service can be found as Exhibit 4 on page 87. What does it say at the top of that page?

>FILED: NEW YORK COUNTY CLERK **04/30/2019** 10:12 AM

That's April 30th, 2019. This document comprises [Exhibit B](https://iapps.courts.state.ny.us/nyscef/ViewDocument?docIndex=V2b4vSpPYHBKZEKHogWMxg==) to the [Affidavit of Stuart Hoegner, originally filed on *April 30, 2019*.](https://iapps.courts.state.ny.us/nyscef/ViewDocument?docIndex=SRhgJjZzQXYlFyWiIVeUsA==)

You then go on to say:

>As of April, Tether's USD reserves cover 68% of all issued tokens (page 78 of pdf)

In this case it is easy to see you are referring to page 78 of the linked pdf, which is Exhibit 2. Exhibit 2 of the Memorandum *IS THE AFFIDAVIT OF STUART HOEGNER.* Remember, this Affidavit was originally filed with the court on April 30, 2019. You can verify this, because at the top of each page of Exhibit 2, it says:

>FILED: NEW YORK COUNTY CLERK 04/30/2019 10:12 AM

If the date and time stamps at the top of the exhibits do not convince you, then [look at this image.](https://imgur.com/a/1RMnYXx)

Look at the dates inside the red circles. Those are the dates those documents were filed with the court."
272,ezxff3f,d2kbyf,1,All you say here is correct. Though the supreme court order is dated August 19. See my post just above yours.
0,eztca1x,d28jb9,2,"Manually created Altcoin Discussion thread, since Automod and 15 moderators are down this week.

[Daily Bitcoin discussion can be found here](https://www.reddit.com/r/BitcoinMarkets/comments/d2752y/daily_discussion_tuesday_september_10_2019/)."
0,ezt98k7,d2752y,19,"wow OP is straight up moderator material. 15 /r/BitcoinMarkets moderators couldn't do what you did over the last 4 days and you did it in 5 minutes. 

Expect the mods to delete this thread and comment."
1,ezt7fl7,d2752y,5,Is this an official daily? What a chaotic drama this have become..
2,ezt485e,d2752y,9,"Hey, look!  Friday has ended! :-)"
3,ezt6q60,d2752y,9,"Deleted in 3, 2..."
4,eztg035,d2752y,6,I think the price will tread around $9900 and $10300 for a few days before the low $9ks get tested again.
5,eztk9t7,d2752y,2,Almost time to buy again...
6,ezt6jwb,d2752y,3,"This price action is so painful it makes me want to fucking weep.

I’ve come to the conclusion this will play out until the 21 EMA on the weekly meets the downtrend line from $14k. So another couple of weeks of pain yet.

Come on Bitcoin, prove me wrong..."
7,eztx4va,d2752y,1,It feels like I have seen 10200 for ages
8,ezteyqs,d2752y,1,"I feel like general feeling is this will test 10k again, however I also feel that that is ""too obvious/easily expected"" and thus the manipulation play would be a BGD.. hmmm..."
9,ezt9u1a,d2752y,0,Not the mods fault. Automod broken in all of reddit
10,ezt4e3r,d2752y,2,Is it weekend yet?
11,eztekri,d2752y,9,"""Sorry, honey, I can't please you. The vibrator broke."""
12,eztc1ui,d2752y,10,"It's not automod mods fault, or the mods fault. OP is simply a God among men, creating a thread to imitate a daily discussion thread by imitating the title and body text. If you listen very closely you can hear 15 mods heads explode as they wonder how he did it and why they were impotent for 4 days."
13,eztkige,d2752y,1,Upvote the daily??
0,ezsvup1,d24kvr,3,"Made some trading analysis on altcoin market if anyone is interested. Charts explain why i think we will get at least a relief rally of alts against btc.

BTC.D index chart: https://www.tradingview.com/chart/BTC.D/VNPWwUoE-A-relief-rally-for-ALTS-is-incoming/

ETH weekly chart: https://www.tradingview.com/chart/ETHBTC/FYLcrXbf-ETH-great-LONG-opportunity/

ETH daily chart: https://www.tradingview.com/chart/ETHBTC/kmVnZjYs-ETH-great-LONG-opportunity-Daily-Chart/

As a bonus NANOBTC  weekly chart (really like opportunity in this one): https://www.tradingview.com/chart/NANOBTC/LVteyO01-NANO-to-the-moon-Great-Risk-Reward-opportunity-Binance-chart/

Open for criticism or suggestions :) Trade safe everyone!"
1,ezsw0x3,d24kvr,1,Please let me know if you like this and then i will post more TA for coins i am watching jn the next couple of days.
0,ezqzzsg,d1xlbf,1,Fake satoshi found his private keys after all
0,ezp57zt,d1q6fa,1,With school starting recently all the mods are inactive.
0,ezk6jz2,d1brge,1,nice read
