date,price,gradient_price
2019-01-01-00-00,3241.9,255.52999999999975
2019-01-08-00-00,3497.43,-17.444999999999936
2019-01-15-00-00,3207.01,-190.39499999999998
2019-01-22-00-00,3116.64,-99.67500000000018
2019-01-29-00-00,3007.66,-63.309999999999945
2019-02-05-00-00,2990.02,91.88000000000011
2019-02-12-00-00,3191.42,219.98000000000002
2019-02-19-00-00,3429.98,86.84500000000003
2019-02-26-00-00,3365.11,-79.72499999999991
2019-03-05-00-00,3270.53,29.684999999999945
2019-03-12-00-00,3424.48,119.47999999999979
2019-03-19-00-00,3509.49,16.825000000000045
2019-03-26-00-00,3458.13,95.65000000000009
2019-04-02-00-00,3700.79,620.0900000000001
2019-04-09-00-00,4698.31,379.105
2019-04-16-00-00,4459.0,46.60500000000002
2019-04-23-00-00,4791.52,74.63000000000011
2019-04-30-00-00,4608.26,145.4649999999997
2019-05-07-00-00,5082.45,1178.165
2019-05-14-00-00,6964.59,1053.775
2019-05-21-00-00,7190.0,450.28999999999996
2019-05-28-00-00,7865.17,-43.27500000000009
2019-06-04-00-00,7103.45,-378.78499999999985
2019-06-11-00-00,7107.6,612.6749999999997
2019-06-18-00-00,8328.8,1311.9849999999997
2019-06-25-00-00,9731.57,534.2450000000008
2019-07-02-00-00,9397.29,625.5150000000003
2019-07-09-00-00,10982.6,137.40999999999985
2019-07-16-00-00,9672.11,-893.0349999999999
2019-07-23-00-00,9196.53,-562.665
2019-07-30-00-00,8546.78,616.7349999999997
2019-08-06-00-00,10430.0,804.6349999999993
2019-08-13-00-00,10156.05,-272.6350000000002
2019-08-20-00-00,9884.73,-413.9849999999997
2019-08-27-00-00,9328.08,-190.89499999999953
2019-09-03-00-00,9502.94,9.409999999999854
2019-09-10-00-00,9346.9,-88.50500000000011
2019-09-17-00-00,9325.93,-267.35499999999956
2019-09-24-00-00,8812.19,-865.9650000000001
2019-10-01-00-00,7594.0,-655.1650000000004
2019-10-08-00-00,7501.86,0.49499999999989086
2019-10-15-00-00,7594.99,-66.67499999999973
2019-10-22-00-00,7368.51,374.2950000000001
2019-10-29-00-00,8343.58,540.75
2019-11-05-00-00,8450.01,-224.19999999999982
2019-11-12-00-00,7895.18,-536.1750000000002
2019-11-19-00-00,7377.66,-697.5900000000001
2019-11-26-00-00,6500.0,-385.25
2019-12-03-00-00,6607.16,63.13999999999987
2019-12-10-00-00,6626.28,-212.13999999999987
2019-12-17-00-00,6182.88,-19.134999999999764
2019-12-24-00-00,6588.01,123.55999999999995
2019-12-31-00-00,6430.0,189.5050000000001
2020-01-07-00-00,6967.02,537.0200000000004
